mass_C
t,x,y
0.000000000E0,-5.115000000E2,-1.450000000E1
6.810597289E-2,-5.115000000E2,-1.500000000E1
1.362119458E-1,-5.115659455E2,-1.501491500E1
2.043179187E-1,-5.115866787E2,-1.497376370E1
2.724238916E-1,-5.116191176E2,-1.501192251E1
3.405298645E-1,-5.115666754E2,-1.505196913E1
4.086358374E-1,-5.116221856E2,-1.507252568E1
4.767418103E-1,-5.118589222E2,-1.510303060E1
5.448477832E-1,-5.117714980E2,-1.508566851E1
6.129537560E-1,-5.116620921E2,-1.507692883E1
6.810597289E-1,-5.115789529E2,-1.511258407E1
7.491657018E-1,-5.115344099E2,-1.509409886E1
8.172716747E-1,-5.116247586E2,-1.512918531E1
8.853776476E-1,-5.116555859E2,-1.510536297E1
9.534836205E-1,-5.116142567E2,-1.511398736E1
1.021589593E0,-5.115739110E2,-1.512577329E1
1.089695566E0,-5.114515431E2,-1.505362802E1
1.157801539E0,-5.114899269E2,-1.504971896E1
1.225907512E0,-5.115160960E2,-1.518058993E1
1.294013485E0,-5.114618101E2,-1.552804984E1
1.362119458E0,-5.115438607E2,-1.578904110E1
1.430225431E0,-5.116069060E2,-1.591881026E1
1.498331404E0,-5.115414603E2,-1.588996897E1
1.566437377E0,-5.115822972E2,-1.593499116E1
1.634543349E0,-5.115483007E2,-1.577521228E1
1.702649322E0,-5.114932283E2,-1.582883435E1
1.770755295E0,-5.115677692E2,-1.592570682E1
1.838861268E0,-5.114917135E2,-1.587891968E1
1.906967241E0,-5.115530529E2,-1.590743558E1
1.975073214E0,-5.115959457E2,-1.583151794E1
2.043179187E0,-5.114939634E2,-1.588182347E1
2.111285160E0,-5.114704341E2,-1.591193745E1
2.179391133E0,-5.114788952E2,-1.585594624E1
2.247497105E0,-5.115290183E2,-1.591961297E1
2.315603078E0,-5.115716705E2,-1.591915285E1
2.383709051E0,-5.116577416E2,-1.589311662E1
2.451815024E0,-5.116749521E2,-1.591126484E1
2.519920997E0,-5.116765956E2,-1.594866659E1
2.588026970E0,-5.115897645E2,-1.594517802E1
2.656132943E0,-5.115310565E2,-1.587737955E1
2.724238916E0,-5.115608489E2,-1.592128244E1
2.792344889E0,-5.115720355E2,-1.587041177E1
2.860450862E0,-5.115610583E2,-1.590254870E1
2.928556834E0,-5.116029047E2,-1.589105100E1
2.996662807E0,-5.115598865E2,-1.581136825E1
3.064768780E0,-5.115171096E2,-1.586576527E1
3.132874753E0,-5.115182556E2,-1.598819269E1
3.200980726E0,-5.115298704E2,-1.605349866E1
3.269086699E0,-5.115065321E2,-1.602630165E1
3.337192672E0,-5.115730512E2,-1.606566853E1
3.405298645E0,-5.115621672E2,-1.605073549E1
3.473404618E0,-5.115505959E2,-1.599880292E1
3.541510590E0,-5.115893213E2,-1.601432212E1
3.609616563E0,-5.115474834E2,-1.597400596E1
3.677722536E0,-5.115110316E2,-1.597367025E1
3.745828509E0,-5.115012023E2,-1.591797939E1
3.813934482E0,-5.115189335E2,-1.581822262E1
3.882040455E0,-5.114596134E2,-1.562068472E1
3.950146428E0,-5.114454807E2,-1.555594637E1
4.018252401E0,-5.115430517E2,-1.578831600E1
4.086358374E0,-5.115734235E2,-1.587325637E1
4.154464347E0,-5.115666602E2,-1.593544515E1
4.222570319E0,-5.115636527E2,-1.597829727E1
4.290676292E0,-5.115695688E2,-1.585963577E1
4.358782265E0,-5.115809260E2,-1.580633362E1
4.426888238E0,-5.116439945E2,-1.584602458E1
4.494994211E0,-5.115938209E2,-1.575701293E1
4.563100184E0,-5.115937249E2,-1.563803459E1
4.631206157E0,-5.115542471E2,-1.562715222E1
4.699312130E0,-5.114804427E2,-1.571562867E1
4.767418103E0,-5.114684535E2,-1.582087745E1
4.835524075E0,-5.114987508E2,-1.586593103E1
4.903630048E0,-5.115195798E2,-1.589487848E1
4.971736021E0,-5.115993549E2,-1.590323393E1
5.039841994E0,-5.115699616E2,-1.586820779E1
5.107947967E0,-5.115426870E2,-1.589569195E1
5.176053940E0,-5.115304840E2,-1.594872818E1
5.244159913E0,-5.115175888E2,-1.584735823E1
5.312265886E0,-5.115387134E2,-1.582311752E1
5.380371859E0,-5.115247285E2,-1.597068217E1
5.448477832E0,-5.115997545E2,-1.603903125E1
5.516583804E0,-5.115418589E2,-1.599360596E1
5.584689777E0,-5.115417674E2,-1.598075721E1
5.652795750E0,-5.115439618E2,-1.597953930E1
5.720901723E0,-5.115096138E2,-1.598611574E1
5.789007696E0,-5.114854712E2,-1.600167027E1
5.857113669E0,-5.115011046E2,-1.604354606E1
5.925219642E0,-5.115092396E2,-1.607276379E1
5.993325615E0,-5.115121828E2,-1.609286729E1
6.061431588E0,-5.116450015E2,-1.616990478E1
6.129537560E0,-5.116467209E2,-1.610175303E1
6.197643533E0,-5.117886953E2,-1.624047473E1
6.265749506E0,-5.118679721E2,-1.634286464E1
6.333855479E0,-5.117351315E2,-1.629055407E1
6.401961452E0,-5.117410279E2,-1.636802249E1
6.470067425E0,-5.116931841E2,-1.632446596E1
6.538173398E0,-5.116380055E2,-1.636929721E1
6.606279371E0,-5.116170268E2,-1.655440424E1
6.674385344E0,-5.115667905E2,-1.682479076E1
6.742491316E0,-5.114664529E2,-1.677272679E1
6.810597289E0,-5.114877046E2,-1.676057919E1
6.878703262E0,-5.115404359E2,-1.684909610E1
6.946809235E0,-5.115148881E2,-1.693180670E1
7.014915208E0,-5.116062600E2,-1.696335298E1
7.083021181E0,-5.114857156E2,-1.693771157E1
7.151127154E0,-5.115090193E2,-1.696191839E1
7.219233127E0,-5.115165016E2,-1.701670313E1
7.287339100E0,-5.115390365E2,-1.699754865E1
7.355445073E0,-5.116185335E2,-1.705311221E1
7.423551045E0,-5.115993944E2,-1.709990054E1
7.491657018E0,-5.115034883E2,-1.712531679E1
7.559762991E0,-5.114783352E2,-1.711495907E1
7.627868964E0,-5.113050746E2,-1.707624409E1
7.695974937E0,-5.112874417E2,-1.707421333E1
7.764080910E0,-5.112516327E2,-1.706083253E1
7.832186883E0,-5.112952734E2,-1.705579156E1
7.900292856E0,-5.113286034E2,-1.705019233E1
7.968398829E0,-5.112947805E2,-1.703673121E1
8.036504801E0,-5.111300008E2,-1.708221257E1
8.104610774E0,-5.111151256E2,-1.712600340E1
8.172716747E0,-5.107497438E2,-1.711998855E1
8.240822720E0,-5.105113499E2,-1.707208754E1
8.308928693E0,-5.104960674E2,-1.713017740E1
8.377034666E0,-5.104729665E2,-1.706651160E1
8.445140639E0,-5.104811713E2,-1.704653226E1
8.513246612E0,-5.104397869E2,-1.702160912E1
8.581352585E0,-5.104711164E2,-1.699439391E1
8.649458558E0,-5.104850048E2,-1.701720201E1
8.717564530E0,-5.104859022E2,-1.713135289E1
8.785670503E0,-5.104338599E2,-1.713241478E1
8.853776476E0,-5.104716846E2,-1.713974458E1
8.921882449E0,-5.104316200E2,-1.730985855E1
8.989988422E0,-5.103879984E2,-1.744658366E1
9.058094395E0,-5.102469046E2,-1.759089247E1
9.126200368E0,-5.101395747E2,-1.767374114E1
9.194306341E0,-5.102212126E2,-1.761339953E1
9.262412314E0,-5.101264756E2,-1.783756805E1
9.330518286E0,-5.101637246E2,-1.799828074E1
9.398624259E0,-5.103198563E2,-1.801345974E1
9.466730232E0,-5.102111209E2,-1.792798792E1
9.534836205E0,-5.101072295E2,-1.782664261E1
9.602942178E0,-5.102561603E2,-1.762564520E1
9.671048151E0,-5.102572481E2,-1.772446697E1
9.739154124E0,-5.102060101E2,-1.777300785E1
9.807260097E0,-5.104394832E2,-1.791407948E1
9.875366070E0,-5.104817389E2,-1.787344673E1
9.943472042E0,-5.105604207E2,-1.808651844E1
1.001157802E1,-5.104751080E2,-1.808699059E1
1.007968399E1,-5.104660401E2,-1.800172266E1
1.014778996E1,-5.104632343E2,-1.799943011E1
1.021589593E1,-5.104932968E2,-1.802333771E1
1.028400191E1,-5.104898269E2,-1.811255368E1
1.035210788E1,-5.104754153E2,-1.809881613E1
1.042021385E1,-5.104181436E2,-1.809100435E1
1.048831983E1,-5.104167235E2,-1.802530610E1
1.055642580E1,-5.103444509E2,-1.797694599E1
1.062453177E1,-5.103738177E2,-1.797243519E1
1.069263774E1,-5.104887090E2,-1.797818969E1
1.076074372E1,-5.104635307E2,-1.796745750E1
1.082884969E1,-5.104406142E2,-1.798476097E1
1.089695566E1,-5.104839507E2,-1.797250604E1
1.096506164E1,-5.104039277E2,-1.798475057E1
1.103316761E1,-5.104520516E2,-1.800123858E1
1.110127358E1,-5.104944330E2,-1.801496130E1
1.116937955E1,-5.104334589E2,-1.798299900E1
1.123748553E1,-5.105036880E2,-1.796137824E1
1.130559150E1,-5.105637827E2,-1.793253832E1
1.137369747E1,-5.105279448E2,-1.790361009E1
1.144180345E1,-5.105025966E2,-1.789844536E1
1.150990942E1,-5.104731093E2,-1.797128735E1
1.157801539E1,-5.104512984E2,-1.794899054E1
1.164612136E1,-5.105020853E2,-1.799656213E1
1.171422734E1,-5.104616474E2,-1.786900272E1
1.178233331E1,-5.104562898E2,-1.784177544E1
1.185043928E1,-5.104688401E2,-1.787385670E1
1.191854526E1,-5.104501709E2,-1.786955907E1
1.198665123E1,-5.104680116E2,-1.782854571E1
1.205475720E1,-5.104325222E2,-1.791884280E1
1.212286318E1,-5.104393746E2,-1.791191872E1
1.219096915E1,-5.105333650E2,-1.790991706E1
1.225907512E1,-5.104300379E2,-1.780082409E1
1.232718109E1,-5.104836829E2,-1.791246301E1
1.239528707E1,-5.105563803E2,-1.780234738E1
1.246339304E1,-5.105554592E2,-1.791123056E1
1.253149901E1,-5.105802541E2,-1.788888495E1
1.259960499E1,-5.105861844E2,-1.789206605E1
1.266771096E1,-5.104910351E2,-1.792405474E1
1.273581693E1,-5.106345994E2,-1.789978386E1
1.280392290E1,-5.104929520E2,-1.792660340E1
1.287202888E1,-5.102572588E2,-1.785703783E1
1.294013485E1,-5.102724530E2,-1.777114313E1
1.300824082E1,-5.100432387E2,-1.775061350E1
1.307634680E1,-5.098047440E2,-1.786127277E1
1.314445277E1,-5.099910243E2,-1.793092761E1
1.321255874E1,-5.097004345E2,-1.802645726E1
1.328066471E1,-5.095749903E2,-1.807200161E1
1.334877069E1,-5.096220185E2,-1.815497053E1
1.341687666E1,-5.097088407E2,-1.822523549E1
1.348498263E1,-5.096930855E2,-1.820012023E1
1.355308861E1,-5.096760856E2,-1.821069273E1
1.362119458E1,-5.096378480E2,-1.820129332E1
1.368930055E1,-5.095745858E2,-1.814724419E1
1.375740652E1,-5.095785370E2,-1.814474237E1
1.382551250E1,-5.095706657E2,-1.821878600E1
1.389361847E1,-5.095053927E2,-1.845677821E1
1.396172444E1,-5.094534949E2,-1.863568322E1
1.402983042E1,-5.094143673E2,-1.864140330E1
1.409793639E1,-5.094066985E2,-1.849548072E1
1.416604236E1,-5.093605138E2,-1.825037163E1
1.423414833E1,-5.094815058E2,-1.849484131E1
1.430225431E1,-5.095309534E2,-1.846421520E1
1.437036028E1,-5.094514905E2,-1.862262063E1
1.443846625E1,-5.095577460E2,-1.852454605E1
1.450657223E1,-5.095888504E2,-1.840824849E1
1.457467820E1,-5.096073581E2,-1.838311229E1
1.464278417E1,-5.095408439E2,-1.850867679E1
1.471089015E1,-5.096077396E2,-1.835407708E1
1.477899612E1,-5.095712751E2,-1.821037872E1
1.484710209E1,-5.095895578E2,-1.822758804E1
1.491520806E1,-5.095192793E2,-1.813113968E1
1.498331404E1,-5.095156029E2,-1.815420905E1
1.505142001E1,-5.094884337E2,-1.853042220E1
1.511952598E1,-5.095281512E2,-1.870152735E1
1.518763196E1,-5.094655299E2,-1.875840579E1
1.525573793E1,-5.094796736E2,-1.881980840E1
1.532384390E1,-5.095394657E2,-1.894718225E1
1.539194987E1,-5.094971131E2,-1.896970918E1
1.546005585E1,-5.094966527E2,-1.898007027E1
1.552816182E1,-5.094628958E2,-1.894685156E1
1.559626779E1,-5.094393673E2,-1.898436605E1
1.566437377E1,-5.094415231E2,-1.899986495E1
1.573247974E1,-5.094722429E2,-1.906983282E1
1.580058571E1,-5.094687729E2,-1.919029380E1
1.586869168E1,-5.094487085E2,-1.921703191E1
1.593679766E1,-5.093598118E2,-1.932971928E1
1.600490363E1,-5.094211491E2,-1.933101872E1
1.607300960E1,-5.094113263E2,-1.926655669E1
1.614111558E1,-5.094323238E2,-1.917191988E1
1.620922155E1,-5.093974140E2,-1.932947309E1
1.627732752E1,-5.093954327E2,-1.945888437E1
1.634543349E1,-5.093554707E2,-1.956012411E1
1.641353947E1,-5.093622121E2,-1.976307037E1
1.648164544E1,-5.094356452E2,-1.979572160E1
1.654975141E1,-5.094841316E2,-1.980341697E1
1.661785739E1,-5.095162191E2,-1.969982540E1
1.668596336E1,-5.094824731E2,-1.980422280E1
1.675406933E1,-5.094722837E2,-1.987222424E1
1.682217530E1,-5.094816565E2,-1.979557663E1
1.689028128E1,-5.094542180E2,-1.990350090E1
1.695838725E1,-5.094702149E2,-1.991782382E1
1.702649322E1,-5.094537423E2,-1.987667772E1
1.709459920E1,-5.094257719E2,-1.989998714E1
1.716270517E1,-5.094663743E2,-1.978373765E1
1.723081114E1,-5.095077419E2,-1.978910613E1
1.729891712E1,-5.094799835E2,-1.974928626E1
1.736702309E1,-5.094761002E2,-1.984698392E1
1.743512906E1,-5.094585644E2,-1.991286167E1
1.750323503E1,-5.095074649E2,-1.995192051E1
1.757134101E1,-5.095738117E2,-1.996755328E1
1.763944698E1,-5.096285661E2,-1.997824801E1
1.770755295E1,-5.096741188E2,-1.996772417E1
1.777565893E1,-5.096359973E2,-1.996648294E1
1.784376490E1,-5.095703294E2,-1.996442975E1
1.791187087E1,-5.095471384E2,-2.002633185E1
1.797997684E1,-5.095694292E2,-2.005813203E1
1.804808282E1,-5.095527197E2,-2.005676341E1
1.811618879E1,-5.094853213E2,-2.006611939E1
1.818429476E1,-5.093074501E2,-2.002431831E1
1.825240074E1,-5.093124098E2,-2.005711914E1
1.832050671E1,-5.095091974E2,-2.004953598E1
1.838861268E1,-5.094898703E2,-2.008441110E1
1.845671865E1,-5.095380595E2,-2.009064867E1
1.852482463E1,-5.095169968E2,-2.008066829E1
1.859293060E1,-5.095138726E2,-2.018731471E1
1.866103657E1,-5.095045142E2,-2.011441471E1
1.872914255E1,-5.094493457E2,-2.004814516E1
1.879724852E1,-5.094821416E2,-2.007045961E1
1.886535449E1,-5.094606894E2,-2.007866402E1
1.893346046E1,-5.094382820E2,-2.005221031E1
1.900156644E1,-5.093361181E2,-2.008158406E1
1.906967241E1,-5.093492775E2,-2.012578324E1
1.913777838E1,-5.093962865E2,-2.006274124E1
1.920588436E1,-5.093832465E2,-2.007008472E1
1.927399033E1,-5.094486474E2,-2.015804188E1
1.934209630E1,-5.094298982E2,-2.037667075E1
1.941020227E1,-5.093778342E2,-2.063265430E1
1.947830825E1,-5.094332049E2,-2.085532497E1
1.954641422E1,-5.094379243E2,-2.097759682E1
1.961452019E1,-5.094144565E2,-2.092980628E1
1.968262617E1,-5.094712524E2,-2.094770454E1
1.975073214E1,-5.094449952E2,-2.091294506E1
1.981883811E1,-5.094494001E2,-2.089679802E1
1.988694408E1,-5.094591130E2,-2.090167924E1
1.995505006E1,-5.095194314E2,-2.093219160E1
2.002315603E1,-5.094726757E2,-2.094872745E1
2.009126200E1,-5.094421235E2,-2.096615650E1
2.015936798E1,-5.093752445E2,-2.093604616E1
2.022747395E1,-5.093284022E2,-2.097781623E1
2.029557992E1,-5.092797269E2,-2.110836335E1
2.036368590E1,-5.093258711E2,-2.106612610E1
2.043179187E1,-5.093156816E2,-2.110301466E1
2.049989784E1,-5.092149010E2,-2.113188978E1
2.056800381E1,-5.094678437E2,-2.117922705E1
2.063610979E1,-5.094302259E2,-2.119736870E1
2.070421576E1,-5.093057579E2,-2.120682787E1
2.077232173E1,-5.095116895E2,-2.122687237E1
2.084042771E1,-5.093486002E2,-2.112169116E1
2.090853368E1,-5.091725666E2,-2.110456718E1
2.097663965E1,-5.093322689E2,-2.107654279E1
2.104474562E1,-5.094760306E2,-2.139146386E1
2.111285160E1,-5.091908899E2,-2.110776378E1
2.118095757E1,-5.093592891E2,-2.118217963E1
2.124906354E1,-5.093077786E2,-2.109028693E1
2.131716952E1,-5.092429589E2,-2.120152322E1
2.138527549E1,-5.093377201E2,-2.099863843E1
2.145338146E1,-5.091678194E2,-2.094580135E1
2.152148743E1,-5.090882578E2,-2.093808599E1
2.158959341E1,-5.093324128E2,-2.095892273E1
2.165769938E1,-5.092078975E2,-2.093255545E1
2.172580535E1,-5.091852149E2,-2.099580470E1
2.179391133E1,-5.093585960E2,-2.100477107E1
2.186201730E1,-5.093838793E2,-2.110966254E1
2.193012327E1,-5.093567608E2,-2.120476170E1
2.199822924E1,-5.093905642E2,-2.129282268E1
2.206633522E1,-5.094634042E2,-2.127178867E1
2.213444119E1,-5.093480799E2,-2.116753245E1
2.220254716E1,-5.093434799E2,-2.117398169E1
2.227065314E1,-5.092431913E2,-2.112737418E1
2.233875911E1,-5.092561817E2,-2.118922187E1
2.240686508E1,-5.092065232E2,-2.125121763E1
2.247497105E1,-5.092372866E2,-2.122058797E1
2.254307703E1,-5.093163082E2,-2.117722911E1
2.261118300E1,-5.092504610E2,-2.123077027E1
2.267928897E1,-5.093789640E2,-2.127178943E1
2.274739495E1,-5.093218478E2,-2.117346960E1
2.281550092E1,-5.093132776E2,-2.110477341E1
2.288360689E1,-5.092703847E2,-2.109268657E1
2.295171287E1,-5.092167991E2,-2.099420626E1
2.301981884E1,-5.091544957E2,-2.101523794E1
2.308792481E1,-5.093361238E2,-2.105727067E1
2.315603078E1,-5.094074487E2,-2.104769708E1
2.322413676E1,-5.094308355E2,-2.099533804E1
2.329224273E1,-5.094722597E2,-2.099488744E1
2.336034870E1,-5.094277218E2,-2.096444076E1
2.342845468E1,-5.094046009E2,-2.086385419E1
2.349656065E1,-5.093210184E2,-2.077735880E1
2.356466662E1,-5.091781402E2,-2.071542577E1
2.363277259E1,-5.093752115E2,-2.069430439E1
2.370087857E1,-5.094203263E2,-2.089679682E1
2.376898454E1,-5.094226764E2,-2.088792681E1
2.383709051E1,-5.093924786E2,-2.074969804E1
2.390519649E1,-5.093481739E2,-2.061051353E1
2.397330246E1,-5.091369489E2,-2.056155857E1
2.404140843E1,-5.092288072E2,-2.046520113E1
2.410951440E1,-5.093405542E2,-2.015131950E1
2.417762038E1,-5.094752910E2,-2.010348728E1
2.424572635E1,-5.095167610E2,-2.001425237E1
2.431383232E1,-5.095912865E2,-2.009580994E1
2.438193830E1,-5.097073272E2,-2.014784468E1
2.445004427E1,-5.096805581E2,-2.019798034E1
2.451815024E1,-5.096252675E2,-2.018407967E1
2.458625621E1,-5.096278647E2,-2.016266591E1
2.465436219E1,-5.097257884E2,-2.014476722E1
2.472246816E1,-5.099169922E2,-2.010620476E1
2.479057413E1,-5.100886855E2,-2.015855828E1
2.485868011E1,-5.102154141E2,-2.010557931E1
2.492678608E1,-5.104013654E2,-2.008702466E1
2.499489205E1,-5.104419847E2,-2.006745671E1
2.506299802E1,-5.104353037E2,-1.999264031E1
2.513110400E1,-5.104598738E2,-1.997844047E1
2.519920997E1,-5.104278223E2,-2.002325508E1
2.526731594E1,-5.104513703E2,-2.005342787E1
2.533542192E1,-5.104649536E2,-2.009403517E1
2.540352789E1,-5.104417634E2,-2.018035180E1
2.547163386E1,-5.104182301E2,-2.022644271E1
2.553973984E1,-5.104323444E2,-2.025031532E1
2.560784581E1,-5.104476089E2,-2.010022466E1
2.567595178E1,-5.103994531E2,-2.007041135E1
2.574405775E1,-5.103986618E2,-2.004084135E1
2.581216373E1,-5.104061962E2,-2.002437765E1
2.588026970E1,-5.104259774E2,-2.000774231E1
2.594837567E1,-5.104723922E2,-2.009241821E1
2.601648165E1,-5.105120089E2,-2.007346310E1
2.608458762E1,-5.104651994E2,-2.009062948E1
2.615269359E1,-5.104518802E2,-2.010310631E1
2.622079956E1,-5.104281033E2,-2.014794607E1
2.628890554E1,-5.103720553E2,-2.011620579E1
2.635701151E1,-5.102493240E2,-2.010584227E1
2.642511748E1,-5.102535219E2,-2.008358241E1
2.649322346E1,-5.102498337E2,-2.016510213E1
2.656132943E1,-5.103171441E2,-2.029497377E1
2.662943540E1,-5.102309128E2,-2.033387732E1
2.669754137E1,-5.102222077E2,-2.023056280E1
2.676564735E1,-5.100587719E2,-2.060615628E1
2.683375332E1,-5.100092481E2,-2.083591814E1
2.690185929E1,-5.100823276E2,-2.063009630E1
2.696996527E1,-5.101408673E2,-2.070368005E1
2.703807124E1,-5.100029182E2,-2.074438842E1
2.710617721E1,-5.099830554E2,-2.079508749E1
2.717428318E1,-5.097840924E2,-2.078361572E1
2.724238916E1,-5.097203299E2,-2.093242100E1
2.731049513E1,-5.100008556E2,-2.100513751E1
2.737860110E1,-5.102422462E2,-2.102928862E1
2.744670708E1,-5.102031069E2,-2.101381728E1
2.751481305E1,-5.103375468E2,-2.105561088E1
2.758291902E1,-5.103620680E2,-2.108527938E1
2.765102499E1,-5.104642090E2,-2.110937228E1
2.771913097E1,-5.104506839E2,-2.114217634E1
2.778723694E1,-5.104842540E2,-2.122434461E1
2.785534291E1,-5.104401611E2,-2.125568176E1
2.792344889E1,-5.103005564E2,-2.139552115E1
2.799155486E1,-5.102261136E2,-2.174552083E1
2.805966083E1,-5.102296709E2,-2.194663964E1
2.812776681E1,-5.101691093E2,-2.193496143E1
2.819587278E1,-5.100827195E2,-2.188042483E1
2.826397875E1,-5.101410160E2,-2.187516491E1
2.833208472E1,-5.103253908E2,-2.190505292E1
2.840019070E1,-5.103769706E2,-2.191990840E1
2.846829667E1,-5.103819345E2,-2.191944664E1
2.853640264E1,-5.104571884E2,-2.195387471E1
2.860450862E1,-5.104596428E2,-2.198503901E1
2.867261459E1,-5.104688425E2,-2.192628734E1
2.874072056E1,-5.104385481E2,-2.193197273E1
2.880882653E1,-5.103766145E2,-2.192343509E1
2.887693251E1,-5.104233500E2,-2.195108613E1
2.894503848E1,-5.104859543E2,-2.198755862E1
2.901314445E1,-5.104746059E2,-2.197380113E1
2.908125043E1,-5.105494928E2,-2.209604372E1
2.914935640E1,-5.105617475E2,-2.209306640E1
2.921746237E1,-5.105345944E2,-2.215999058E1
2.928556834E1,-5.105567447E2,-2.218447690E1
2.935367432E1,-5.105560006E2,-2.207209753E1
2.942178029E1,-5.104981295E2,-2.200851684E1
2.948988626E1,-5.104902144E2,-2.209427648E1
2.955799224E1,-5.104881298E2,-2.211614844E1
2.962609821E1,-5.104586579E2,-2.218349153E1
2.969420418E1,-5.104545136E2,-2.221790715E1
2.976231015E1,-5.103925068E2,-2.222023367E1
2.983041613E1,-5.104606184E2,-2.227326249E1
2.989852210E1,-5.104408413E2,-2.222296780E1
2.996662807E1,-5.104234754E2,-2.215712217E1
3.003473405E1,-5.104784894E2,-2.212561526E1
3.010284002E1,-5.104693351E2,-2.210161584E1
3.017094599E1,-5.105103064E2,-2.204196045E1
3.023905196E1,-5.104898487E2,-2.204173367E1
3.030715794E1,-5.105231522E2,-2.208476588E1
3.037526391E1,-5.105380294E2,-2.207382557E1
3.044336988E1,-5.105136854E2,-2.208075703E1
3.051147586E1,-5.106154126E2,-2.214331598E1
3.057958183E1,-5.105974892E2,-2.207804417E1
3.064768780E1,-5.105576233E2,-2.211206485E1
3.071579378E1,-5.105804879E2,-2.204916485E1
3.078389975E1,-5.105765583E2,-2.202047332E1
3.085200572E1,-5.106601804E2,-2.198142825E1
3.092011169E1,-5.106338310E2,-2.198996926E1
3.098821767E1,-5.105827861E2,-2.201520001E1
3.105632364E1,-5.105497321E2,-2.196534998E1
3.112442961E1,-5.105381803E2,-2.194961363E1
3.119253559E1,-5.105964975E2,-2.198445283E1
3.126064156E1,-5.107683695E2,-2.203899507E1
3.132874753E1,-5.108184019E2,-2.200022496E1
3.139685350E1,-5.108537464E2,-2.196742566E1
3.146495948E1,-5.107916241E2,-2.188044356E1
3.153306545E1,-5.108484804E2,-2.196039370E1
3.160117142E1,-5.106602976E2,-2.201325356E1
3.166927740E1,-5.105817914E2,-2.200348751E1
3.173738337E1,-5.104911588E2,-2.195943108E1
3.180548934E1,-5.104983807E2,-2.193889203E1
3.187359531E1,-5.105663259E2,-2.196058753E1
3.194170129E1,-5.105473853E2,-2.193173098E1
3.200980726E1,-5.105312893E2,-2.192132051E1
3.207791323E1,-5.105437196E2,-2.191938775E1
3.214601921E1,-5.106033224E2,-2.193214024E1
3.221412518E1,-5.105479801E2,-2.192122417E1
3.228223115E1,-5.105172430E2,-2.187097759E1
3.235033712E1,-5.105517309E2,-2.180232195E1
3.241844310E1,-5.105902133E2,-2.172771544E1
3.248654907E1,-5.106115629E2,-2.170409040E1
3.255465504E1,-5.105414747E2,-2.172581587E1
3.262276102E1,-5.105931553E2,-2.146872514E1
3.269086699E1,-5.105362099E2,-2.115488158E1
3.275897296E1,-5.105213708E2,-2.114373585E1
3.282707893E1,-5.105569159E2,-2.128041712E1
3.289518491E1,-5.104755073E2,-2.134686513E1
3.296329088E1,-5.103650646E2,-2.121716603E1
3.303139685E1,-5.101465396E2,-2.107763847E1
3.309950283E1,-5.101457618E2,-2.108937835E1
3.316760880E1,-5.097357755E2,-2.112068960E1
3.323571477E1,-5.096453055E2,-2.109400629E1
3.330382075E1,-5.096067876E2,-2.100397221E1
3.337192672E1,-5.095429239E2,-2.097763845E1
3.344003269E1,-5.095132471E2,-2.101327674E1
3.350813866E1,-5.095440949E2,-2.104299261E1
3.357624464E1,-5.095365117E2,-2.108058051E1
3.364435061E1,-5.095431976E2,-2.105216463E1
3.371245658E1,-5.095253530E2,-2.098101484E1
3.378056256E1,-5.095496302E2,-2.097362615E1
3.384866853E1,-5.095037874E2,-2.101159102E1
3.391677450E1,-5.095367362E2,-2.101958840E1
3.398488047E1,-5.096485059E2,-2.101354602E1
3.405298645E1,-5.096654900E2,-2.102201219E1
3.412109242E1,-5.096536448E2,-2.101046676E1
3.418919839E1,-5.096303132E2,-2.095017490E1
3.425730437E1,-5.096471079E2,-2.086959330E1
3.432541034E1,-5.096515932E2,-2.084573478E1
3.439351631E1,-5.096249678E2,-2.079379821E1
3.446162228E1,-5.096080653E2,-2.091885001E1
3.452972826E1,-5.095786028E2,-2.095879498E1
3.459783423E1,-5.095765082E2,-2.099594006E1
3.466594020E1,-5.096054622E2,-2.104456307E1
3.473404618E1,-5.096616514E2,-2.106737545E1
3.480215215E1,-5.096610290E2,-2.102150819E1
3.487025812E1,-5.096476213E2,-2.102474118E1
3.493836409E1,-5.098036857E2,-2.105233488E1
3.500647007E1,-5.096450371E2,-2.103417406E1
3.507457604E1,-5.096621730E2,-2.109678526E1
3.514268201E1,-5.096104543E2,-2.117562523E1
3.521078799E1,-5.096499432E2,-2.118174898E1
3.527889396E1,-5.097746163E2,-2.112601309E1
3.534699993E1,-5.098461783E2,-2.109765034E1
3.541510590E1,-5.096883200E2,-2.112985700E1
3.548321188E1,-5.096948936E2,-2.117643061E1
3.555131785E1,-5.096265755E2,-2.123516900E1
3.561942382E1,-5.095112815E2,-2.117115988E1
3.568752980E1,-5.094464785E2,-2.114873030E1
3.575563577E1,-5.094185589E2,-2.113528242E1
3.582374174E1,-5.093877660E2,-2.102066906E1
3.589184772E1,-5.094145511E2,-2.098521257E1
3.595995369E1,-5.094075090E2,-2.099437693E1
3.602805966E1,-5.093538336E2,-2.102884611E1
3.609616563E1,-5.093722921E2,-2.102928394E1
3.616427161E1,-5.094210144E2,-2.105133052E1
3.623237758E1,-5.094568609E2,-2.109300152E1
3.630048355E1,-5.094954753E2,-2.111538965E1
3.636858953E1,-5.094955047E2,-2.109468895E1
3.643669550E1,-5.094374194E2,-2.102055939E1
3.650480147E1,-5.094629991E2,-2.105432812E1
3.657290744E1,-5.094201065E2,-2.108901146E1
3.664101342E1,-5.094776961E2,-2.111672832E1
3.670911939E1,-5.095078947E2,-2.118633140E1
3.677722536E1,-5.095074458E2,-2.118756824E1
3.684533134E1,-5.095533790E2,-2.115667340E1
3.691343731E1,-5.094837796E2,-2.107307224E1
3.698154328E1,-5.094962826E2,-2.116544281E1
3.704964925E1,-5.095182800E2,-2.123474519E1
3.711775523E1,-5.095130069E2,-2.132812738E1
3.718586120E1,-5.094866787E2,-2.154640845E1
3.725396717E1,-5.095471138E2,-2.158490589E1
3.732207315E1,-5.095036333E2,-2.164464862E1
3.739017912E1,-5.094639407E2,-2.153816018E1
3.745828509E1,-5.095169945E2,-2.175511297E1
3.752639106E1,-5.095427837E2,-2.149790354E1
3.759449704E1,-5.095391274E2,-2.120400013E1
3.766260301E1,-5.095094798E2,-2.106988712E1
3.773070898E1,-5.094360239E2,-2.106829545E1
3.779881496E1,-5.094135577E2,-2.108916238E1
3.786692093E1,-5.093975151E2,-2.110295649E1
3.793502690E1,-5.093275753E2,-2.105541872E1
3.800313287E1,-5.093376472E2,-2.101058231E1
3.807123885E1,-5.094017320E2,-2.101509232E1
3.813934482E1,-5.094088653E2,-2.102048249E1
3.820745079E1,-5.093362349E2,-2.101586920E1
3.827555677E1,-5.093562641E2,-2.101149171E1
3.834366274E1,-5.093948833E2,-2.098849187E1
3.841176871E1,-5.094203967E2,-2.093742588E1
3.847987469E1,-5.094928232E2,-2.099691222E1
3.854798066E1,-5.094542839E2,-2.099765410E1
3.861608663E1,-5.093939931E2,-2.099578191E1
3.868419260E1,-5.094650650E2,-2.117541897E1
3.875229858E1,-5.094749549E2,-2.117898302E1
3.882040455E1,-5.095609178E2,-2.125402848E1
3.888851052E1,-5.095825756E2,-2.119006842E1
3.895661650E1,-5.096086159E2,-2.133446099E1
3.902472247E1,-5.096056216E2,-2.146205225E1
3.909282844E1,-5.095444533E2,-2.156071041E1
3.916093441E1,-5.095386845E2,-2.166240517E1
3.922904039E1,-5.094924457E2,-2.158379331E1
3.929714636E1,-5.096036684E2,-2.138562238E1
3.936525233E1,-5.095579741E2,-2.123796613E1
3.943335831E1,-5.094733025E2,-2.118665006E1
3.950146428E1,-5.095510608E2,-2.110135010E1
3.956957025E1,-5.096563358E2,-2.106352133E1
3.963767622E1,-5.096567030E2,-2.111362729E1
3.970578220E1,-5.095918238E2,-2.108521575E1
3.977388817E1,-5.096070820E2,-2.111724730E1
3.984199414E1,-5.097371543E2,-2.108830121E1
3.991010012E1,-5.099524980E2,-2.107618581E1
3.997820609E1,-5.099056676E2,-2.105045094E1
4.004631206E1,-5.098136717E2,-2.105355085E1
4.011441803E1,-5.097556979E2,-2.103417672E1
4.018252401E1,-5.097905327E2,-2.104556000E1
4.025062998E1,-5.099443625E2,-2.105826633E1
4.031873595E1,-5.098480227E2,-2.105931565E1
4.038684193E1,-5.097072617E2,-2.107592862E1
4.045494790E1,-5.096892952E2,-2.101788399E1
4.052305387E1,-5.096160915E2,-2.098721939E1
4.059115984E1,-5.095374519E2,-2.095875955E1
4.065926582E1,-5.095678933E2,-2.100153754E1
4.072737179E1,-5.096719529E2,-2.099267922E1
4.079547776E1,-5.097152653E2,-2.096734713E1
4.086358374E1,-5.096264974E2,-2.090306886E1
4.093168971E1,-5.095122753E2,-2.068979787E1
4.099979568E1,-5.093928788E2,-2.048820616E1
4.106790165E1,-5.093618780E2,-2.052872299E1
4.113600763E1,-5.093755576E2,-2.058947306E1
4.120411360E1,-5.094642133E2,-2.078147615E1
4.127221957E1,-5.095459822E2,-2.085283899E1
4.134032555E1,-5.095304300E2,-2.083670128E1
4.140843152E1,-5.094869068E2,-2.082499640E1
4.147653749E1,-5.095462250E2,-2.086082802E1
4.154464347E1,-5.095094365E2,-2.087903643E1
4.161274944E1,-5.095334479E2,-2.083016510E1
4.168085541E1,-5.094935360E2,-2.087366352E1
4.174896138E1,-5.094627402E2,-2.080219545E1
4.181706736E1,-5.094806324E2,-2.061287620E1
4.188517333E1,-5.094768350E2,-2.075129393E1
4.195327930E1,-5.095230331E2,-2.085351122E1
4.202138528E1,-5.096053659E2,-2.098434536E1
4.208949125E1,-5.096195519E2,-2.097337053E1
4.215759722E1,-5.096852817E2,-2.097662202E1
4.222570319E1,-5.096713408E2,-2.097993709E1
4.229380917E1,-5.095946409E2,-2.095765534E1
4.236191514E1,-5.095863081E2,-2.096840077E1
4.243002111E1,-5.096340825E2,-2.098181038E1
4.249812709E1,-5.097216565E2,-2.098572606E1
4.256623306E1,-5.098614850E2,-2.097020554E1
4.263433903E1,-5.097920009E2,-2.092104179E1
4.270244500E1,-5.097760938E2,-2.087856588E1
4.277055098E1,-5.097389943E2,-2.081771556E1
4.283865695E1,-5.097222429E2,-2.068173592E1
4.290676292E1,-5.096690330E2,-2.072326685E1
4.297486890E1,-5.096536262E2,-2.062645021E1
4.304297487E1,-5.095807037E2,-2.066970110E1
4.311108084E1,-5.096064762E2,-2.073582394E1
4.317918681E1,-5.095991151E2,-2.048482256E1
4.324729279E1,-5.095484992E2,-2.016216161E1
4.331539876E1,-5.095989097E2,-2.025626204E1
4.338350473E1,-5.096136806E2,-2.028536113E1
4.345161071E1,-5.096267232E2,-2.017699944E1
4.351971668E1,-5.097783736E2,-2.027975871E1
4.358782265E1,-5.097184225E2,-2.023474190E1
4.365592862E1,-5.096712699E2,-2.020860129E1
4.372403460E1,-5.097249593E2,-2.019482779E1
4.379214057E1,-5.097512160E2,-2.014978968E1
4.386024654E1,-5.097277729E2,-2.022308262E1
4.392835252E1,-5.096253015E2,-2.020315887E1
4.399645849E1,-5.096023713E2,-2.048422411E1
4.406456446E1,-5.095972082E2,-2.038128475E1
4.413267044E1,-5.094715636E2,-2.069571241E1
4.420077641E1,-5.093858760E2,-2.076780701E1
4.426888238E1,-5.094242373E2,-2.079209890E1
4.433698835E1,-5.094564787E2,-2.077048918E1
4.440509433E1,-5.094995486E2,-2.087823178E1
4.447320030E1,-5.094823740E2,-2.086251280E1
4.454130627E1,-5.094862823E2,-2.085178212E1
4.460941225E1,-5.093612104E2,-2.085180010E1
4.467751822E1,-5.094317973E2,-2.096984205E1
4.474562419E1,-5.094694960E2,-2.099978296E1
4.481373016E1,-5.094501949E2,-2.088257613E1
4.488183614E1,-5.094655811E2,-2.083090366E1
4.494994211E1,-5.094705682E2,-2.083765594E1
4.501804808E1,-5.094687847E2,-2.091670071E1
4.508615406E1,-5.094911948E2,-2.076335023E1
4.515426003E1,-5.094531566E2,-2.077129962E1
4.522236600E1,-5.094282634E2,-2.085506338E1
4.529047197E1,-5.094665467E2,-2.089558969E1
4.535857795E1,-5.094725691E2,-2.088833939E1
4.542668392E1,-5.094852094E2,-2.092480155E1
4.549478989E1,-5.094133797E2,-2.088410039E1
4.556289587E1,-5.094458220E2,-2.093384068E1
4.563100184E1,-5.095554248E2,-2.097289867E1
4.569910781E1,-5.098907717E2,-2.094397668E1
4.576721378E1,-5.098120831E2,-2.102485933E1
4.583531976E1,-5.100013161E2,-2.101801365E1
4.590342573E1,-5.100049004E2,-2.094481077E1
4.597153170E1,-5.098395759E2,-2.093334304E1
4.603963768E1,-5.095844888E2,-2.096632892E1
4.610774365E1,-5.096171699E2,-2.090188689E1
4.617584962E1,-5.097167906E2,-2.098634811E1
4.624395559E1,-5.098682686E2,-2.102257988E1
4.631206157E1,-5.099945767E2,-2.104699816E1
4.638016754E1,-5.099348845E2,-2.101449115E1
4.644827351E1,-5.098169405E2,-2.100299854E1
4.651637949E1,-5.099082324E2,-2.099649916E1
4.658448546E1,-5.095822702E2,-2.098170998E1
4.665259143E1,-5.095829410E2,-2.092175279E1
4.672069741E1,-5.095379696E2,-2.091740603E1
4.678880338E1,-5.095961266E2,-2.102242418E1
4.685690935E1,-5.097767772E2,-2.102901114E1
4.692501532E1,-5.095907582E2,-2.098683097E1
4.699312130E1,-5.095323943E2,-2.094728438E1
4.706122727E1,-5.095837632E2,-2.099234561E1
4.712933324E1,-5.095412632E2,-2.101093734E1
4.719743922E1,-5.095717289E2,-2.106002343E1
4.726554519E1,-5.095558082E2,-2.108316368E1
4.733365116E1,-5.094330399E2,-2.104232297E1
4.740175713E1,-5.095235096E2,-2.104309392E1
4.746986311E1,-5.094815382E2,-2.104549343E1
4.753796908E1,-5.094117018E2,-2.096098103E1
4.760607505E1,-5.095101786E2,-2.094343286E1
4.767418103E1,-5.094862563E2,-2.088960769E1
4.774228700E1,-5.094352917E2,-2.083231276E1
4.781039297E1,-5.094778494E2,-2.093738755E1
4.787849894E1,-5.094237364E2,-2.091634346E1
4.794660492E1,-5.093976376E2,-2.092253321E1
4.801471089E1,-5.094357094E2,-2.090326605E1
4.808281686E1,-5.093987247E2,-2.089747702E1
4.815092284E1,-5.094597562E2,-2.091114717E1
4.821902881E1,-5.094638258E2,-2.095533672E1
4.828713478E1,-5.094570249E2,-2.093713878E1
4.835524075E1,-5.094787442E2,-2.092647037E1
4.842334673E1,-5.094497214E2,-2.098304838E1
4.849145270E1,-5.094793529E2,-2.103361504E1
4.855955867E1,-5.095272643E2,-2.113180248E1
4.862766465E1,-5.094993277E2,-2.113806308E1
4.869577062E1,-5.095729465E2,-2.111176344E1
4.876387659E1,-5.094842805E2,-2.110634659E1
4.883198256E1,-5.095038055E2,-2.107913495E1
4.890008854E1,-5.095128444E2,-2.115315275E1
4.896819451E1,-5.095164635E2,-2.121538365E1
4.903630048E1,-5.094632835E2,-2.135491832E1
4.910440646E1,-5.095061871E2,-2.136942218E1
4.917251243E1,-5.094548367E2,-2.122183241E1
4.924061840E1,-5.094655121E2,-2.153053443E1
4.930872438E1,-5.094804138E2,-2.160034204E1
4.937683035E1,-5.095825638E2,-2.139679525E1
4.944493632E1,-5.097159416E2,-2.134078882E1
4.951304229E1,-5.096965551E2,-2.144463346E1
4.958114827E1,-5.096220865E2,-2.117784347E1
4.964925424E1,-5.096611225E2,-2.116024322E1
4.971736021E1,-5.095863786E2,-2.107411494E1
4.978546619E1,-5.095125188E2,-2.104315422E1
4.985357216E1,-5.095496028E2,-2.103210582E1
4.992167813E1,-5.095965207E2,-2.102626671E1
4.998978410E1,-5.096303426E2,-2.099940737E1
5.005789008E1,-5.096115931E2,-2.094575247E1
5.012599605E1,-5.095972952E2,-2.087954797E1
5.019410202E1,-5.095833806E2,-2.095996965E1
5.026220800E1,-5.095927341E2,-2.099121365E1
5.033031397E1,-5.095936730E2,-2.099311437E1
5.039841994E1,-5.095474057E2,-2.093809821E1
5.046652591E1,-5.095373440E2,-2.094873655E1
5.053463189E1,-5.095355484E2,-2.091766365E1
5.060273786E1,-5.095985747E2,-2.092049074E1
5.067084383E1,-5.095942096E2,-2.093700739E1
5.073894981E1,-5.095693631E2,-2.098394425E1
5.080705578E1,-5.095182129E2,-2.097048773E1
5.087516175E1,-5.094847323E2,-2.099116990E1
5.094326772E1,-5.095091257E2,-2.099835008E1
5.101137370E1,-5.095160999E2,-2.102313809E1
5.107947967E1,-5.095430315E2,-2.102166560E1
5.114758564E1,-5.095300382E2,-2.102919727E1
5.121569162E1,-5.095810400E2,-2.105750650E1
5.128379759E1,-5.095584450E2,-2.102534615E1
5.135190356E1,-5.095571879E2,-2.099729256E1
5.142000953E1,-5.095735489E2,-2.101877142E1
5.148811551E1,-5.096416302E2,-2.105291804E1
5.155622148E1,-5.096228867E2,-2.094593865E1
5.162432745E1,-5.095381755E2,-2.089988677E1
5.169243343E1,-5.095779477E2,-2.094186045E1
5.176053940E1,-5.096095031E2,-2.097745822E1
5.182864537E1,-5.097513011E2,-2.094759648E1
5.189675135E1,-5.098226070E2,-2.098031513E1
5.196485732E1,-5.096820508E2,-2.094926776E1
5.203296329E1,-5.095801427E2,-2.101407564E1
5.210106926E1,-5.096640770E2,-2.106946073E1
5.216917524E1,-5.095730133E2,-2.105467589E1
5.223728121E1,-5.095130803E2,-2.103418544E1
5.230538718E1,-5.094961112E2,-2.100253105E1
5.237349316E1,-5.094863606E2,-2.100251299E1
5.244159913E1,-5.095261551E2,-2.106810272E1
5.250970510E1,-5.094844731E2,-2.108190438E1
5.257781107E1,-5.094581404E2,-2.108042086E1
5.264591705E1,-5.095441973E2,-2.115383129E1
5.271402302E1,-5.096803041E2,-2.130988032E1
5.278212899E1,-5.095705755E2,-2.147620374E1
5.285023497E1,-5.095619803E2,-2.129433832E1
5.291834094E1,-5.095443278E2,-2.128467939E1
5.298644691E1,-5.095442033E2,-2.131610737E1
5.305455288E1,-5.095880011E2,-2.122440964E1
5.312265886E1,-5.095916814E2,-2.140656330E1
5.319076483E1,-5.097195517E2,-2.143735451E1
5.325887080E1,-5.098024270E2,-2.147230497E1
5.332697678E1,-5.097960288E2,-2.150757000E1
5.339508275E1,-5.100361660E2,-2.181266188E1
5.346318872E1,-5.103053067E2,-2.177475331E1
5.353129469E1,-5.104095030E2,-2.187713284E1
5.359940067E1,-5.103941820E2,-2.182239552E1
5.366750664E1,-5.104101044E2,-2.194585028E1
5.373561261E1,-5.104805441E2,-2.193143185E1
5.380371859E1,-5.105590462E2,-2.195686686E1
5.387182456E1,-5.105113324E2,-2.193361161E1
5.393993053E1,-5.105393963E2,-2.193868976E1
5.400803650E1,-5.105323525E2,-2.204582972E1
5.407614248E1,-5.105178981E2,-2.205218499E1
5.414424845E1,-5.104706537E2,-2.213371353E1
5.421235442E1,-5.104817674E2,-2.221968685E1
5.428046040E1,-5.105212586E2,-2.223989724E1
5.434856637E1,-5.104326804E2,-2.234226555E1
5.441667234E1,-5.103859404E2,-2.246575124E1
5.448477832E1,-5.103107079E2,-2.239806658E1
5.455288429E1,-5.102437698E2,-2.230445997E1
5.462099026E1,-5.101959929E2,-2.260931627E1
5.468909623E1,-5.103362247E2,-2.273053433E1
5.475720221E1,-5.103207600E2,-2.285209946E1
5.482530818E1,-5.104339203E2,-2.298602701E1
5.489341415E1,-5.104061002E2,-2.305036195E1
5.496152013E1,-5.103607820E2,-2.308469325E1
5.502962610E1,-5.104015365E2,-2.311868998E1
5.509773207E1,-5.103929644E2,-2.316295336E1
5.516583804E1,-5.104253456E2,-2.339197339E1
5.523394402E1,-5.105233641E2,-2.329564487E1
5.530204999E1,-5.104886376E2,-2.324292841E1
5.537015596E1,-5.103906122E2,-2.309537228E1
5.543826194E1,-5.103248144E2,-2.311300117E1
5.550636791E1,-5.103790440E2,-2.319889784E1
5.557447388E1,-5.103085537E2,-2.329449590E1
5.564257985E1,-5.103662868E2,-2.315131167E1
5.571068583E1,-5.102726908E2,-2.310300736E1
5.577879180E1,-5.102451876E2,-2.310181024E1
5.584689777E1,-5.103314053E2,-2.308719778E1
5.591500375E1,-5.103420322E2,-2.304488048E1
5.598310972E1,-5.103428061E2,-2.307465342E1
5.605121569E1,-5.103317713E2,-2.309552669E1
5.611932166E1,-5.102004980E2,-2.316343128E1
5.618742764E1,-5.103062748E2,-2.330742219E1
5.625553361E1,-5.102685233E2,-2.325662934E1
5.632363958E1,-5.102627423E2,-2.314150536E1
5.639174556E1,-5.103834790E2,-2.318623878E1
5.645985153E1,-5.104479491E2,-2.321527277E1
5.652795750E1,-5.104190160E2,-2.317759983E1
5.659606347E1,-5.103706996E2,-2.308542448E1
5.666416945E1,-5.103807060E2,-2.302847779E1
5.673227542E1,-5.103018268E2,-2.310074732E1
5.680038139E1,-5.102860523E2,-2.304401701E1
5.686848737E1,-5.103050366E2,-2.303635957E1
5.693659334E1,-5.103550780E2,-2.305325861E1
5.700469931E1,-5.103864110E2,-2.301803375E1
5.707280529E1,-5.103124495E2,-2.296345244E1
5.714091126E1,-5.101984615E2,-2.295359069E1
5.720901723E1,-5.098748885E2,-2.298433185E1
5.727712320E1,-5.096293700E2,-2.292383687E1
5.734522918E1,-5.095711882E2,-2.293614036E1
5.741333515E1,-5.096141029E2,-2.297633817E1
5.748144112E1,-5.095336555E2,-2.298963725E1
5.754954710E1,-5.095164004E2,-2.297361167E1
5.761765307E1,-5.094898374E2,-2.301543176E1
5.768575904E1,-5.094833334E2,-2.303052526E1
5.775386501E1,-5.094814026E2,-2.299951771E1
5.782197099E1,-5.094039325E2,-2.297356037E1
5.789007696E1,-5.094461237E2,-2.303956572E1
5.795818293E1,-5.094363617E2,-2.302941138E1
5.802628891E1,-5.094670508E2,-2.297751183E1
5.809439488E1,-5.094503451E2,-2.286152466E1
5.816250085E1,-5.094810189E2,-2.284961850E1
5.823060682E1,-5.094460442E2,-2.290093010E1
5.829871280E1,-5.094212569E2,-2.297266180E1
5.836681877E1,-5.093857359E2,-2.298515653E1
5.843492474E1,-5.094368021E2,-2.299327521E1
5.850303072E1,-5.094005132E2,-2.297298435E1
5.857113669E1,-5.094270708E2,-2.297333714E1
5.863924266E1,-5.093787675E2,-2.296555893E1
5.870734863E1,-5.094352057E2,-2.294103462E1
5.877545461E1,-5.094634611E2,-2.297595137E1
5.884356058E1,-5.094167746E2,-2.298646315E1
5.891166655E1,-5.092562414E2,-2.295103178E1
5.897977253E1,-5.094138911E2,-2.291167271E1
5.904787850E1,-5.094122904E2,-2.270342981E1
5.911598447E1,-5.094854582E2,-2.289996924E1
5.918409044E1,-5.094867905E2,-2.293862258E1
5.925219642E1,-5.094942287E2,-2.289535003E1
5.932030239E1,-5.095329902E2,-2.294570490E1
5.938840836E1,-5.095615049E2,-2.297812532E1
5.945651434E1,-5.095154026E2,-2.300587039E1
5.952462031E1,-5.095663686E2,-2.299152103E1
5.959272628E1,-5.095734541E2,-2.297191981E1
5.966083225E1,-5.095298643E2,-2.301218776E1
5.972893823E1,-5.095357488E2,-2.294393210E1
5.979704420E1,-5.094766475E2,-2.285455183E1
5.986515017E1,-5.095003965E2,-2.279963787E1
5.993325615E1,-5.094967907E2,-2.290676974E1
6.000136212E1,-5.094550075E2,-2.294726206E1
6.006946809E1,-5.093962670E2,-2.294045251E1
6.013757407E1,-5.094131532E2,-2.298657663E1
6.020568004E1,-5.094315872E2,-2.300584495E1
6.027378601E1,-5.094611729E2,-2.302514465E1
6.034189198E1,-5.094123554E2,-2.299044030E1
6.040999796E1,-5.093215015E2,-2.302618957E1
6.047810393E1,-5.093862999E2,-2.297267502E1
6.054620990E1,-5.093693752E2,-2.297495019E1
6.061431588E1,-5.093299015E2,-2.294452066E1
6.068242185E1,-5.094560176E2,-2.296565106E1
6.075052782E1,-5.092676592E2,-2.285977681E1
6.081863379E1,-5.092566707E2,-2.290577160E1
6.088673977E1,-5.094561876E2,-2.289725538E1
6.095484574E1,-5.093999697E2,-2.287992372E1
6.102295171E1,-5.094465116E2,-2.295602225E1
6.109105769E1,-5.094395911E2,-2.297036282E1
6.115916366E1,-5.094468291E2,-2.298183559E1
6.122726963E1,-5.094459851E2,-2.301902847E1
6.129537560E1,-5.094911276E2,-2.300824972E1
6.136348158E1,-5.095402993E2,-2.299724841E1
6.143158755E1,-5.095216722E2,-2.297716190E1
6.149969352E1,-5.095718665E2,-2.301669558E1
6.156779950E1,-5.095385620E2,-2.294427798E1
6.163590547E1,-5.095128445E2,-2.294721635E1
6.170401144E1,-5.095163628E2,-2.298511613E1
6.177211741E1,-5.095140154E2,-2.296162260E1
6.184022339E1,-5.095378936E2,-2.297284403E1
6.190832936E1,-5.094809536E2,-2.302208517E1
6.197643533E1,-5.095291092E2,-2.312740647E1
6.204454131E1,-5.096089486E2,-2.307273293E1
6.211264728E1,-5.096100811E2,-2.309795878E1
6.218075325E1,-5.096922290E2,-2.316487302E1
6.224885922E1,-5.095430924E2,-2.309695282E1
6.231696520E1,-5.095830698E2,-2.311417702E1
6.238507117E1,-5.095647938E2,-2.323585518E1
6.245317714E1,-5.095339255E2,-2.325294082E1
6.252128312E1,-5.095904412E2,-2.329962890E1
6.258938909E1,-5.087532180E2,-2.292632538E1
6.265749506E1,-5.074025137E2,-2.198864526E1
6.272560104E1,-5.072735158E2,-2.189132746E1
6.279370701E1,-5.067854523E2,-2.190157245E1
6.286181298E1,-5.071511810E2,-2.173973593E1
6.292991895E1,-5.072085535E2,-2.183704048E1
6.299802493E1,-5.068996726E2,-2.171140413E1
6.306613090E1,-5.070216604E2,-2.132455373E1
6.313423687E1,-5.067503012E2,-2.135688731E1
6.320234285E1,-5.067311689E2,-2.126949367E1
6.327044882E1,-5.068572362E2,-2.131241635E1
6.333855479E1,-5.067743467E2,-2.120135600E1
6.340666076E1,-5.066183334E2,-2.109450674E1
6.347476674E1,-5.066196795E2,-2.110066640E1
6.354287271E1,-5.066081433E2,-2.116209228E1
6.361097868E1,-5.066226742E2,-2.108498891E1
6.367908466E1,-5.069577989E2,-2.129535987E1
6.374719063E1,-5.066391049E2,-2.112365423E1
6.381529660E1,-5.065802639E2,-2.116486957E1
6.388340257E1,-5.065677373E2,-2.108711191E1
6.395150855E1,-5.065384404E2,-2.117023882E1
6.401961452E1,-5.064912746E2,-2.112360517E1
6.408772049E1,-5.064954019E2,-2.102730900E1
6.415582647E1,-5.064251320E2,-2.100741750E1
6.422393244E1,-5.065188612E2,-2.102994797E1
6.429203841E1,-5.064586212E2,-2.106714900E1
6.436014438E1,-5.065162529E2,-2.105618147E1
6.442825036E1,-5.064562241E2,-2.104121930E1
6.449635633E1,-5.065279793E2,-2.107434866E1
6.456446230E1,-5.066524583E2,-2.115572411E1
6.463256828E1,-5.066513655E2,-2.116132100E1
6.470067425E1,-5.065709589E2,-2.112270282E1
6.476878022E1,-5.066114007E2,-2.105005677E1
6.483688619E1,-5.066315221E2,-2.106404432E1
6.490499217E1,-5.066172104E2,-2.103659072E1
6.497309814E1,-5.066821581E2,-2.104556023E1
6.504120411E1,-5.066696352E2,-2.104459238E1
6.510931009E1,-5.067590419E2,-2.106515673E1
6.517741606E1,-5.067351066E2,-2.106771730E1
6.524552203E1,-5.065994872E2,-2.103111421E1
6.531362801E1,-5.065661244E2,-2.103515264E1
6.538173398E1,-5.065970806E2,-2.104776473E1
6.544983995E1,-5.065747411E2,-2.106645515E1
6.551794592E1,-5.065816900E2,-2.104071637E1
6.558605190E1,-5.065673768E2,-2.109031754E1
6.565415787E1,-5.065201408E2,-2.107698490E1
6.572226384E1,-5.064858598E2,-2.105478313E1
6.579036982E1,-5.064094275E2,-2.102489287E1
6.585847579E1,-5.062160652E2,-2.096637964E1
6.592658176E1,-5.063368201E2,-2.098513686E1
6.599468773E1,-5.063096921E2,-2.087423574E1
6.606279371E1,-5.061693917E2,-2.083613760E1
6.613089968E1,-5.061385092E2,-2.062874131E1
6.619900565E1,-5.061881108E2,-2.065943080E1
6.626711163E1,-5.063347381E2,-2.078190683E1
6.633521760E1,-5.063497802E2,-2.074479746E1
6.640332357E1,-5.063534767E2,-2.055809730E1
6.647142954E1,-5.064948115E2,-2.021172741E1
6.653953552E1,-5.065101595E2,-2.024638060E1
6.660764149E1,-5.065324002E2,-2.023106813E1
6.667574746E1,-5.064238613E2,-2.026744285E1
6.674385344E1,-5.064500872E2,-2.016241227E1
6.681195941E1,-5.063872533E2,-2.005871717E1
6.688006538E1,-5.063367821E2,-2.007235011E1
6.694817135E1,-5.062777033E2,-2.008862970E1
6.701627733E1,-5.063594696E2,-2.007528895E1
6.708438330E1,-5.063296216E2,-2.007572261E1
6.715248927E1,-5.062730205E2,-2.012143894E1
6.722059525E1,-5.063784848E2,-2.014875844E1
6.728870122E1,-5.062860858E2,-2.018862299E1
6.735680719E1,-5.058298661E2,-2.012510367E1
6.742491316E1,-5.058306882E2,-2.016098469E1
6.749301914E1,-5.057471899E2,-2.022143185E1
6.756112511E1,-5.058114242E2,-2.019158942E1
6.762923108E1,-5.058113732E2,-2.042196757E1
6.769733706E1,-5.058816477E2,-2.040230055E1
6.776544303E1,-5.059061545E2,-2.047308068E1
6.783354900E1,-5.057286268E2,-2.044712882E1
6.790165498E1,-5.056272385E2,-2.030812134E1
6.796976095E1,-5.056255043E2,-2.026006835E1
6.803786692E1,-5.056471485E2,-2.016918188E1
6.810597289E1,-5.056016527E2,-2.023813683E1
6.817407887E1,-5.055696512E2,-2.027199012E1
6.824218484E1,-5.055312397E2,-2.013913215E1
6.831029081E1,-5.055822532E2,-2.012482039E1
6.837839679E1,-5.056421781E2,-2.018133497E1
6.844650276E1,-5.056373900E2,-2.018369776E1
6.851460873E1,-5.056470488E2,-2.034496433E1
6.858271470E1,-5.056492348E2,-2.032111941E1
6.865082068E1,-5.057205074E2,-2.016406254E1
6.871892665E1,-5.057132967E2,-2.007384349E1
6.878703262E1,-5.056492699E2,-2.009618945E1
6.885513860E1,-5.056190495E2,-2.007928414E1
6.892324457E1,-5.056701838E2,-2.013499970E1
6.899135054E1,-5.056288982E2,-2.005300292E1
6.905945651E1,-5.058279526E2,-2.009686736E1
6.912756249E1,-5.056755809E2,-2.006494628E1
6.919566846E1,-5.057844466E2,-2.002378004E1
6.926377443E1,-5.059557503E2,-2.005961669E1
6.933188041E1,-5.057911922E2,-2.009848888E1
6.939998638E1,-5.056703869E2,-2.005660889E1
