P3D39
t,x,y
0.000000000E0,1.762750000E3,-9.702500000E2
6.552650547E-2,1.763721459E3,-9.701905518E2
1.310530109E-1,1.763177689E3,-9.706659559E2
1.965795164E-1,1.763806976E3,-9.703979460E2
2.621060219E-1,1.763408196E3,-9.701313664E2
3.276325274E-1,1.763649480E3,-9.700668912E2
3.931590328E-1,1.763557980E3,-9.699369990E2
4.586855383E-1,1.763763064E3,-9.699742136E2
5.242120438E-1,1.764990947E3,-9.697295316E2
5.897385492E-1,1.765311079E3,-9.690258178E2
6.552650547E-1,1.764733894E3,-9.700572922E2
7.207915602E-1,1.763863083E3,-9.693181052E2
7.863180657E-1,1.764457423E3,-9.689950004E2
8.518445711E-1,1.764597580E3,-9.691288487E2
9.173710766E-1,1.765495573E3,-9.691122827E2
9.828975821E-1,1.765035815E3,-9.695141232E2
1.048424088E0,1.764861457E3,-9.701502657E2
1.113950593E0,1.765649848E3,-9.701982490E2
1.179477098E0,1.765855669E3,-9.697216234E2
1.245003604E0,1.765846640E3,-9.702547183E2
1.310530109E0,1.765684754E3,-9.708547850E2
1.376056615E0,1.764753614E3,-9.711622631E2
1.441583120E0,1.765608996E3,-9.712963840E2
1.507109626E0,1.765593021E3,-9.719713063E2
1.572636131E0,1.764920002E3,-9.724408709E2
1.638162637E0,1.764914163E3,-9.722515804E2
1.703689142E0,1.764609771E3,-9.719462860E2
1.769215648E0,1.764787080E3,-9.720334585E2
1.834742153E0,1.765168983E3,-9.725445714E2
1.900268659E0,1.764650872E3,-9.717910224E2
1.965795164E0,1.764747976E3,-9.719306814E2
2.031321670E0,1.764931410E3,-9.722938330E2
2.096848175E0,1.765858273E3,-9.715807529E2
2.162374681E0,1.765825172E3,-9.722769057E2
2.227901186E0,1.766577147E3,-9.722556011E2
2.293427692E0,1.765779075E3,-9.720689249E2
2.358954197E0,1.765854785E3,-9.714362851E2
2.424480702E0,1.765752164E3,-9.713038306E2
2.490007208E0,1.765831350E3,-9.705627169E2
2.555533713E0,1.765782123E3,-9.703767493E2
2.621060219E0,1.765659813E3,-9.701174612E2
2.686586724E0,1.765663240E3,-9.694250013E2
2.752113230E0,1.765683941E3,-9.708756943E2
2.817639735E0,1.765670815E3,-9.702661421E2
2.883166241E0,1.765706406E3,-9.702984242E2
2.948692746E0,1.765763203E3,-9.701325024E2
3.014219252E0,1.765143719E3,-9.706251948E2
3.079745757E0,1.764598172E3,-9.708918384E2
3.145272263E0,1.764475671E3,-9.709488399E2
3.210798768E0,1.765169913E3,-9.714367413E2
3.276325274E0,1.765725193E3,-9.704852073E2
3.341851779E0,1.765975312E3,-9.714134847E2
3.407378285E0,1.766668449E3,-9.712175745E2
3.472904790E0,1.765765316E3,-9.710252324E2
3.538431295E0,1.765520821E3,-9.699930803E2
3.603957801E0,1.764931140E3,-9.713441079E2
3.669484306E0,1.765792879E3,-9.704452596E2
3.735010812E0,1.765722123E3,-9.700205720E2
3.800537317E0,1.765309522E3,-9.699377292E2
3.866063823E0,1.765840316E3,-9.704867606E2
3.931590328E0,1.765921355E3,-9.713169354E2
3.997116834E0,1.765620976E3,-9.708800446E2
4.062643339E0,1.765730312E3,-9.713007342E2
4.128169845E0,1.765468616E3,-9.721323618E2
4.193696350E0,1.765467738E3,-9.721600564E2
4.259222856E0,1.764676604E3,-9.723673658E2
4.324749361E0,1.764296091E3,-9.719390281E2
4.390275867E0,1.764604109E3,-9.712703845E2
4.455802372E0,1.763798442E3,-9.721729321E2
4.521328878E0,1.764820335E3,-9.722778227E2
4.586855383E0,1.765738788E3,-9.720806906E2
4.652381888E0,1.765895107E3,-9.715105910E2
4.717908394E0,1.765743553E3,-9.715302910E2
4.783434899E0,1.766412427E3,-9.710911281E2
4.848961405E0,1.765860294E3,-9.713142279E2
4.914487910E0,1.765722496E3,-9.710497110E2
4.980014416E0,1.766736216E3,-9.711922772E2
5.045540921E0,1.766750558E3,-9.712439664E2
5.111067427E0,1.767675236E3,-9.714236941E2
5.176593932E0,1.767647512E3,-9.713312167E2
5.242120438E0,1.767724895E3,-9.729534609E2
5.307646943E0,1.766950578E3,-9.722642501E2
5.373173449E0,1.766873225E3,-9.715120832E2
5.438699954E0,1.766833198E3,-9.712711511E2
5.504226460E0,1.765774398E3,-9.712170221E2
5.569752965E0,1.764845187E3,-9.711518522E2
5.635279471E0,1.764662616E3,-9.711459131E2
5.700805976E0,1.764660499E3,-9.711034570E2
5.766332481E0,1.764708803E3,-9.704152320E2
5.831858987E0,1.763634068E3,-9.699362025E2
5.897385492E0,1.763684860E3,-9.700767369E2
5.962911998E0,1.764559070E3,-9.701826242E2
6.028438503E0,1.763969260E3,-9.704643171E2
6.093965009E0,1.764668385E3,-9.703854501E2
6.159491514E0,1.763804406E3,-9.704037444E2
6.225018020E0,1.763772788E3,-9.697148365E2
6.290544525E0,1.763749809E3,-9.703028762E2
6.356071031E0,1.763755345E3,-9.710808248E2
6.421597536E0,1.764693192E3,-9.704389083E2
6.487124042E0,1.764618171E3,-9.703027562E2
6.552650547E0,1.764569638E3,-9.699463553E2
6.618177053E0,1.764736565E3,-9.684224669E2
6.683703558E0,1.764647352E3,-9.682686644E2
6.749230064E0,1.764897832E3,-9.687047877E2
6.814756569E0,1.764907849E3,-9.685393275E2
6.880283075E0,1.765025763E3,-9.685313637E2
6.945809580E0,1.764793611E3,-9.684208757E2
7.011336085E0,1.763819427E3,-9.692205987E2
7.076862591E0,1.763641392E3,-9.690323070E2
7.142389096E0,1.764748599E3,-9.692233014E2
7.207915602E0,1.764289057E3,-9.687801971E2
7.273442107E0,1.764617093E3,-9.690985782E2
7.338968613E0,1.765092142E3,-9.694158877E2
7.404495118E0,1.765562596E3,-9.682505746E2
7.470021624E0,1.765130420E3,-9.685166005E2
7.535548129E0,1.765392737E3,-9.680082976E2
7.601074635E0,1.765812949E3,-9.674052485E2
7.666601140E0,1.765831985E3,-9.673047207E2
7.732127646E0,1.766461972E3,-9.669816261E2
7.797654151E0,1.766466566E3,-9.669385107E2
7.863180657E0,1.766932528E3,-9.667389516E2
7.928707162E0,1.767526577E3,-9.662185722E2
7.994233668E0,1.766628472E3,-9.661878716E2
8.059760173E0,1.766796912E3,-9.663963568E2
8.125286678E0,1.766501149E3,-9.658772711E2
8.190813184E0,1.767002087E3,-9.663337425E2
8.256339689E0,1.766601400E3,-9.659732419E2
8.321866195E0,1.766560825E3,-9.657674025E2
8.387392700E0,1.766743371E3,-9.655425890E2
8.452919206E0,1.765956395E3,-9.662775977E2
8.518445711E0,1.765978015E3,-9.657219371E2
8.583972217E0,1.765694988E3,-9.649771111E2
8.649498722E0,1.765909216E3,-9.644295625E2
8.715025228E0,1.765651905E3,-9.649066279E2
8.780551733E0,1.765736840E3,-9.651198725E2
8.846078239E0,1.765546747E3,-9.638435709E2
8.911604744E0,1.764801753E3,-9.641218099E2
8.977131250E0,1.764751003E3,-9.642220388E2
9.042657755E0,1.764555454E3,-9.641557915E2
9.108184261E0,1.763756825E3,-9.650775150E2
9.173710766E0,1.763805042E3,-9.653685279E2
9.239237271E0,1.763601382E3,-9.660038995E2
9.304763777E0,1.763617465E3,-9.661348468E2
9.370290282E0,1.763570651E3,-9.659645425E2
9.435816788E0,1.762895527E3,-9.664300234E2
9.501343293E0,1.762701286E3,-9.662375808E2
9.566869799E0,1.762005291E3,-9.662830752E2
9.632396304E0,1.762694825E3,-9.660945795E2
9.697922810E0,1.763675375E3,-9.652743040E2
9.763449315E0,1.764783993E3,-9.655317137E2
9.828975821E0,1.764826087E3,-9.654097168E2
9.894502326E0,1.765781455E3,-9.644797579E2
9.960028832E0,1.765939411E3,-9.647274068E2
1.002555534E1,1.765712916E3,-9.643950165E2
1.009108184E1,1.764708489E3,-9.652460798E2
1.015660835E1,1.764078568E3,-9.655188390E2
1.022213485E1,1.763634687E3,-9.659319334E2
1.028766136E1,1.763615460E3,-9.657558848E2
1.035318786E1,1.763805665E3,-9.654205527E2
1.041871437E1,1.764596747E3,-9.642273353E2
1.048424088E1,1.763894992E3,-9.645292761E2
1.054976738E1,1.763927569E3,-9.643374619E2
1.061529389E1,1.764450668E3,-9.641718958E2
1.068082039E1,1.764828909E3,-9.646177963E2
1.074634690E1,1.764804600E3,-9.652284746E2
1.081187340E1,1.764785415E3,-9.650875723E2
1.087739991E1,1.765603499E3,-9.642880077E2
1.094292641E1,1.766120881E3,-9.647274790E2
1.100845292E1,1.765858155E3,-9.646191385E2
1.107397942E1,1.765510401E3,-9.640454306E2
1.113950593E1,1.765664866E3,-9.642765496E2
1.120503244E1,1.765840236E3,-9.643675557E2
1.127055894E1,1.766564626E3,-9.641518965E2
1.133608545E1,1.766711803E3,-9.642417693E2
1.140161195E1,1.766600171E3,-9.639953242E2
1.146713846E1,1.766733575E3,-9.643251312E2
1.153266496E1,1.765993416E3,-9.633684309E2
1.159819147E1,1.766610288E3,-9.631601355E2
1.166371797E1,1.767607628E3,-9.628362812E2
1.172924448E1,1.767766718E3,-9.624871385E2
1.179477098E1,1.767683173E3,-9.621242356E2
1.186029749E1,1.767545859E3,-9.619693977E2
1.192582400E1,1.767531326E3,-9.610430030E2
1.199135050E1,1.767608577E3,-9.610695082E2
1.205687701E1,1.767687056E3,-9.608769695E2
1.212240351E1,1.767853460E3,-9.603322452E2
1.218793002E1,1.767702456E3,-9.604048826E2
1.225345652E1,1.767224757E3,-9.605228729E2
1.231898303E1,1.766835046E3,-9.595100235E2
1.238450953E1,1.766688803E3,-9.592558652E2
1.245003604E1,1.765985267E3,-9.593078307E2
1.251556255E1,1.766453300E3,-9.588819238E2
1.258108905E1,1.765677081E3,-9.589512268E2
1.264661556E1,1.766532725E3,-9.582242950E2
1.271214206E1,1.766242875E3,-9.594688010E2
1.277766857E1,1.766553021E3,-9.580684922E2
1.284319507E1,1.765758268E3,-9.581167041E2
1.290872158E1,1.766796569E3,-9.573001787E2
1.297424808E1,1.766676538E3,-9.573175981E2
1.303977459E1,1.766740040E3,-9.583218067E2
1.310530109E1,1.766868520E3,-9.586298802E2
1.317082760E1,1.766859596E3,-9.582770755E2
1.323635411E1,1.767097073E3,-9.584155535E2
1.330188061E1,1.766841009E3,-9.583073743E2
1.336740712E1,1.766690933E3,-9.579541763E2
1.343293362E1,1.766834598E3,-9.581974067E2
1.349846013E1,1.766821146E3,-9.582738268E2
1.356398663E1,1.766449746E3,-9.577705959E2
1.362951314E1,1.766993660E3,-9.584650039E2
1.369503964E1,1.767691941E3,-9.581565027E2
1.376056615E1,1.767554045E3,-9.579675462E2
1.382609265E1,1.767794240E3,-9.574162833E2
1.389161916E1,1.767691710E3,-9.580328900E2
1.395714567E1,1.767819376E3,-9.582793409E2
1.402267217E1,1.767478003E3,-9.589931141E2
1.408819868E1,1.767669591E3,-9.583079171E2
1.415372518E1,1.766720096E3,-9.578227011E2
1.421925169E1,1.766737855E3,-9.578670405E2
1.428477819E1,1.767597417E3,-9.562628960E2
1.435030470E1,1.766256676E3,-9.558676088E2
1.441583120E1,1.766766948E3,-9.562455061E2
1.448135771E1,1.766774477E3,-9.564362280E2
1.454688421E1,1.766830968E3,-9.563768903E2
1.461241072E1,1.766757790E3,-9.555308562E2
1.467793723E1,1.766708963E3,-9.552921256E2
1.474346373E1,1.766506697E3,-9.547524607E2
1.480899024E1,1.766758887E3,-9.543065717E2
1.487451674E1,1.767241032E3,-9.547014478E2
1.494004325E1,1.767686515E3,-9.542568663E2
1.500556975E1,1.766659947E3,-9.551709091E2
1.507109626E1,1.766706053E3,-9.552294343E2
1.513662276E1,1.766708996E3,-9.552469250E2
1.520214927E1,1.766213755E3,-9.566722996E2
1.526767577E1,1.765770661E3,-9.569384820E2
1.533320228E1,1.766772237E3,-9.570027066E2
1.539872879E1,1.766745659E3,-9.561549139E2
1.546425529E1,1.766810929E3,-9.553934597E2
1.552978180E1,1.766889092E3,-9.554540225E2
1.559530830E1,1.766768212E3,-9.543139024E2
1.566083481E1,1.766703065E3,-9.538790675E2
1.572636131E1,1.766564336E3,-9.539453004E2
1.579188782E1,1.765884115E3,-9.542033879E2
1.585741432E1,1.765630361E3,-9.549084308E2
1.592294083E1,1.765136840E3,-9.546069011E2
1.598846734E1,1.764750304E3,-9.550448388E2
1.605399384E1,1.765400075E3,-9.541015191E2
1.611952035E1,1.765749331E3,-9.544911416E2
1.618504685E1,1.765556322E3,-9.550812569E2
1.625057336E1,1.765724919E3,-9.554027163E2
1.631609986E1,1.765364867E3,-9.551222734E2
1.638162637E1,1.764792346E3,-9.553443004E2
1.644715287E1,1.763959567E3,-9.554062796E2
1.651267938E1,1.763941014E3,-9.553716143E2
1.657820588E1,1.764857853E3,-9.553000567E2
1.664373239E1,1.764752220E3,-9.553202030E2
1.670925890E1,1.764725664E3,-9.551672030E2
1.677478540E1,1.764578057E3,-9.559507998E2
1.684031191E1,1.764494747E3,-9.560907934E2
1.690583841E1,1.763998643E3,-9.565814821E2
1.697136492E1,1.763865389E3,-9.555172885E2
1.703689142E1,1.763424600E3,-9.548437136E2
1.710241793E1,1.763795540E3,-9.543923454E2
1.716794443E1,1.762884300E3,-9.552171423E2
1.723347094E1,1.762801633E3,-9.551564031E2
1.729899744E1,1.763006417E3,-9.554013063E2
1.736452395E1,1.763740528E3,-9.545432914E2
1.743005046E1,1.763814131E3,-9.545028198E2
1.749557696E1,1.763678921E3,-9.548177929E2
1.756110347E1,1.763920614E3,-9.543966135E2
1.762662997E1,1.764456267E3,-9.538968491E2
1.769215648E1,1.764699663E3,-9.540615365E2
1.775768298E1,1.765497365E3,-9.540007028E2
1.782320949E1,1.765696184E3,-9.541294363E2
1.788873599E1,1.765836905E3,-9.533014842E2
1.795426250E1,1.766679376E3,-9.531755109E2
1.801978900E1,1.766965494E3,-9.524720475E2
1.808531551E1,1.766356550E3,-9.519487975E2
1.815084202E1,1.766761232E3,-9.532436754E2
1.821636852E1,1.767516437E3,-9.529118938E2
1.828189503E1,1.767659162E3,-9.532481898E2
1.834742153E1,1.768078500E3,-9.534057784E2
1.841294804E1,1.768665824E3,-9.523959765E2
1.847847454E1,1.767715956E3,-9.520958849E2
1.854400105E1,1.767122707E3,-9.525449195E2
1.860952755E1,1.767262876E3,-9.520283488E2
1.867505406E1,1.767517004E3,-9.519125285E2
1.874058056E1,1.767446527E3,-9.517611229E2
1.880610707E1,1.766899532E3,-9.531886096E2
1.887163358E1,1.766799522E3,-9.525062024E2
1.893716008E1,1.766840418E3,-9.522798431E2
1.900268659E1,1.766818961E3,-9.522351931E2
1.906821309E1,1.766935321E3,-9.516239086E2
1.913373960E1,1.766831933E3,-9.522701119E2
1.919926610E1,1.766797445E3,-9.514187431E2
1.926479261E1,1.766560321E3,-9.509631220E2
1.933031911E1,1.766713711E3,-9.503439142E2
1.939584562E1,1.766731167E3,-9.495524413E2
1.946137213E1,1.766079812E3,-9.503574994E2
1.952689863E1,1.766867295E3,-9.503865991E2
1.959242514E1,1.766990715E3,-9.506544948E2
1.965795164E1,1.767248180E3,-9.506421981E2
1.972347815E1,1.767653454E3,-9.503027633E2
1.978900465E1,1.767710778E3,-9.503493963E2
1.985453116E1,1.767434684E3,-9.508485952E2
1.992005766E1,1.767823309E3,-9.502967814E2
1.998558417E1,1.767626341E3,-9.502694870E2
2.005111067E1,1.767028380E3,-9.503664240E2
2.011663718E1,1.767598128E3,-9.492701486E2
2.018216369E1,1.767508257E3,-9.489310789E2
2.024769019E1,1.767711210E3,-9.490706646E2
2.031321670E1,1.767657396E3,-9.482708139E2
2.037874320E1,1.767128897E3,-9.483596681E2
2.044426971E1,1.767641038E3,-9.482849475E2
2.050979621E1,1.767699651E3,-9.482805653E2
2.057532272E1,1.766945306E3,-9.484175771E2
2.064084922E1,1.767453987E3,-9.471144565E2
2.070637573E1,1.768722551E3,-9.473386320E2
2.077190223E1,1.767666600E3,-9.481295282E2
2.083742874E1,1.768597964E3,-9.482494939E2
2.090295525E1,1.768717222E3,-9.473931820E2
2.096848175E1,1.768371111E3,-9.479247763E2
2.103400826E1,1.767965234E3,-9.492828107E2
2.109953476E1,1.767983143E3,-9.493509789E2
2.116506127E1,1.767900413E3,-9.494268911E2
2.123058777E1,1.768357784E3,-9.488800098E2
2.129611428E1,1.767668532E3,-9.482410127E2
2.136164078E1,1.767873203E3,-9.486405210E2
2.142716729E1,1.767775842E3,-9.483373590E2
2.149269379E1,1.767651646E3,-9.481994239E2
2.155822030E1,1.766842330E3,-9.482974801E2
2.162374681E1,1.767663176E3,-9.483703510E2
2.168927331E1,1.766781231E3,-9.484741279E2
2.175479982E1,1.766682851E3,-9.481746768E2
2.182032632E1,1.766775577E3,-9.474524563E2
2.188585283E1,1.765787449E3,-9.482333314E2
2.195137933E1,1.765876926E3,-9.481855887E2
2.201690584E1,1.765887363E3,-9.474823322E2
2.208243234E1,1.765706396E3,-9.473112483E2
2.214795885E1,1.765783689E3,-9.471174633E2
2.221348535E1,1.764895669E3,-9.471858040E2
2.227901186E1,1.764743971E3,-9.468445703E2
2.234453837E1,1.765032313E3,-9.464514352E2
2.241006487E1,1.765602005E3,-9.462622106E2
2.247559138E1,1.765040486E3,-9.463613621E2
2.254111788E1,1.765710854E3,-9.454346884E2
2.260664439E1,1.765623741E3,-9.452735998E2
2.267217089E1,1.765865994E3,-9.454773656E2
2.273769740E1,1.765559449E3,-9.451320619E2
2.280322390E1,1.765665136E3,-9.452747755E2
2.286875041E1,1.765758124E3,-9.445043233E2
2.293427692E1,1.765718619E3,-9.443157082E2
2.299980342E1,1.765759080E3,-9.442981417E2
2.306532993E1,1.764791296E3,-9.445073478E2
2.313085643E1,1.764659905E3,-9.448403718E2
2.319638294E1,1.764385715E3,-9.447863055E2
2.326190944E1,1.763894423E3,-9.454405853E2
2.332743595E1,1.763942758E3,-9.456124607E2
2.339296245E1,1.762777511E3,-9.460086618E2
2.345848896E1,1.762681361E3,-9.458592926E2
2.352401546E1,1.762700365E3,-9.459336412E2
2.358954197E1,1.762803882E3,-9.456356069E2
2.365506848E1,1.762707039E3,-9.461511140E2
2.372059498E1,1.762561239E3,-9.457599246E2
2.378612149E1,1.763342795E3,-9.460499773E2
2.385164799E1,1.763523870E3,-9.460002635E2
2.391717450E1,1.763071314E3,-9.464193428E2
2.398270100E1,1.762048745E3,-9.463851688E2
2.404822751E1,1.762568855E3,-9.459802495E2
2.411375401E1,1.761768124E3,-9.462077877E2
2.417928052E1,1.761608897E3,-9.468454382E2
2.424480702E1,1.760581164E3,-9.460457670E2
2.431033353E1,1.760813488E3,-9.456129152E2
2.437586004E1,1.760584807E3,-9.458462622E2
2.444138654E1,1.760884235E3,-9.453831305E2
2.450691305E1,1.761610689E3,-9.449330743E2
2.457243955E1,1.761677896E3,-9.452489123E2
2.463796606E1,1.760838650E3,-9.452740313E2
2.470349256E1,1.761748118E3,-9.452997882E2
2.476901907E1,1.761807100E3,-9.444471182E2
2.483454557E1,1.761779340E3,-9.444825142E2
2.490007208E1,1.761181627E3,-9.456445024E2
2.496559858E1,1.761433394E3,-9.450830747E2
2.503112509E1,1.760570272E3,-9.458091133E2
2.509665160E1,1.760040789E3,-9.455494625E2
2.516217810E1,1.759586038E3,-9.450669155E2
2.522770461E1,1.758962918E3,-9.455934996E2
2.529323111E1,1.757751356E3,-9.453487283E2
2.535875762E1,1.758074373E3,-9.453567624E2
2.542428412E1,1.759040730E3,-9.455427184E2
2.548981063E1,1.758931053E3,-9.455292738E2
2.555533713E1,1.758719791E3,-9.454623231E2
2.562086364E1,1.757766428E3,-9.452521834E2
2.568639014E1,1.757688748E3,-9.450282213E2
2.575191665E1,1.758711654E3,-9.442315161E2
2.581744316E1,1.757737924E3,-9.435476285E2
2.588296966E1,1.757702554E3,-9.441699516E2
2.594849617E1,1.757802153E3,-9.436129743E2
2.601402267E1,1.758211617E3,-9.445099507E2
2.607954918E1,1.758439104E3,-9.447799154E2
2.614507568E1,1.758575451E3,-9.452038479E2
2.621060219E1,1.758809298E3,-9.462168588E2
2.627612869E1,1.759216522E3,-9.453907826E2
2.634165520E1,1.758842926E3,-9.453423673E2
2.640718170E1,1.758795959E3,-9.445464422E2
2.647270821E1,1.757945807E3,-9.444390925E2
2.653823472E1,1.757788812E3,-9.450889956E2
2.660376122E1,1.758690146E3,-9.443648568E2
2.666928773E1,1.758624902E3,-9.442344694E2
2.673481423E1,1.758724253E3,-9.442769490E2
2.680034074E1,1.758982809E3,-9.453804465E2
2.686586724E1,1.759360347E3,-9.449387608E2
2.693139375E1,1.758827675E3,-9.452844864E2
2.699692025E1,1.758610261E3,-9.442835182E2
2.706244676E1,1.757392963E3,-9.437744569E2
2.712797327E1,1.757682619E3,-9.443219374E2
2.719349977E1,1.757833720E3,-9.436064237E2
2.725902628E1,1.757846145E3,-9.441970389E2
2.732455278E1,1.757638497E3,-9.442055751E2
2.739007929E1,1.756764811E3,-9.442160936E2
2.745560579E1,1.757807789E3,-9.444737515E2
2.752113230E1,1.757577435E3,-9.438982626E2
2.758665880E1,1.757626796E3,-9.440727632E2
2.765218531E1,1.757733383E3,-9.440131649E2
2.771771181E1,1.757949118E3,-9.425606534E2
2.778323832E1,1.757681810E3,-9.422529837E2
2.784876483E1,1.757375508E3,-9.427794237E2
2.791429133E1,1.757877104E3,-9.424511923E2
2.797981784E1,1.757615057E3,-9.420989739E2
2.804534434E1,1.757414312E3,-9.420820975E2
2.811087085E1,1.757400894E3,-9.420802673E2
2.817639735E1,1.757668809E3,-9.422470994E2
2.824192386E1,1.756716274E3,-9.428394713E2
2.830745036E1,1.756347265E3,-9.418049991E2
2.837297687E1,1.756361893E3,-9.418596203E2
2.843850337E1,1.757420892E3,-9.428401148E2
2.850402988E1,1.757376865E3,-9.419813700E2
2.856955639E1,1.757655492E3,-9.419584269E2
2.863508289E1,1.756795802E3,-9.420414045E2
2.870060940E1,1.756855838E3,-9.415141725E2
2.876613590E1,1.755809458E3,-9.410324163E2
2.883166241E1,1.756829725E3,-9.395501716E2
2.889718891E1,1.757507540E3,-9.401220818E2
2.896271542E1,1.757743630E3,-9.402874987E2
2.902824192E1,1.758713830E3,-9.402482552E2
2.909376843E1,1.759108099E3,-9.405978590E2
2.915929493E1,1.759007129E3,-9.406993968E2
2.922482144E1,1.758291450E3,-9.400605457E2
2.929034795E1,1.757714885E3,-9.410995776E2
2.935587445E1,1.757738324E3,-9.411718783E2
2.942140096E1,1.758132320E3,-9.406693086E2
2.948692746E1,1.757787538E3,-9.395014149E2
2.955245397E1,1.757628305E3,-9.392896933E2
2.961798047E1,1.756826827E3,-9.393396383E2
2.968350698E1,1.756663000E3,-9.400263828E2
2.974903348E1,1.756671852E3,-9.392436017E2
2.981455999E1,1.756728127E3,-9.392572482E2
2.988008649E1,1.756691210E3,-9.392481580E2
2.994561300E1,1.756689060E3,-9.388550470E2
3.001113951E1,1.756479944E3,-9.381136255E2
3.007666601E1,1.756280076E3,-9.379613355E2
3.014219252E1,1.756747696E3,-9.384788783E2
3.020771902E1,1.756791309E3,-9.386362207E2
3.027324553E1,1.756699806E3,-9.382957816E2
3.033877203E1,1.755978223E3,-9.382982966E2
3.040429854E1,1.756505162E3,-9.381816663E2
3.046982504E1,1.755819966E3,-9.392657001E2
3.053535155E1,1.755652245E3,-9.389907959E2
3.060087806E1,1.755614097E3,-9.383306737E2
3.066640456E1,1.754791377E3,-9.392114724E2
3.073193107E1,1.754742925E3,-9.400487465E2
3.079745757E1,1.754695042E3,-9.389620002E2
3.086298408E1,1.755506514E3,-9.391586780E2
3.092851058E1,1.755411117E3,-9.390448507E2
3.099403709E1,1.754872719E3,-9.393278590E2
3.105956359E1,1.754681946E3,-9.392017449E2
3.112509010E1,1.754865785E3,-9.394529891E2
3.119061660E1,1.755657203E3,-9.391267890E2
3.125614311E1,1.756112922E3,-9.395853285E2
3.132166962E1,1.756586734E3,-9.390355467E2
3.138719612E1,1.756646778E3,-9.392008942E2
3.145272263E1,1.756634582E3,-9.389845976E2
3.151824913E1,1.757607532E3,-9.382412955E2
3.158377564E1,1.757818959E3,-9.385470393E2
3.164930214E1,1.757938599E3,-9.385189200E2
3.171482865E1,1.758363249E3,-9.380532117E2
3.178035515E1,1.758668697E3,-9.383207530E2
3.184588166E1,1.757999984E3,-9.384756388E2
3.191140816E1,1.757983838E3,-9.386115738E2
3.197693467E1,1.757850903E3,-9.393617788E2
3.204246118E1,1.758044652E3,-9.395893549E2
3.210798768E1,1.757657008E3,-9.391992172E2
3.217351419E1,1.757155770E3,-9.405666013E2
3.223904069E1,1.756915940E3,-9.397163313E2
3.230456720E1,1.755884518E3,-9.393523682E2
3.237009370E1,1.755863114E3,-9.394027875E2
3.243562021E1,1.755310890E3,-9.390225119E2
3.250114671E1,1.755672589E3,-9.393164088E2
3.256667322E1,1.755637738E3,-9.402984802E2
3.263219972E1,1.755767967E3,-9.395484607E2
3.269772623E1,1.755490123E3,-9.391918856E2
3.276325274E1,1.754708033E3,-9.390486777E2
3.282877924E1,1.754911004E3,-9.392970051E2
3.289430575E1,1.754993958E3,-9.394949243E2
3.295983225E1,1.755699859E3,-9.383786171E2
3.302535876E1,1.755731940E3,-9.384764879E2
3.309088526E1,1.755243987E3,-9.385021794E2
3.315641177E1,1.754630053E3,-9.388201889E2
3.322193827E1,1.755676061E3,-9.383853046E2
3.328746478E1,1.755472044E3,-9.389948997E2
3.335299128E1,1.755774450E3,-9.400190299E2
3.341851779E1,1.755680451E3,-9.384112696E2
3.348404430E1,1.755041731E3,-9.383368267E2
3.354957080E1,1.755852609E3,-9.385626605E2
3.361509731E1,1.755721759E3,-9.380610014E2
3.368062381E1,1.755806751E3,-9.375546235E2
3.374615032E1,1.756665617E3,-9.381305677E2
3.381167682E1,1.756526410E3,-9.381750061E2
3.387720333E1,1.756679635E3,-9.382325602E2
3.394272983E1,1.755895397E3,-9.382838033E2
3.400825634E1,1.756682790E3,-9.382395628E2
3.407378285E1,1.755627633E3,-9.380162307E2
3.413930935E1,1.755955860E3,-9.382967884E2
3.420483586E1,1.756886079E3,-9.377171837E2
3.427036236E1,1.757020100E3,-9.375356741E2
3.433588887E1,1.756755659E3,-9.380040642E2
3.440141537E1,1.755935892E3,-9.384097571E2
3.446694188E1,1.755621545E3,-9.387707629E2
3.453246838E1,1.755772305E3,-9.390487732E2
3.459799489E1,1.755837504E3,-9.382376550E2
3.466352139E1,1.757042919E3,-9.377242302E2
3.472904790E1,1.756038268E3,-9.375660074E2
3.479457441E1,1.755472624E3,-9.369523034E2
3.486010091E1,1.756708921E3,-9.353921729E2
3.492562742E1,1.755770793E3,-9.363899348E2
3.499115392E1,1.756500984E3,-9.361360386E2
3.505668043E1,1.756404421E3,-9.350841272E2
3.512220693E1,1.754784113E3,-9.358463750E2
3.518773344E1,1.755033216E3,-9.347040533E2
3.525325994E1,1.755551309E3,-9.333097345E2
3.531878645E1,1.755703603E3,-9.344584690E2
3.538431295E1,1.755877300E3,-9.346531548E2
3.544983946E1,1.756446809E3,-9.348446764E2
3.551536597E1,1.755838656E3,-9.352915022E2
3.558089247E1,1.755821421E3,-9.344476330E2
3.564641898E1,1.755583727E3,-9.338673610E2
3.571194548E1,1.754840026E3,-9.344049186E2
3.577747199E1,1.755823006E3,-9.334329734E2
3.584299849E1,1.756587444E3,-9.342125036E2
3.590852500E1,1.755871971E3,-9.352688372E2
3.597405150E1,1.756743849E3,-9.344685726E2
3.603957801E1,1.756741540E3,-9.350253985E2
3.610510451E1,1.756835247E3,-9.344050069E2
3.617063102E1,1.756895774E3,-9.343440950E2
3.623615753E1,1.756758949E3,-9.349349156E2
3.630168403E1,1.756713350E3,-9.350780032E2
3.636721054E1,1.757635403E3,-9.361434113E2
3.643273704E1,1.757650281E3,-9.362545623E2
3.649826355E1,1.756223568E3,-9.366626487E2
3.656379005E1,1.755675502E3,-9.371692081E2
3.662931656E1,1.756573208E3,-9.370844990E2
3.669484306E1,1.756779881E3,-9.372522146E2
3.676036957E1,1.755878741E3,-9.382294398E2
3.682589607E1,1.755648934E3,-9.373297377E2
3.689142258E1,1.753837631E3,-9.381245323E2
3.695694909E1,1.753915166E3,-9.374392783E2
3.702247559E1,1.753787821E3,-9.372076006E2
3.708800210E1,1.753634240E3,-9.373047454E2
3.715352860E1,1.753655651E3,-9.371651940E2
3.721905511E1,1.753551288E3,-9.371979526E2
3.728458161E1,1.753660402E3,-9.373607236E2
3.735010812E1,1.753656841E3,-9.382360802E2
3.741563462E1,1.752779143E3,-9.383806560E2
3.748116113E1,1.753468093E3,-9.381101296E2
3.754668764E1,1.752544547E3,-9.381840433E2
3.761221414E1,1.751741906E3,-9.389360476E2
3.767774065E1,1.751777765E3,-9.383988628E2
3.774326715E1,1.751628787E3,-9.381437719E2
3.780879366E1,1.750899745E3,-9.384795897E2
3.787432016E1,1.750672421E3,-9.383371712E2
3.793984667E1,1.751013295E3,-9.386112844E2
3.800537317E1,1.751606642E3,-9.383238528E2
3.807089968E1,1.751734329E3,-9.373133305E2
3.813642618E1,1.751867853E3,-9.376503392E2
3.820195269E1,1.751862817E3,-9.366315992E2
3.826747920E1,1.751574754E3,-9.362171261E2
3.833300570E1,1.751689264E3,-9.353549436E2
3.839853221E1,1.750731839E3,-9.370506556E2
3.846405871E1,1.750705279E3,-9.372856024E2
3.852958522E1,1.750614058E3,-9.378426022E2
3.859511172E1,1.750974990E3,-9.383010501E2
3.866063823E1,1.750859409E3,-9.373029478E2
3.872616473E1,1.750836471E3,-9.373652123E2
3.879169124E1,1.751758683E3,-9.374035337E2
3.885721774E1,1.751674495E3,-9.380638479E2
3.892274425E1,1.751957266E3,-9.383726005E2
3.898827076E1,1.751727209E3,-9.387805672E2
3.905379726E1,1.751687382E3,-9.390723543E2
3.911932377E1,1.751339078E3,-9.390319588E2
3.918485027E1,1.751556521E3,-9.399003224E2
3.925037678E1,1.751825460E3,-9.403787376E2
3.931590328E1,1.751768007E3,-9.410273320E2
3.938142979E1,1.752779930E3,-9.403403548E2
3.944695629E1,1.752674593E3,-9.402740404E2
3.951248280E1,1.752937500E3,-9.404788590E2
3.957800930E1,1.753473010E3,-9.400816321E2
3.964353581E1,1.752846843E3,-9.412284765E2
3.970906232E1,1.752819385E3,-9.411622808E2
3.977458882E1,1.752554538E3,-9.401793709E2
3.984011533E1,1.751112664E3,-9.406748062E2
3.990564183E1,1.750476864E3,-9.400665658E2
3.997116834E1,1.749721965E3,-9.394207818E2
4.003669484E1,1.748751115E3,-9.400899028E2
4.010222135E1,1.749606364E3,-9.390668734E2
4.016774785E1,1.749398796E3,-9.390785120E2
4.023327436E1,1.750506483E3,-9.402003932E2
4.029880086E1,1.749831117E3,-9.404487939E2
4.036432737E1,1.748904963E3,-9.412439964E2
4.042985388E1,1.748719245E3,-9.410417025E2
4.049538038E1,1.748882475E3,-9.403803982E2
4.056090689E1,1.749882921E3,-9.405216012E2
4.062643339E1,1.748702279E3,-9.409304722E2
4.069195990E1,1.749569624E3,-9.399730944E2
4.075748640E1,1.748764130E3,-9.400488047E2
4.082301291E1,1.749530856E3,-9.399891066E2
4.088853941E1,1.749750287E3,-9.411070429E2
4.095406592E1,1.750672133E3,-9.402634026E2
4.101959243E1,1.750774504E3,-9.402664413E2
4.108511893E1,1.750867672E3,-9.403848424E2
4.115064544E1,1.749805556E3,-9.410800572E2
4.121617194E1,1.749891321E3,-9.405082806E2
4.128169845E1,1.749924229E3,-9.403477809E2
4.134722495E1,1.749821570E3,-9.405408883E2
4.141275146E1,1.748814943E3,-9.411032707E2
4.147827796E1,1.749772521E3,-9.405456118E2
4.154380447E1,1.749750257E3,-9.413485814E2
4.160933097E1,1.750756320E3,-9.404661790E2
4.167485748E1,1.750748734E3,-9.402948985E2
4.174038399E1,1.750831497E3,-9.393537032E2
4.180591049E1,1.750711789E3,-9.390255950E2
4.187143700E1,1.751687012E3,-9.383125907E2
4.193696350E1,1.751337476E3,-9.388945688E2
4.200249001E1,1.750667600E3,-9.390921219E2
4.206801651E1,1.750383435E3,-9.378767378E2
4.213354302E1,1.751693336E3,-9.373596733E2
4.219906952E1,1.752766677E3,-9.365546137E2
4.226459603E1,1.752761189E3,-9.362524011E2
4.233012253E1,1.753096416E3,-9.366487892E2
4.239564904E1,1.752749430E3,-9.369136902E2
4.246117555E1,1.752831080E3,-9.372368122E2
4.252670205E1,1.752838616E3,-9.370804203E2
4.259222856E1,1.752884517E3,-9.364011163E2
4.265775506E1,1.752703911E3,-9.362832477E2
4.272328157E1,1.752679321E3,-9.368192081E2
4.278880807E1,1.753436025E3,-9.357892916E2
4.285433458E1,1.753724864E3,-9.360235456E2
4.291986108E1,1.754680243E3,-9.363363618E2
4.298538759E1,1.754738298E3,-9.362831425E2
4.305091409E1,1.753780257E3,-9.368613028E2
4.311644060E1,1.753865149E3,-9.371731949E2
4.318196711E1,1.754077333E3,-9.375186320E2
4.324749361E1,1.754781446E3,-9.365332746E2
4.331302012E1,1.754363489E3,-9.367571412E2
4.337854662E1,1.754737236E3,-9.364078925E2
4.344407313E1,1.753903060E3,-9.364853469E2
4.350959963E1,1.754075319E3,-9.365601417E2
4.357512614E1,1.754494735E3,-9.360870288E2
4.364065264E1,1.754470685E3,-9.369485436E2
4.370617915E1,1.753880534E3,-9.371400352E2
4.377170565E1,1.754548871E3,-9.362214058E2
4.383723216E1,1.753903879E3,-9.362767049E2
4.390275867E1,1.753871588E3,-9.361789866E2
4.396828517E1,1.754097249E3,-9.366281403E2
4.403381168E1,1.754332084E3,-9.361272460E2
4.409933818E1,1.753820614E3,-9.370806708E2
4.416486469E1,1.753691618E3,-9.369999160E2
4.423039119E1,1.753859187E3,-9.372704287E2
4.429591770E1,1.753683870E3,-9.370878346E2
4.436144420E1,1.753807016E3,-9.375248938E2
4.442697071E1,1.753592239E3,-9.378592947E2
4.449249722E1,1.7539e3,-9.385706476E2
4.455802372E1,1.754743448E3,-9.379008244E2
4.462355023E1,1.754696440E3,-9.378285498E2
4.468907673E1,1.754583231E3,-9.378793669E2
4.475460324E1,1.754100524E3,-9.379342461E2
4.482012974E1,1.753847244E3,-9.381974516E2
4.488565625E1,1.754114108E3,-9.379148465E2
4.495118275E1,1.753838294E3,-9.379574790E2
4.501670926E1,1.753832437E3,-9.379785372E2
4.508223576E1,1.753795285E3,-9.379724574E2
4.514776227E1,1.754638556E3,-9.379044350E2
4.521328878E1,1.754657211E3,-9.378714330E2
4.527881528E1,1.754797676E3,-9.379712314E2
4.534434179E1,1.754570474E3,-9.382947698E2
4.540986829E1,1.754252622E3,-9.380995935E2
4.547539480E1,1.754313799E3,-9.378824594E2
4.554092130E1,1.754134745E3,-9.378772326E2
4.560644781E1,1.754185546E3,-9.381662551E2
4.567197431E1,1.754733596E3,-9.380421809E2
4.573750082E1,1.754718985E3,-9.377637049E2
4.580302732E1,1.754768470E3,-9.376431115E2
4.586855383E1,1.754555667E3,-9.372271512E2
4.593408034E1,1.754552769E3,-9.370451509E2
4.599960684E1,1.754712224E3,-9.373802422E2
4.606513335E1,1.754765297E3,-9.374512802E2
4.613065985E1,1.754586308E3,-9.379847394E2
4.619618636E1,1.754205022E3,-9.385717108E2
4.626171286E1,1.754531315E3,-9.382219037E2
4.632723937E1,1.754367130E3,-9.379487972E2
4.639276587E1,1.754027912E3,-9.379764533E2
4.645829238E1,1.754799892E3,-9.373142758E2
4.652381888E1,1.754694306E3,-9.371610942E2
4.658934539E1,1.754649921E3,-9.374462212E2
4.665487190E1,1.754548617E3,-9.371666546E2
4.672039840E1,1.754709475E3,-9.369312069E2
4.678592491E1,1.754763548E3,-9.370153789E2
4.685145141E1,1.754709529E3,-9.370214214E2
4.691697792E1,1.754983220E3,-9.374857124E2
4.698250442E1,1.754526284E3,-9.380466004E2
4.704803093E1,1.754416585E3,-9.378283090E2
4.711355743E1,1.754496752E3,-9.376302067E2
4.717908394E1,1.754597724E3,-9.378192494E2
4.724461044E1,1.754885483E3,-9.368322121E2
4.731013695E1,1.754950332E3,-9.371578802E2
4.737566346E1,1.754791495E3,-9.375110964E2
4.744118996E1,1.754977571E3,-9.373271980E2
4.750671647E1,1.755295604E3,-9.372819298E2
4.757224297E1,1.754877892E3,-9.376431101E2
4.763776948E1,1.754818378E3,-9.376925558E2
4.770329598E1,1.754436310E3,-9.375195448E2
4.776882249E1,1.754292447E3,-9.376186107E2
4.783434899E1,1.754362068E3,-9.376910173E2
4.789987550E1,1.753834466E3,-9.377302259E2
4.796540201E1,1.753751711E3,-9.376376186E2
4.803092851E1,1.754354041E3,-9.371452674E2
4.809645502E1,1.754753697E3,-9.369938922E2
4.816198152E1,1.754608046E3,-9.370056939E2
4.822750803E1,1.754523970E3,-9.370175017E2
4.829303453E1,1.754950319E3,-9.368892778E2
4.835856104E1,1.754505307E3,-9.370974870E2
4.842408754E1,1.754903956E3,-9.369240602E2
4.848961405E1,1.754714274E3,-9.370689156E2
4.855514055E1,1.755093968E3,-9.375581130E2
4.862066706E1,1.755322837E3,-9.373224017E2
4.868619357E1,1.755509550E3,-9.377410116E2
4.875172007E1,1.754768677E3,-9.378809920E2
4.881724658E1,1.754699064E3,-9.378746384E2
4.888277308E1,1.755222991E3,-9.377435471E2
4.894829959E1,1.754843581E3,-9.377176019E2
4.901382609E1,1.754688726E3,-9.376123158E2
4.907935260E1,1.754406515E3,-9.375222056E2
4.914487910E1,1.754205124E3,-9.378470267E2
4.921040561E1,1.753875728E3,-9.379648413E2
4.927593211E1,1.753923520E3,-9.367135490E2
4.934145862E1,1.753736872E3,-9.373985536E2
4.940698513E1,1.754003244E3,-9.370655697E2
4.947251163E1,1.753722982E3,-9.370898359E2
4.953803814E1,1.754382335E3,-9.371208751E2
4.960356464E1,1.754476232E3,-9.379293432E2
4.966909115E1,1.754607811E3,-9.371674309E2
4.973461765E1,1.754505952E3,-9.376381069E2
4.980014416E1,1.753970396E3,-9.377516291E2
4.986567066E1,1.754131035E3,-9.377740458E2
4.993119717E1,1.753610120E3,-9.378052563E2
4.999672367E1,1.753688675E3,-9.378853128E2
5.006225018E1,1.753444805E3,-9.378560074E2
5.012777669E1,1.753077514E3,-9.378658995E2
5.019330319E1,1.753193608E3,-9.376281441E2
5.025882970E1,1.753404665E3,-9.377290627E2
5.032435620E1,1.753553044E3,-9.378330331E2
5.038988271E1,1.753916186E3,-9.376028954E2
5.045540921E1,1.753926845E3,-9.376217143E2
5.052093572E1,1.754487437E3,-9.374531198E2
5.058646222E1,1.753824041E3,-9.375609461E2
5.065198873E1,1.753676350E3,-9.375061999E2
5.071751523E1,1.753928149E3,-9.372224655E2
5.078304174E1,1.753955532E3,-9.377379723E2
5.084856825E1,1.753703748E3,-9.379602345E2
5.091409475E1,1.753362253E3,-9.381687502E2
5.097962126E1,1.753798261E3,-9.382227674E2
5.104514776E1,1.754445443E3,-9.378283564E2
5.111067427E1,1.753894287E3,-9.382733465E2
5.117620077E1,1.753771656E3,-9.379461262E2
5.124172728E1,1.753912415E3,-9.383700839E2
5.130725378E1,1.754248779E3,-9.382860977E2
5.137278029E1,1.754350973E3,-9.382242949E2
5.143830680E1,1.754513087E3,-9.379509009E2
5.150383330E1,1.754542605E3,-9.379823644E2
5.156935981E1,1.754465279E3,-9.384287680E2
5.163488631E1,1.754783121E3,-9.387862027E2
5.170041282E1,1.755423992E3,-9.383810024E2
5.176593932E1,1.755016165E3,-9.384849955E2
5.183146583E1,1.754893181E3,-9.384230968E2
5.189699233E1,1.755401726E3,-9.387806154E2
5.196251884E1,1.754907571E3,-9.383071935E2
5.202804534E1,1.754950620E3,-9.384010392E2
5.209357185E1,1.754902000E3,-9.384612749E2
5.215909836E1,1.754986574E3,-9.380455943E2
5.222462486E1,1.754695436E3,-9.380630779E2
5.229015137E1,1.754768990E3,-9.380096658E2
5.235567787E1,1.754696493E3,-9.382831213E2
5.242120438E1,1.754651601E3,-9.384914807E2
5.248673088E1,1.754833301E3,-9.384795710E2
5.255225739E1,1.754722289E3,-9.385129483E2
5.261778389E1,1.754809834E3,-9.385241038E2
5.268331040E1,1.755008430E3,-9.381757018E2
5.274883690E1,1.754799042E3,-9.378446414E2
5.281436341E1,1.754734368E3,-9.382177956E2
5.287988992E1,1.754872290E3,-9.379725623E2
5.294541642E1,1.754897421E3,-9.381600969E2
5.301094293E1,1.754518684E3,-9.379735610E2
5.307646943E1,1.754629490E3,-9.379141198E2
5.314199594E1,1.754577775E3,-9.380589955E2
5.320752244E1,1.754596302E3,-9.381537632E2
5.327304895E1,1.754652063E3,-9.380877122E2
5.333857545E1,1.754279518E3,-9.378928660E2
5.340410196E1,1.753830354E3,-9.378070958E2
5.346962846E1,1.754021323E3,-9.376943605E2
5.353515497E1,1.754439702E3,-9.377555988E2
5.360068148E1,1.754486835E3,-9.378493954E2
5.366620798E1,1.754933613E3,-9.379778480E2
5.373173449E1,1.754657587E3,-9.381631293E2
5.379726099E1,1.754088074E3,-9.382350899E2
5.386278750E1,1.754085019E3,-9.382986219E2
5.392831400E1,1.753881785E3,-9.381445933E2
5.399384051E1,1.753805623E3,-9.383733699E2
5.405936701E1,1.753936670E3,-9.378009362E2
5.412489352E1,1.754172914E3,-9.376139206E2
5.419042002E1,1.754033712E3,-9.374887435E2
5.425594653E1,1.754531391E3,-9.373148808E2
5.432147304E1,1.754677828E3,-9.377270112E2
5.438699954E1,1.754782409E3,-9.379092997E2
5.445252605E1,1.754761803E3,-9.378038254E2
5.451805255E1,1.754001834E3,-9.379186868E2
5.458357906E1,1.753887707E3,-9.382019617E2
5.464910556E1,1.754518257E3,-9.381482237E2
5.471463207E1,1.754376293E3,-9.378562083E2
5.478015857E1,1.753974688E3,-9.376187507E2
5.484568508E1,1.753953683E3,-9.377255460E2
5.491121159E1,1.754553630E3,-9.375103347E2
5.497673809E1,1.754540922E3,-9.377330204E2
5.504226460E1,1.753993032E3,-9.379557481E2
5.510779110E1,1.754314877E3,-9.378313478E2
5.517331761E1,1.754511729E3,-9.377318386E2
5.523884411E1,1.754696278E3,-9.383134638E2
5.530437062E1,1.754569702E3,-9.383257895E2
5.536989712E1,1.754772818E3,-9.382410125E2
5.543542363E1,1.754996773E3,-9.380796443E2
5.550095013E1,1.754962336E3,-9.381814184E2
5.556647664E1,1.754537909E3,-9.383667426E2
5.563200315E1,1.754673056E3,-9.381430509E2
5.569752965E1,1.754900412E3,-9.377970392E2
5.576305616E1,1.754673783E3,-9.376510587E2
5.582858266E1,1.754778953E3,-9.375328547E2
5.589410917E1,1.755571276E3,-9.376942216E2
5.595963567E1,1.755040164E3,-9.379495562E2
5.602516218E1,1.754954363E3,-9.379177918E2
5.609068868E1,1.754693271E3,-9.381517407E2
5.615621519E1,1.754140587E3,-9.381927868E2
5.622174169E1,1.754231014E3,-9.386191358E2
5.628726820E1,1.754165286E3,-9.379904777E2
5.635279471E1,1.754522313E3,-9.379671259E2
5.641832121E1,1.753959176E3,-9.380191894E2
5.648384772E1,1.754568175E3,-9.380355895E2
5.654937422E1,1.754341249E3,-9.382362181E2
5.661490073E1,1.753924220E3,-9.383637970E2
5.668042723E1,1.754086366E3,-9.383925678E2
5.674595374E1,1.754815455E3,-9.379127391E2
5.681148024E1,1.754582375E3,-9.380920171E2
5.687700675E1,1.754842468E3,-9.377778292E2
5.694253325E1,1.754735525E3,-9.381658798E2
5.700805976E1,1.754762105E3,-9.380956395E2
5.707358627E1,1.755190699E3,-9.378137737E2
5.713911277E1,1.754924045E3,-9.381506847E2
5.720463928E1,1.754700659E3,-9.387199213E2
5.727016578E1,1.754637375E3,-9.386913495E2
5.733569229E1,1.754585473E3,-9.385999680E2
5.740121879E1,1.754747719E3,-9.386343637E2
5.746674530E1,1.754471005E3,-9.382805812E2
5.753227180E1,1.754797124E3,-9.382853063E2
5.759779831E1,1.754694460E3,-9.378932628E2
5.766332481E1,1.754658821E3,-9.387953357E2
5.772885132E1,1.754231505E3,-9.386176021E2
5.779437783E1,1.754520524E3,-9.382677558E2
5.785990433E1,1.754591143E3,-9.385826448E2
5.792543084E1,1.754572246E3,-9.389396176E2
5.799095734E1,1.754392201E3,-9.383756502E2
5.805648385E1,1.754214492E3,-9.380173135E2
5.812201035E1,1.754450005E3,-9.379679487E2
5.818753686E1,1.754772669E3,-9.378323597E2
5.825306336E1,1.754184509E3,-9.383244872E2
5.831858987E1,1.755045987E3,-9.381828431E2
5.838411638E1,1.754546205E3,-9.379264062E2
5.844964288E1,1.754392019E3,-9.379441724E2
5.851516939E1,1.753955741E3,-9.380182031E2
5.858069589E1,1.753544638E3,-9.377806197E2
5.864622240E1,1.753268505E3,-9.377716446E2
5.871174890E1,1.753722265E3,-9.376446227E2
5.877727541E1,1.753647628E3,-9.381113191E2
5.884280191E1,1.753822114E3,-9.377139681E2
5.890832842E1,1.754380419E3,-9.378257010E2
5.897385492E1,1.754580381E3,-9.374992223E2
5.903938143E1,1.755419475E3,-9.379782282E2
5.910490794E1,1.755423747E3,-9.378887114E2
5.917043444E1,1.755694201E3,-9.373153476E2
5.923596095E1,1.755856454E3,-9.369762571E2
5.930148745E1,1.756371705E3,-9.372986644E2
5.936701396E1,1.755733533E3,-9.381490970E2
5.943254046E1,1.755944352E3,-9.385952738E2
5.949806697E1,1.755635193E3,-9.380399432E2
5.956359347E1,1.756025477E3,-9.378569914E2
5.962911998E1,1.756694707E3,-9.389431468E2
5.969464648E1,1.757171738E3,-9.390623176E2
5.976017299E1,1.756984146E3,-9.396976489E2
5.982569950E1,1.756280359E3,-9.402287308E2
5.989122600E1,1.756528995E3,-9.400646626E2
5.995675251E1,1.755911499E3,-9.391159293E2
6.002227901E1,1.755506805E3,-9.396918307E2
6.008780552E1,1.755532273E3,-9.400475628E2
6.015333202E1,1.755991844E3,-9.402761117E2
6.021885853E1,1.756385872E3,-9.407572319E2
6.028438503E1,1.756591235E3,-9.404848049E2
6.034991154E1,1.756537285E3,-9.408468089E2
6.041543804E1,1.756358010E3,-9.407167240E2
6.048096455E1,1.755183316E3,-9.398746251E2
6.054649106E1,1.754909749E3,-9.396653033E2
6.061201756E1,1.755557555E3,-9.400902183E2
6.067754407E1,1.755321581E3,-9.402676347E2
6.074307057E1,1.755607011E3,-9.391984505E2
6.080859708E1,1.756331310E3,-9.391051588E2
6.087412358E1,1.755993727E3,-9.391171940E2
6.093965009E1,1.756652553E3,-9.398285708E2
6.100517659E1,1.756841203E3,-9.396104502E2
6.107070310E1,1.755680291E3,-9.397290391E2
6.113622960E1,1.755396570E3,-9.392806418E2
6.120175611E1,1.755974171E3,-9.390341822E2
6.126728262E1,1.755820613E3,-9.400074750E2
6.133280912E1,1.755605680E3,-9.410446801E2
6.139833563E1,1.756463416E3,-9.407921577E2
6.146386213E1,1.756278432E3,-9.408347290E2
6.152938864E1,1.755955040E3,-9.397177397E2
6.159491514E1,1.755505132E3,-9.389248790E2
6.166044165E1,1.754701969E3,-9.391158600E2
6.172596815E1,1.755790104E3,-9.397637051E2
6.179149466E1,1.755958768E3,-9.400202838E2
6.185702117E1,1.755588859E3,-9.406457651E2
6.192254767E1,1.755017878E3,-9.410944434E2
6.198807418E1,1.755743730E3,-9.409368832E2
6.205360068E1,1.755402176E3,-9.410795822E2
6.211912719E1,1.755857101E3,-9.411103656E2
6.218465369E1,1.756820212E3,-9.415110892E2
6.225018020E1,1.756033207E3,-9.421397765E2
6.231570670E1,1.756969187E3,-9.418777771E2
6.238123321E1,1.757538477E3,-9.419114047E2
6.244675971E1,1.757149340E3,-9.410377822E2
6.251228622E1,1.757540951E3,-9.403020206E2
6.257781273E1,1.757357149E3,-9.411340263E2
6.264333923E1,1.757814746E3,-9.410987196E2
6.270886574E1,1.757954944E3,-9.409371524E2
6.277439224E1,1.758174006E3,-9.411335811E2
6.283991875E1,1.757988978E3,-9.417646256E2
6.290544525E1,1.758458287E3,-9.416126257E2
6.297097176E1,1.758276642E3,-9.418071823E2
6.303649826E1,1.758670670E3,-9.412734803E2
6.310202477E1,1.758447980E3,-9.414355149E2
6.316755127E1,1.759093952E3,-9.406410927E2
6.323307778E1,1.760043272E3,-9.409286600E2
6.329860429E1,1.758980920E3,-9.408300122E2
6.336413079E1,1.758726096E3,-9.411045683E2
6.342965730E1,1.757995502E3,-9.420951532E2
6.349518380E1,1.757494281E3,-9.411274141E2
6.356071031E1,1.756461696E3,-9.409945997E2
6.362623681E1,1.756600351E3,-9.406975101E2
6.369176332E1,1.756073870E3,-9.399596564E2
6.375728982E1,1.755513975E3,-9.401392714E2
6.382281633E1,1.754682699E3,-9.407215386E2
6.388834283E1,1.754782369E3,-9.409235515E2
6.395386934E1,1.754024668E3,-9.411107325E2
6.401939585E1,1.753729252E3,-9.415651745E2
6.408492235E1,1.752837134E3,-9.417778240E2
6.415044886E1,1.752596213E3,-9.414690185E2
6.421597536E1,1.753086036E3,-9.411152202E2
6.428150187E1,1.752196296E3,-9.406256812E2
6.434702837E1,1.752473914E3,-9.411294123E2
6.441255488E1,1.753601727E3,-9.401321981E2
6.447808138E1,1.752718667E3,-9.401009683E2
6.454360789E1,1.751722897E3,-9.399001649E2
6.460913439E1,1.751305913E3,-9.402764480E2
6.467466090E1,1.751325946E3,-9.408618319E2
6.474018741E1,1.751824575E3,-9.407631517E2
6.480571391E1,1.751006500E3,-9.415577311E2
6.487124042E1,1.750739350E3,-9.411560980E2
6.493676692E1,1.751006524E3,-9.418438566E2
6.500229343E1,1.750297848E3,-9.420427835E2
6.506781993E1,1.750550033E3,-9.428338581E2
6.513334644E1,1.750265894E3,-9.423241193E2
6.519887294E1,1.749630002E3,-9.427558533E2
6.526439945E1,1.749814219E3,-9.426505204E2
6.532992596E1,1.750105259E3,-9.417259522E2
6.539545246E1,1.749997007E3,-9.415913722E2
6.546097897E1,1.750173749E3,-9.412978982E2
6.552650547E1,1.749947538E3,-9.408849476E2
6.559203198E1,1.749501609E3,-9.409272071E2
6.565755848E1,1.748754723E3,-9.409428452E2
6.572308499E1,1.748225985E3,-9.410487700E2
6.578861149E1,1.748026471E3,-9.414445911E2
6.585413800E1,1.747294932E3,-9.412938296E2
6.591966450E1,1.747533348E3,-9.408101500E2
6.598519101E1,1.747223451E3,-9.408732779E2
6.605071752E1,1.747695889E3,-9.410721166E2
6.611624402E1,1.747542112E3,-9.411632344E2
6.618177053E1,1.746996840E3,-9.418645206E2
6.624729703E1,1.746431672E3,-9.411588683E2
6.631282354E1,1.746088062E3,-9.408449509E2
6.637835004E1,1.746508200E3,-9.408124745E2
6.644387655E1,1.745974630E3,-9.399983434E2
6.650940305E1,1.745641206E3,-9.399503412E2
6.657492956E1,1.745562783E3,-9.397737236E2
6.664045606E1,1.745733990E3,-9.402303063E2
6.670598257E1,1.745344390E3,-9.397946649E2
6.677150908E1,1.745614182E3,-9.410077807E2
6.683703558E1,1.745440304E3,-9.419206627E2
6.690256209E1,1.745889650E3,-9.418546560E2
6.696808859E1,1.745657784E3,-9.417053150E2
6.703361510E1,1.746021763E3,-9.418875562E2
6.709914160E1,1.745730112E3,-9.427352282E2
6.716466811E1,1.745681844E3,-9.430408081E2
6.723019461E1,1.745808539E3,-9.425566198E2
6.729572112E1,1.746229496E3,-9.425792249E2
6.736124762E1,1.746075895E3,-9.420347049E2
6.742677413E1,1.745837986E3,-9.422043705E2
6.749230064E1,1.745922625E3,-9.427257099E2
6.755782714E1,1.745102487E3,-9.430774690E2
6.762335365E1,1.745671227E3,-9.438241110E2
6.768888015E1,1.745414108E3,-9.430908024E2
6.775440666E1,1.745725661E3,-9.436712500E2
6.781993316E1,1.746183444E3,-9.438651521E2
6.788545967E1,1.745765997E3,-9.442245635E2
6.795098617E1,1.745061413E3,-9.447923416E2
6.801651268E1,1.745535524E3,-9.456735417E2
6.808203918E1,1.746001917E3,-9.455634632E2
6.814756569E1,1.745405561E3,-9.453324000E2
6.821309220E1,1.745317320E3,-9.456197164E2
6.827861870E1,1.745207929E3,-9.451836526E2
6.834414521E1,1.745674034E3,-9.449211345E2
6.840967171E1,1.745077887E3,-9.448020842E2
6.847519822E1,1.745778344E3,-9.446887959E2
6.854072472E1,1.745634499E3,-9.455430391E2
6.860625123E1,1.745352510E3,-9.454488458E2
6.867177773E1,1.744776917E3,-9.455166409E2
6.873730424E1,1.744849238E3,-9.458259895E2
6.880283075E1,1.744890936E3,-9.458740759E2
6.886835725E1,1.744519840E3,-9.456400419E2
6.893388376E1,1.743847780E3,-9.452539712E2
6.899941026E1,1.744002196E3,-9.456538544E2
6.906493677E1,1.744310560E3,-9.452758571E2
6.913046327E1,1.743903677E3,-9.449161342E2
6.919598978E1,1.744792042E3,-9.448356082E2
6.926151628E1,1.745339414E3,-9.446802624E2
6.932704279E1,1.744775230E3,-9.448759963E2
6.939256929E1,1.744938254E3,-9.449560005E2
6.945809580E1,1.744942091E3,-9.450491835E2
6.952362231E1,1.744389905E3,-9.456498504E2
6.958914881E1,1.743930118E3,-9.462271396E2
6.965467532E1,1.744722236E3,-9.460297088E2
6.972020182E1,1.744542709E3,-9.458884028E2
6.978572833E1,1.744512809E3,-9.455174439E2
6.985125483E1,1.743956594E3,-9.456139622E2
6.991678134E1,1.744190079E3,-9.451469720E2
6.998230784E1,1.744395395E3,-9.456596781E2
7.004783435E1,1.744590637E3,-9.452867385E2
7.011336085E1,1.744686580E3,-9.450523353E2
7.017888736E1,1.744895151E3,-9.457162012E2
7.024441387E1,1.745858289E3,-9.457145528E2
7.030994037E1,1.745668622E3,-9.450872526E2
7.037546688E1,1.746546088E3,-9.446375609E2
7.044099338E1,1.746736120E3,-9.447435771E2
7.050651989E1,1.745842954E3,-9.455551117E2
7.057204639E1,1.745638113E3,-9.453420209E2
7.063757290E1,1.746583210E3,-9.451278949E2
7.070309940E1,1.746043336E3,-9.452628756E2
7.076862591E1,1.746332690E3,-9.454889176E2
7.083415241E1,1.745578270E3,-9.450685396E2
7.089967892E1,1.745793804E3,-9.450608147E2
7.096520543E1,1.745520294E3,-9.449099168E2
7.103073193E1,1.745816001E3,-9.449093946E2
7.109625844E1,1.745938130E3,-9.449419069E2
7.116178494E1,1.746589786E3,-9.449536697E2
7.122731145E1,1.746171336E3,-9.448127711E2
7.129283795E1,1.745876913E3,-9.451156909E2
7.135836446E1,1.746164478E3,-9.436534872E2
7.142389096E1,1.745670972E3,-9.439672914E2
7.148941747E1,1.746834419E3,-9.437520597E2
7.155494397E1,1.745917278E3,-9.430271630E2
7.162047048E1,1.746773660E3,-9.430626815E2
7.168599699E1,1.747003371E3,-9.435812259E2
7.175152349E1,1.746478366E3,-9.438090456E2
7.181705000E1,1.746497118E3,-9.436999829E2
7.188257650E1,1.745740383E3,-9.432121771E2
7.194810301E1,1.745498647E3,-9.438082522E2
7.201362951E1,1.745470338E3,-9.438310523E2
7.207915602E1,1.745573666E3,-9.431984762E2
7.214468252E1,1.745505031E3,-9.441510518E2
7.221020903E1,1.745338334E3,-9.442443116E2
7.227573554E1,1.745431576E3,-9.441691528E2
7.234126204E1,1.745480248E3,-9.439487386E2
7.240678855E1,1.745881508E3,-9.429663310E2
7.247231505E1,1.747498022E3,-9.438210375E2
7.253784156E1,1.746834342E3,-9.434453383E2
7.260336806E1,1.745969176E3,-9.431489827E2
7.266889457E1,1.746468275E3,-9.433083909E2
7.273442107E1,1.745828614E3,-9.429782635E2
7.279994758E1,1.745812697E3,-9.425508215E2
7.286547408E1,1.746328727E3,-9.427505169E2
7.293100059E1,1.746681339E3,-9.429680189E2
7.299652710E1,1.746634433E3,-9.428872735E2
7.306205360E1,1.746507111E3,-9.438889038E2
7.312758011E1,1.746284645E3,-9.441964894E2
7.319310661E1,1.746516923E3,-9.440198580E2
7.325863312E1,1.746850825E3,-9.434304801E2
7.332415962E1,1.746831333E3,-9.428672433E2
7.338968613E1,1.746649690E3,-9.425416020E2
7.345521263E1,1.747414765E3,-9.428452687E2
7.352073914E1,1.747800720E3,-9.428465639E2
7.358626564E1,1.747625316E3,-9.435366299E2
7.365179215E1,1.747743894E3,-9.437457813E2
7.371731866E1,1.747672566E3,-9.437597080E2
7.378284516E1,1.747580559E3,-9.435686763E2
7.384837167E1,1.747433485E3,-9.437665653E2
7.391389817E1,1.746456258E3,-9.436404824E2
7.397942468E1,1.746773071E3,-9.440888993E2
7.404495118E1,1.747868222E3,-9.435680631E2
7.411047769E1,1.747710452E3,-9.436346731E2
