P4D34
t,x,y
0.000000000E0,1.630806914E3,-1.387135881E3
6.552650547E-2,1.630960084E3,-1.388024787E3
1.310530109E-1,1.631580161E3,-1.388065522E3
1.965795164E-1,1.633057272E3,-1.389231951E3
2.621060219E-1,1.632818014E3,-1.389829261E3
3.276325274E-1,1.633673674E3,-1.388011272E3
3.931590328E-1,1.632806027E3,-1.387711606E3
4.586855383E-1,1.631787006E3,-1.387960144E3
5.242120438E-1,1.631692053E3,-1.387357576E3
5.897385492E-1,1.630789647E3,-1.388122820E3
6.552650547E-1,1.630699960E3,-1.388337753E3
7.207915602E-1,1.630912764E3,-1.387949123E3
7.863180657E-1,1.631694388E3,-1.386212983E3
8.518445711E-1,1.631736054E3,-1.386295296E3
9.173710766E-1,1.630780281E3,-1.386712549E3
9.828975821E-1,1.631670540E3,-1.385509506E3
1.048424088E0,1.631890276E3,-1.384880178E3
1.113950593E0,1.631399304E3,-1.384722187E3
1.179477098E0,1.631717833E3,-1.384329308E3
1.245003604E0,1.630886497E3,-1.385003829E3
1.310530109E0,1.631018090E3,-1.385034592E3
1.376056615E0,1.630748503E3,-1.385189993E3
1.441583120E0,1.630862535E3,-1.385920135E3
1.507109626E0,1.631689362E3,-1.385125461E3
1.572636131E0,1.631628837E3,-1.385909758E3
1.638162637E0,1.631470159E3,-1.385642375E3
1.703689142E0,1.631874979E3,-1.385464429E3
1.769215648E0,1.632098674E3,-1.386102602E3
1.834742153E0,1.631685194E3,-1.385022004E3
1.900268659E0,1.631350153E3,-1.384790602E3
1.965795164E0,1.631423111E3,-1.384258321E3
2.031321670E0,1.631180023E3,-1.383337517E3
2.096848175E0,1.630685256E3,-1.383365749E3
2.162374681E0,1.630765884E3,-1.383370035E3
2.227901186E0,1.631211756E3,-1.383064149E3
2.293427692E0,1.631638994E3,-1.382204980E3
2.358954197E0,1.631731032E3,-1.383106689E3
2.424480702E0,1.631363070E3,-1.382944238E3
2.490007208E0,1.631857730E3,-1.383143225E3
2.555533713E0,1.630865042E3,-1.383078294E3
2.621060219E0,1.630920172E3,-1.383042026E3
2.686586724E0,1.631417597E3,-1.383983032E3
2.752113230E0,1.631233493E3,-1.384025475E3
2.817639735E0,1.631045163E3,-1.383324886E3
2.883166241E0,1.631783779E3,-1.383863303E3
2.948692746E0,1.630942325E3,-1.384065071E3
3.014219252E0,1.631904907E3,-1.383127362E3
3.079745757E0,1.632106096E3,-1.383176576E3
3.145272263E0,1.631866813E3,-1.383160353E3
3.210798768E0,1.630867632E3,-1.383052669E3
3.276325274E0,1.631631712E3,-1.383088744E3
3.341851779E0,1.630769865E3,-1.383853598E3
3.407378285E0,1.630869316E3,-1.383442768E3
3.472904790E0,1.630963615E3,-1.383082680E3
3.538431295E0,1.630169065E3,-1.382051021E3
3.603957801E0,1.630741797E3,-1.382377220E3
3.669484306E0,1.631214348E3,-1.383022596E3
3.735010812E0,1.631486623E3,-1.383187543E3
3.800537317E0,1.632035632E3,-1.384064747E3
3.866063823E0,1.632465029E3,-1.383967765E3
3.931590328E0,1.633144395E3,-1.383976078E3
3.997116834E0,1.633137230E3,-1.384137397E3
4.062643339E0,1.633671785E3,-1.383902248E3
4.128169845E0,1.633916279E3,-1.383222270E3
4.193696350E0,1.633787554E3,-1.384133661E3
4.259222856E0,1.632959241E3,-1.383889471E3
4.324749361E0,1.633625905E3,-1.383227466E3
4.390275867E0,1.633262697E3,-1.383067218E3
4.455802372E0,1.634133041E3,-1.383201052E3
4.521328878E0,1.634388900E3,-1.382188547E3
4.586855383E0,1.634792749E3,-1.381974264E3
4.652381888E0,1.634272064E3,-1.382099819E3
4.717908394E0,1.633846231E3,-1.382038681E3
4.783434899E0,1.633122517E3,-1.382261576E3
4.848961405E0,1.632848034E3,-1.382055944E3
4.914487910E0,1.632971393E3,-1.381522795E3
4.980014416E0,1.633627324E3,-1.381898386E3
5.045540921E0,1.633655057E3,-1.382294314E3
5.111067427E0,1.634320997E3,-1.382046165E3
5.176593932E0,1.633688856E3,-1.382152461E3
5.242120438E0,1.632857997E3,-1.382247801E3
5.307646943E0,1.632801602E3,-1.382109345E3
5.373173449E0,1.632475599E3,-1.382221050E3
5.438699954E0,1.631815457E3,-1.382168737E3
5.504226460E0,1.630836717E3,-1.381179961E3
5.569752965E0,1.631060888E3,-1.381109650E3
5.635279471E0,1.630803947E3,-1.380450603E3
5.700805976E0,1.630951256E3,-1.381206086E3
5.766332481E0,1.631153245E3,-1.381247252E3
5.831858987E0,1.631493335E3,-1.380889210E3
5.897385492E0,1.631050436E3,-1.381985965E3
5.962911998E0,1.629956404E3,-1.382425683E3
6.028438503E0,1.629319784E3,-1.382799251E3
6.093965009E0,1.628702699E3,-1.383121418E3
6.159491514E0,1.628836960E3,-1.383002764E3
6.225018020E0,1.628852645E3,-1.383070598E3
6.290544525E0,1.628259117E3,-1.383027977E3
6.356071031E0,1.627784456E3,-1.383095416E3
6.421597536E0,1.628833406E3,-1.383218116E3
6.487124042E0,1.628350119E3,-1.383002793E3
6.552650547E0,1.627830717E3,-1.383330668E3
6.618177053E0,1.627784291E3,-1.383334546E3
6.683703558E0,1.627848452E3,-1.384155244E3
6.749230064E0,1.628857532E3,-1.384333245E3
6.814756569E0,1.628643560E3,-1.385051403E3
6.880283075E0,1.628674027E3,-1.384858114E3
6.945809580E0,1.629364396E3,-1.384136098E3
7.011336085E0,1.629176834E3,-1.384090320E3
7.076862591E0,1.628729823E3,-1.384048101E3
7.142389096E0,1.628717781E3,-1.383241171E3
7.207915602E0,1.628402811E3,-1.383076514E3
7.273442107E0,1.627876326E3,-1.383072116E3
7.338968613E0,1.626758829E3,-1.383071327E3
7.404495118E0,1.626854970E3,-1.383166799E3
7.470021624E0,1.627721635E3,-1.383133206E3
7.535548129E0,1.627320002E3,-1.382710186E3
7.601074635E0,1.628067579E3,-1.383217954E3
7.666601140E0,1.627796181E3,-1.383685078E3
7.732127646E0,1.627826336E3,-1.384396589E3
7.797654151E0,1.628020396E3,-1.384629522E3
7.863180657E0,1.627931781E3,-1.385272106E3
7.928707162E0,1.628615775E3,-1.385055057E3
7.994233668E0,1.627994478E3,-1.385229745E3
8.059760173E0,1.627837654E3,-1.384201237E3
8.125286678E0,1.627968096E3,-1.384992842E3
8.190813184E0,1.628845141E3,-1.384438580E3
8.256339689E0,1.628650804E3,-1.384062020E3
8.321866195E0,1.629113221E3,-1.385139212E3
8.387392700E0,1.630154043E3,-1.385151178E3
8.452919206E0,1.630749708E3,-1.385024398E3
8.518445711E0,1.631397903E3,-1.384749073E3
8.583972217E0,1.631688735E3,-1.384422017E3
8.649498722E0,1.631932332E3,-1.384331361E3
8.715025228E0,1.632137220E3,-1.384622253E3
8.780551733E0,1.632465220E3,-1.384253961E3
8.846078239E0,1.632923318E3,-1.385188840E3
8.911604744E0,1.633494099E3,-1.385106335E3
8.977131250E0,1.632896712E3,-1.385199639E3
9.042657755E0,1.632646838E3,-1.385167314E3
9.108184261E0,1.632612707E3,-1.384955974E3
9.173710766E0,1.632612463E3,-1.384174754E3
9.239237271E0,1.632660020E3,-1.383962649E3
9.304763777E0,1.632527214E3,-1.383957647E3
9.370290282E0,1.632513964E3,-1.383751424E3
9.435816788E0,1.631776035E3,-1.382934797E3
9.501343293E0,1.632583401E3,-1.383051037E3
9.566869799E0,1.631789780E3,-1.383016617E3
9.632396304E0,1.631811717E3,-1.382789081E3
9.697922810E0,1.631858902E3,-1.382987724E3
9.763449315E0,1.631830048E3,-1.382146393E3
9.828975821E0,1.631887190E3,-1.381568505E3
9.894502326E0,1.631775360E3,-1.381599779E3
9.960028832E0,1.631908625E3,-1.381305411E3
1.002555534E1,1.630744137E3,-1.382044626E3
1.009108184E1,1.630685856E3,-1.382009110E3
1.015660835E1,1.631132018E3,-1.381287963E3
1.022213485E1,1.630696900E3,-1.381222200E3
1.028766136E1,1.630358280E3,-1.382191912E3
1.035318786E1,1.629641376E3,-1.381837158E3
1.041871437E1,1.629705588E3,-1.381175904E3
1.048424088E1,1.629811660E3,-1.381118183E3
1.054976738E1,1.629679133E3,-1.380956815E3
1.061529389E1,1.628651257E3,-1.380122366E3
1.068082039E1,1.628079561E3,-1.380231485E3
1.074634690E1,1.627606061E3,-1.380223424E3
1.081187340E1,1.627976478E3,-1.380340818E3
1.087739991E1,1.627890115E3,-1.380321262E3
1.094292641E1,1.627697602E3,-1.380178033E3
1.100845292E1,1.627652900E3,-1.379447555E3
1.107397942E1,1.627812115E3,-1.380050753E3
1.113950593E1,1.627941915E3,-1.380017687E3
1.120503244E1,1.628790981E3,-1.379237761E3
1.127055894E1,1.628915934E3,-1.378961982E3
1.133608545E1,1.628855486E3,-1.379084860E3
1.140161195E1,1.629851298E3,-1.378443171E3
1.146713846E1,1.630818144E3,-1.378290720E3
1.153266496E1,1.631053840E3,-1.377084476E3
1.159819147E1,1.630556139E3,-1.375937255E3
1.166371797E1,1.630919192E3,-1.376064905E3
1.172924448E1,1.630941860E3,-1.375189415E3
1.179477098E1,1.629771863E3,-1.374818108E3
1.186029749E1,1.630151827E3,-1.375483554E3
1.192582400E1,1.630641385E3,-1.375939038E3
1.199135050E1,1.630875431E3,-1.375638931E3
1.205687701E1,1.630819936E3,-1.375044167E3
1.212240351E1,1.632028414E3,-1.374147427E3
1.218793002E1,1.631989197E3,-1.373245379E3
1.225345652E1,1.632015185E3,-1.372949991E3
1.231898303E1,1.632709550E3,-1.372995046E3
1.238450953E1,1.632791229E3,-1.373202493E3
1.245003604E1,1.632678095E3,-1.371960308E3
1.251556255E1,1.632864349E3,-1.371377025E3
1.258108905E1,1.632689929E3,-1.370819713E3
1.264661556E1,1.632673751E3,-1.371066528E3
1.271214206E1,1.632679183E3,-1.370153758E3
1.277766857E1,1.632986304E3,-1.370563467E3
1.284319507E1,1.633560474E3,-1.370143743E3
1.290872158E1,1.633718599E3,-1.370789372E3
1.297424808E1,1.633789222E3,-1.370270464E3
1.303977459E1,1.633836772E3,-1.369849161E3
1.310530109E1,1.633476143E3,-1.369802797E3
1.317082760E1,1.633621714E3,-1.370128375E3
1.323635411E1,1.633653175E3,-1.369719644E3
1.330188061E1,1.633556444E3,-1.369258514E3
1.336740712E1,1.633816159E3,-1.369180214E3
1.343293362E1,1.633858640E3,-1.368882996E3
1.349846013E1,1.634545038E3,-1.369063472E3
1.356398663E1,1.634477973E3,-1.369004201E3
1.362951314E1,1.633872487E3,-1.369052194E3
1.369503964E1,1.633558777E3,-1.368295135E3
1.376056615E1,1.633951051E3,-1.368686238E3
1.382609265E1,1.634763678E3,-1.368951200E3
1.389161916E1,1.634434584E3,-1.367204942E3
1.395714567E1,1.634762527E3,-1.367974864E3
1.402267217E1,1.633940790E3,-1.368052626E3
1.408819868E1,1.633024261E3,-1.368626656E3
1.415372518E1,1.631508533E3,-1.369186898E3
1.421925169E1,1.631755578E3,-1.369254820E3
1.428477819E1,1.631750861E3,-1.369021525E3
1.435030470E1,1.632553537E3,-1.368166456E3
1.441583120E1,1.632710445E3,-1.368195700E3
1.448135771E1,1.633040734E3,-1.368986988E3
1.454688421E1,1.633429693E3,-1.368742241E3
1.461241072E1,1.633577131E3,-1.368423757E3
1.467793723E1,1.633510845E3,-1.368990181E3
1.474346373E1,1.633593452E3,-1.368922340E3
1.480899024E1,1.633795926E3,-1.369172144E3
1.487451674E1,1.633740796E3,-1.369201401E3
1.494004325E1,1.632872751E3,-1.369886043E3
1.500556975E1,1.633026945E3,-1.369064241E3
1.507109626E1,1.633679727E3,-1.369007690E3
1.513662276E1,1.634747381E3,-1.369047658E3
1.520214927E1,1.634858783E3,-1.369148551E3
1.526767577E1,1.634828680E3,-1.368051743E3
1.533320228E1,1.634941677E3,-1.367984985E3
1.539872879E1,1.634987722E3,-1.368028896E3
1.546425529E1,1.635032073E3,-1.367010316E3
1.552978180E1,1.636656763E3,-1.366263480E3
1.559530830E1,1.635917021E3,-1.365740845E3
1.566083481E1,1.635900090E3,-1.365929365E3
1.572636131E1,1.635748853E3,-1.366135125E3
1.579188782E1,1.635797485E3,-1.366038025E3
1.585741432E1,1.636904367E3,-1.365990887E3
1.592294083E1,1.637110430E3,-1.366018939E3
1.598846734E1,1.637365271E3,-1.366034312E3
1.605399384E1,1.637662409E3,-1.367211500E3
1.611952035E1,1.637438665E3,-1.367208175E3
1.618504685E1,1.637008829E3,-1.367028462E3
1.625057336E1,1.636382756E3,-1.366735706E3
1.631609986E1,1.636750526E3,-1.367783037E3
1.638162637E1,1.636774687E3,-1.367986155E3
1.644715287E1,1.636865635E3,-1.367320874E3
1.651267938E1,1.636624751E3,-1.367406714E3
1.657820588E1,1.636846194E3,-1.368094764E3
1.664373239E1,1.637084614E3,-1.368033261E3
1.670925890E1,1.636971454E3,-1.367829149E3
1.677478540E1,1.636996458E3,-1.367299219E3
1.684031191E1,1.637191651E3,-1.367156341E3
1.690583841E1,1.637809475E3,-1.367356896E3
1.697136492E1,1.637776852E3,-1.367378487E3
1.703689142E1,1.637942057E3,-1.367296643E3
1.710241793E1,1.638140205E3,-1.368195931E3
1.716794443E1,1.637796343E3,-1.369087815E3
1.723347094E1,1.637867335E3,-1.369263404E3
1.729899744E1,1.638837823E3,-1.368319082E3
1.736452395E1,1.638712773E3,-1.369077955E3
1.743005046E1,1.638386821E3,-1.368931831E3
1.749557696E1,1.638864546E3,-1.369174179E3
1.756110347E1,1.638039787E3,-1.369183884E3
1.762662997E1,1.638772963E3,-1.369439668E3
1.769215648E1,1.637899296E3,-1.369895386E3
1.775768298E1,1.637877491E3,-1.369102169E3
1.782320949E1,1.637797225E3,-1.369328253E3
1.788873599E1,1.637731234E3,-1.369121860E3
1.795426250E1,1.638057230E3,-1.369239020E3
1.801978900E1,1.639080531E3,-1.369174692E3
1.808531551E1,1.638891031E3,-1.368008926E3
1.815084202E1,1.639338468E3,-1.367734633E3
1.821636852E1,1.638863074E3,-1.367793424E3
1.828189503E1,1.639307424E3,-1.367064853E3
1.834742153E1,1.638774530E3,-1.367136327E3
1.841294804E1,1.638464814E3,-1.366238045E3
1.847847454E1,1.638766900E3,-1.366041710E3
1.854400105E1,1.638885355E3,-1.366486697E3
1.860952755E1,1.638750954E3,-1.365998513E3
1.867505406E1,1.638797370E3,-1.366016761E3
1.874058056E1,1.638828058E3,-1.365732958E3
1.880610707E1,1.639044347E3,-1.365483964E3
1.887163358E1,1.638657816E3,-1.365794485E3
1.893716008E1,1.639646055E3,-1.366132551E3
1.900268659E1,1.639166304E3,-1.366162646E3
1.906821309E1,1.640598118E3,-1.366247497E3
1.913373960E1,1.640833772E3,-1.366640249E3
1.919926610E1,1.640992030E3,-1.366169744E3
1.926479261E1,1.640813719E3,-1.366388678E3
1.933031911E1,1.640530725E3,-1.366841708E3
1.939584562E1,1.640682089E3,-1.366392858E3
1.946137213E1,1.639867989E3,-1.366555040E3
1.952689863E1,1.638860051E3,-1.367315150E3
1.959242514E1,1.638843565E3,-1.367987467E3
1.965795164E1,1.637864543E3,-1.367338163E3
1.972347815E1,1.637893254E3,-1.367245350E3
1.978900465E1,1.638754948E3,-1.367114205E3
1.985453116E1,1.638194818E3,-1.367382925E3
1.992005766E1,1.637938498E3,-1.367811379E3
1.998558417E1,1.637841770E3,-1.368149995E3
2.005111067E1,1.637907660E3,-1.368036818E3
2.011663718E1,1.637940511E3,-1.366375803E3
2.018216369E1,1.637015224E3,-1.365221126E3
2.024769019E1,1.637787988E3,-1.365210912E3
2.031321670E1,1.636937596E3,-1.364763934E3
2.037874320E1,1.637694592E3,-1.364112935E3
2.044426971E1,1.638012812E3,-1.364214992E3
2.050979621E1,1.637915986E3,-1.365107002E3
2.057532272E1,1.638052219E3,-1.365036597E3
2.064084922E1,1.637099217E3,-1.364074436E3
2.070637573E1,1.636031020E3,-1.364210247E3
2.077190223E1,1.635525742E3,-1.363156332E3
2.083742874E1,1.635314159E3,-1.363992662E3
2.090295525E1,1.635856174E3,-1.365162535E3
2.096848175E1,1.634633830E3,-1.365069359E3
2.103400826E1,1.632784984E3,-1.365071932E3
2.109953476E1,1.632620917E3,-1.365026905E3
2.116506127E1,1.633813379E3,-1.365013532E3
2.123058777E1,1.634108204E3,-1.365484080E3
2.129611428E1,1.633737029E3,-1.365119764E3
2.136164078E1,1.632195182E3,-1.365257040E3
2.142716729E1,1.632478563E3,-1.365135600E3
2.149269379E1,1.632335663E3,-1.364653492E3
2.155822030E1,1.632594930E3,-1.365069752E3
2.162374681E1,1.631833990E3,-1.365157114E3
2.168927331E1,1.631904149E3,-1.365000624E3
2.175479982E1,1.631876131E3,-1.364907070E3
2.182032632E1,1.632683172E3,-1.365101870E3
2.188585283E1,1.631930490E3,-1.365158588E3
2.195137933E1,1.632722085E3,-1.364284380E3
2.201690584E1,1.633703209E3,-1.364307067E3
2.208243234E1,1.633918305E3,-1.364263764E3
2.214795885E1,1.633296265E3,-1.364552230E3
2.221348535E1,1.632611462E3,-1.364085606E3
2.227901186E1,1.632899357E3,-1.364019486E3
2.234453837E1,1.633902232E3,-1.362528878E3
2.241006487E1,1.634762413E3,-1.362485686E3
2.247559138E1,1.635659617E3,-1.362140991E3
2.254111788E1,1.635637824E3,-1.363012568E3
2.260664439E1,1.635457061E3,-1.362070609E3
2.267217089E1,1.634894917E3,-1.362311923E3
2.273769740E1,1.635455955E3,-1.362125196E3
2.280322390E1,1.635716281E3,-1.360247975E3
2.286875041E1,1.635190155E3,-1.360145110E3
2.293427692E1,1.635525734E3,-1.358959741E3
2.299980342E1,1.635582733E3,-1.359005342E3
2.306532993E1,1.635394718E3,-1.359117353E3
2.313085643E1,1.635730409E3,-1.360139848E3
2.319638294E1,1.636008002E3,-1.359610259E3
2.326190944E1,1.635742418E3,-1.358485899E3
2.332743595E1,1.634408375E3,-1.359219960E3
2.339296245E1,1.633079732E3,-1.359507864E3
2.345848896E1,1.632333359E3,-1.359087230E3
2.352401546E1,1.631883799E3,-1.359306618E3
2.358954197E1,1.630761007E3,-1.358229425E3
2.365506848E1,1.630571827E3,-1.357866073E3
2.372059498E1,1.630477673E3,-1.358222004E3
2.378612149E1,1.631005676E3,-1.358295942E3
2.385164799E1,1.630605999E3,-1.357202689E3
2.391717450E1,1.630791800E3,-1.357179174E3
2.398270100E1,1.630777335E3,-1.357273964E3
2.404822751E1,1.630741627E3,-1.357362950E3
2.411375401E1,1.630868701E3,-1.358258885E3
2.417928052E1,1.631902617E3,-1.358277389E3
2.424480702E1,1.632582472E3,-1.359099370E3
2.431033353E1,1.632884223E3,-1.358813765E3
2.437586004E1,1.632825885E3,-1.358426400E3
2.444138654E1,1.632912525E3,-1.358059578E3
2.450691305E1,1.632775642E3,-1.357807622E3
2.457243955E1,1.632853686E3,-1.357987652E3
2.463796606E1,1.631734757E3,-1.356844927E3
2.470349256E1,1.630657994E3,-1.356882729E3
2.476901907E1,1.629868193E3,-1.356251854E3
2.483454557E1,1.629722602E3,-1.356204486E3
2.490007208E1,1.629742466E3,-1.356295554E3
2.496559858E1,1.630063292E3,-1.356003632E3
2.503112509E1,1.629704819E3,-1.356210940E3
2.509665160E1,1.630126226E3,-1.355065590E3
2.516217810E1,1.630945488E3,-1.355576655E3
2.522770461E1,1.630870863E3,-1.355830466E3
2.529323111E1,1.631489092E3,-1.355173024E3
2.535875762E1,1.630832023E3,-1.354225898E3
2.542428412E1,1.630630773E3,-1.353272601E3
2.548981063E1,1.630105032E3,-1.354255903E3
2.555533713E1,1.630322043E3,-1.354163915E3
2.562086364E1,1.630065873E3,-1.354079728E3
2.568639014E1,1.629674376E3,-1.352796524E3
2.575191665E1,1.628770590E3,-1.352797933E3
2.581744316E1,1.628511458E3,-1.352044975E3
2.588296966E1,1.627807038E3,-1.352039105E3
2.594849617E1,1.627574610E3,-1.351916042E3
2.601402267E1,1.627937157E3,-1.352045572E3
2.607954918E1,1.627873207E3,-1.352207109E3
2.614507568E1,1.628202812E3,-1.351140186E3
2.621060219E1,1.628766595E3,-1.350296906E3
2.627612869E1,1.627967194E3,-1.350050789E3
2.634165520E1,1.628669079E3,-1.350381249E3
2.640718170E1,1.627903593E3,-1.350517611E3
2.647270821E1,1.628055488E3,-1.350209706E3
2.653823472E1,1.629222971E3,-1.349274980E3
2.660376122E1,1.629192837E3,-1.349146269E3
2.666928773E1,1.628947934E3,-1.349033217E3
2.673481423E1,1.629794511E3,-1.349037964E3
2.680034074E1,1.630929555E3,-1.348619199E3
2.686586724E1,1.630554143E3,-1.348239977E3
2.693139375E1,1.630705378E3,-1.348155675E3
2.699692025E1,1.630890564E3,-1.348347625E3
2.706244676E1,1.630703035E3,-1.348100441E3
2.712797327E1,1.630542749E3,-1.349180596E3
2.719349977E1,1.630422693E3,-1.348890775E3
2.725902628E1,1.629656271E3,-1.349776943E3
2.732455278E1,1.630766869E3,-1.349504975E3
2.739007929E1,1.631225646E3,-1.350188809E3
2.745560579E1,1.631840112E3,-1.350277229E3
2.752113230E1,1.632146311E3,-1.350570127E3
2.758665880E1,1.631952879E3,-1.350086248E3
2.765218531E1,1.631631044E3,-1.350756642E3
2.771771181E1,1.631978356E3,-1.351221840E3
2.778323832E1,1.633100826E3,-1.351587000E3
2.784876483E1,1.632922000E3,-1.351458950E3
2.791429133E1,1.633469406E3,-1.351137581E3
2.797981784E1,1.633821147E3,-1.350471746E3
2.804534434E1,1.633812892E3,-1.351247403E3
2.811087085E1,1.632819470E3,-1.351134743E3
2.817639735E1,1.632105470E3,-1.351465063E3
2.824192386E1,1.631848942E3,-1.350678926E3
2.830745036E1,1.631936784E3,-1.351198921E3
2.837297687E1,1.631846476E3,-1.352119577E3
2.843850337E1,1.631828957E3,-1.351880501E3
2.850402988E1,1.631745087E3,-1.352075324E3
2.856955639E1,1.631039920E3,-1.352163597E3
2.863508289E1,1.631690702E3,-1.352294118E3
2.870060940E1,1.631533004E3,-1.352736453E3
2.876613590E1,1.631673015E3,-1.352075050E3
2.883166241E1,1.630839221E3,-1.351902184E3
2.889718891E1,1.629653210E3,-1.352842465E3
2.896271542E1,1.629823177E3,-1.353737348E3
2.902824192E1,1.628888283E3,-1.354316618E3
2.909376843E1,1.628649637E3,-1.354130378E3
2.915929493E1,1.627830751E3,-1.353728699E3
2.922482144E1,1.627597705E3,-1.353748977E3
2.929034795E1,1.627450245E3,-1.352209946E3
2.935587445E1,1.628363255E3,-1.352136233E3
2.942140096E1,1.627857825E3,-1.353157278E3
2.948692746E1,1.627814717E3,-1.354134948E3
2.955245397E1,1.627907136E3,-1.354159398E3
2.961798047E1,1.628098342E3,-1.354122241E3
2.968350698E1,1.627825787E3,-1.353178334E3
2.974903348E1,1.626927708E3,-1.353474849E3
2.981455999E1,1.626547768E3,-1.352208272E3
2.988008649E1,1.626550740E3,-1.352023161E3
2.994561300E1,1.626485440E3,-1.352097671E3
3.001113951E1,1.625587659E3,-1.351857956E3
3.007666601E1,1.625048506E3,-1.351168725E3
3.014219252E1,1.624893600E3,-1.351036962E3
3.020771902E1,1.624788206E3,-1.350679708E3
3.027324553E1,1.625159614E3,-1.350334700E3
3.033877203E1,1.625160367E3,-1.350175833E3
3.040429854E1,1.625045059E3,-1.351121101E3
3.046982504E1,1.624703673E3,-1.351146244E3
3.053535155E1,1.624835855E3,-1.351158805E3
3.060087806E1,1.624229245E3,-1.351208588E3
3.066640456E1,1.623917026E3,-1.351262871E3
3.073193107E1,1.624163891E3,-1.351124757E3
3.079745757E1,1.624226597E3,-1.351091287E3
3.086298408E1,1.625682017E3,-1.351155943E3
3.092851058E1,1.624938994E3,-1.350167840E3
3.099403709E1,1.624777595E3,-1.350116581E3
3.105956359E1,1.624844512E3,-1.350117552E3
3.112509010E1,1.623961586E3,-1.349802404E3
3.119061660E1,1.623830364E3,-1.349289511E3
3.125614311E1,1.624972337E3,-1.349336398E3
3.132166962E1,1.625724307E3,-1.348338334E3
3.138719612E1,1.625611987E3,-1.348189576E3
3.145272263E1,1.625925517E3,-1.348283552E3
3.151824913E1,1.625827996E3,-1.348156433E3
3.158377564E1,1.625904084E3,-1.347153165E3
3.164930214E1,1.626896143E3,-1.347281389E3
3.171482865E1,1.626807843E3,-1.346254835E3
3.178035515E1,1.626547867E3,-1.346292774E3
3.184588166E1,1.625763559E3,-1.346362932E3
3.191140816E1,1.625813230E3,-1.346873773E3
3.197693467E1,1.626057074E3,-1.347510523E3
3.204246118E1,1.625671223E3,-1.346908150E3
3.210798768E1,1.626005363E3,-1.346236060E3
3.217351419E1,1.625064416E3,-1.345183967E3
3.223904069E1,1.623803938E3,-1.345653992E3
3.230456720E1,1.623762428E3,-1.346953090E3
3.237009370E1,1.622956166E3,-1.346971552E3
3.243562021E1,1.623850759E3,-1.347065251E3
3.250114671E1,1.623957999E3,-1.347835788E3
3.256667322E1,1.623096393E3,-1.347553952E3
3.263219972E1,1.622604056E3,-1.347175590E3
3.269772623E1,1.622294769E3,-1.348093155E3
3.276325274E1,1.622500814E3,-1.347939595E3
3.282877924E1,1.622251848E3,-1.348202788E3
3.289430575E1,1.622887335E3,-1.348778339E3
3.295983225E1,1.623109215E3,-1.349157898E3
3.302535876E1,1.622631909E3,-1.347833826E3
3.309088526E1,1.621842606E3,-1.349117005E3
3.315641177E1,1.622635705E3,-1.349087876E3
3.322193827E1,1.623001752E3,-1.349055248E3
3.328746478E1,1.623776679E3,-1.348259721E3
3.335299128E1,1.623712228E3,-1.349061782E3
3.341851779E1,1.624584752E3,-1.349057340E3
3.348404430E1,1.622842227E3,-1.349055437E3
3.354957080E1,1.622699018E3,-1.348028877E3
3.361509731E1,1.622386555E3,-1.346946129E3
3.368062381E1,1.622773774E3,-1.346594394E3
3.374615032E1,1.622096441E3,-1.346949703E3
3.381167682E1,1.621372082E3,-1.346816503E3
3.387720333E1,1.620866342E3,-1.346242603E3
3.394272983E1,1.620863362E3,-1.347602333E3
3.400825634E1,1.620030855E3,-1.347346606E3
3.407378285E1,1.620813255E3,-1.347497862E3
3.413930935E1,1.621512800E3,-1.346743474E3
3.420483586E1,1.621936118E3,-1.346588714E3
3.427036236E1,1.621606407E3,-1.346972056E3
3.433588887E1,1.621317159E3,-1.346928986E3
3.440141537E1,1.621960414E3,-1.347184737E3
3.446694188E1,1.621758846E3,-1.347159815E3
3.453246838E1,1.621648170E3,-1.345944779E3
3.459799489E1,1.622037925E3,-1.346128823E3
3.466352139E1,1.622749305E3,-1.345390478E3
3.472904790E1,1.622870865E3,-1.344919473E3
3.479457441E1,1.623467338E3,-1.344218365E3
3.486010091E1,1.624120101E3,-1.345183512E3
3.492562742E1,1.624609484E3,-1.344228327E3
3.499115392E1,1.624432924E3,-1.343193265E3
3.505668043E1,1.624288578E3,-1.344258097E3
3.512220693E1,1.623875551E3,-1.344255536E3
3.518773344E1,1.623759591E3,-1.344882806E3
3.525325994E1,1.623638237E3,-1.344136916E3
3.531878645E1,1.623440132E3,-1.343890084E3
3.538431295E1,1.624779888E3,-1.344200765E3
3.544983946E1,1.624753258E3,-1.343676252E3
3.551536597E1,1.625581707E3,-1.343952529E3
3.558089247E1,1.625918914E3,-1.344374300E3
3.564641898E1,1.625651724E3,-1.344970733E3
3.571194548E1,1.625722842E3,-1.344385468E3
3.577747199E1,1.625396789E3,-1.344096332E3
3.584299849E1,1.624353269E3,-1.345701681E3
3.590852500E1,1.625010474E3,-1.345269952E3
3.597405150E1,1.624836679E3,-1.345212377E3
3.603957801E1,1.624892671E3,-1.346043806E3
3.610510451E1,1.625029297E3,-1.345525036E3
3.617063102E1,1.624879837E3,-1.345695379E3
3.623615753E1,1.625890990E3,-1.345447950E3
3.630168403E1,1.626314718E3,-1.345062517E3
3.636721054E1,1.626511092E3,-1.345240946E3
3.643273704E1,1.626791551E3,-1.344436160E3
3.649826355E1,1.627956125E3,-1.345117415E3
3.656379005E1,1.628609362E3,-1.344233323E3
3.662931656E1,1.628612198E3,-1.344018409E3
3.669484306E1,1.627424248E3,-1.344069989E3
3.676036957E1,1.627851346E3,-1.343938793E3
3.682589607E1,1.627918058E3,-1.344307016E3
3.689142258E1,1.627849595E3,-1.344153743E3
3.695694909E1,1.627066950E3,-1.344020968E3
3.702247559E1,1.626576375E3,-1.343151425E3
3.708800210E1,1.625831647E3,-1.343842491E3
3.715352860E1,1.626591920E3,-1.343821641E3
3.721905511E1,1.626892623E3,-1.343452406E3
3.728458161E1,1.625556853E3,-1.342942660E3
3.735010812E1,1.626910036E3,-1.343038806E3
3.741563462E1,1.626813899E3,-1.343181399E3
3.748116113E1,1.625988396E3,-1.344141165E3
3.754668764E1,1.625100508E3,-1.344155277E3
3.761221414E1,1.623878907E3,-1.344679072E3
3.767774065E1,1.623821445E3,-1.344081520E3
3.774326715E1,1.621838592E3,-1.344067443E3
3.780879366E1,1.621124406E3,-1.343617928E3
3.787432016E1,1.621101925E3,-1.344129737E3
3.793984667E1,1.621468757E3,-1.344090734E3
3.800537317E1,1.621085993E3,-1.344525040E3
3.807089968E1,1.621726542E3,-1.344258348E3
3.813642618E1,1.622386308E3,-1.344779434E3
3.820195269E1,1.621854160E3,-1.345086759E3
3.826747920E1,1.621879152E3,-1.345226532E3
3.833300570E1,1.621620517E3,-1.344885925E3
3.839853221E1,1.620468952E3,-1.343723671E3
3.846405871E1,1.620908905E3,-1.344087672E3
3.852958522E1,1.621928179E3,-1.344332090E3
3.859511172E1,1.622503015E3,-1.343776282E3
3.866063823E1,1.622915937E3,-1.343535152E3
3.872616473E1,1.622592717E3,-1.344154621E3
3.879169124E1,1.622449968E3,-1.344843638E3
3.885721774E1,1.622804575E3,-1.345900635E3
3.892274425E1,1.621674653E3,-1.345677919E3
3.898827076E1,1.620877082E3,-1.346223547E3
3.905379726E1,1.622164778E3,-1.346098838E3
3.911932377E1,1.623019748E3,-1.346184870E3
3.918485027E1,1.621946890E3,-1.345970739E3
3.925037678E1,1.621536446E3,-1.344820061E3
3.931590328E1,1.620859405E3,-1.344050461E3
3.938142979E1,1.621630537E3,-1.344101601E3
3.944695629E1,1.621275700E3,-1.344169195E3
3.951248280E1,1.620895900E3,-1.343995278E3
3.957800930E1,1.620821176E3,-1.343354487E3
3.964353581E1,1.620848996E3,-1.344091240E3
3.970906232E1,1.620677820E3,-1.344124047E3
3.977458882E1,1.619895166E3,-1.344074942E3
3.984011533E1,1.618066778E3,-1.344083425E3
3.990564183E1,1.618065759E3,-1.343608390E3
3.997116834E1,1.617104726E3,-1.343153005E3
4.003669484E1,1.617712132E3,-1.342007287E3
4.010222135E1,1.618106490E3,-1.342038585E3
4.016774785E1,1.618018551E3,-1.343127642E3
4.023327436E1,1.618008625E3,-1.342583382E3
4.029880086E1,1.618865192E3,-1.341382181E3
4.036432737E1,1.620532766E3,-1.341006876E3
4.042985388E1,1.620809093E3,-1.341207739E3
4.049538038E1,1.621048723E3,-1.341061272E3
4.056090689E1,1.621207309E3,-1.340369034E3
4.062643339E1,1.620809631E3,-1.339168276E3
4.069195990E1,1.621760738E3,-1.338973359E3
4.075748640E1,1.622224101E3,-1.340529373E3
4.082301291E1,1.621816757E3,-1.340990669E3
4.088853941E1,1.622824389E3,-1.341729035E3
4.095406592E1,1.623099855E3,-1.340229541E3
4.101959243E1,1.622891190E3,-1.340000447E3
4.108511893E1,1.623914273E3,-1.339466559E3
4.115064544E1,1.623031235E3,-1.340200529E3
4.121617194E1,1.622049954E3,-1.340158048E3
4.128169845E1,1.621777047E3,-1.340640735E3
4.134722495E1,1.621796807E3,-1.339876463E3
4.141275146E1,1.621779498E3,-1.339801139E3
4.147827796E1,1.622022583E3,-1.340050817E3
4.154380447E1,1.621025921E3,-1.339987175E3
4.160933097E1,1.621798512E3,-1.340016591E3
4.167485748E1,1.622834423E3,-1.339188002E3
4.174038399E1,1.622615285E3,-1.339033888E3
4.180591049E1,1.622535648E3,-1.338708143E3
4.187143700E1,1.623053600E3,-1.338464023E3
4.193696350E1,1.622038761E3,-1.338333405E3
4.200249001E1,1.622431703E3,-1.337703731E3
4.206801651E1,1.621906673E3,-1.336388451E3
4.213354302E1,1.622089922E3,-1.337194371E3
4.219906952E1,1.621960575E3,-1.336435091E3
4.226459603E1,1.621689827E3,-1.336132055E3
4.233012253E1,1.621845709E3,-1.336562811E3
4.239564904E1,1.621006332E3,-1.336995041E3
4.246117555E1,1.622284604E3,-1.337630063E3
4.252670205E1,1.621992496E3,-1.338154723E3
4.259222856E1,1.623022461E3,-1.339176545E3
4.265775506E1,1.623161485E3,-1.339366393E3
4.272328157E1,1.624144821E3,-1.339184509E3
4.278880807E1,1.624399264E3,-1.339086394E3
4.285433458E1,1.625287326E3,-1.340496829E3
4.291986108E1,1.624098195E3,-1.340259321E3
4.298538759E1,1.624095579E3,-1.341258704E3
4.305091409E1,1.623899709E3,-1.339811954E3
4.311644060E1,1.623347456E3,-1.338935966E3
4.318196711E1,1.623760432E3,-1.339493498E3
4.324749361E1,1.623030830E3,-1.339275809E3
4.331302012E1,1.623916052E3,-1.339410748E3
4.337854662E1,1.623113848E3,-1.341228537E3
4.344407313E1,1.623832523E3,-1.340566188E3
4.350959963E1,1.623997107E3,-1.340069192E3
4.357512614E1,1.624753948E3,-1.340178122E3
4.364065264E1,1.624802697E3,-1.340211685E3
4.370617915E1,1.625579548E3,-1.341289836E3
4.377170565E1,1.625739844E3,-1.341296238E3
4.383723216E1,1.624628023E3,-1.340827024E3
4.390275867E1,1.625716685E3,-1.341250374E3
4.396828517E1,1.625069773E3,-1.341072040E3
4.403381168E1,1.626599480E3,-1.341064627E3
4.409933818E1,1.626851462E3,-1.341262593E3
4.416486469E1,1.626918808E3,-1.340962354E3
4.423039119E1,1.626880323E3,-1.341063889E3
4.429591770E1,1.627679788E3,-1.340744897E3
4.436144420E1,1.627969197E3,-1.341140015E3
4.442697071E1,1.627819918E3,-1.341037787E3
4.449249722E1,1.627892020E3,-1.340164762E3
4.455802372E1,1.628093378E3,-1.339478652E3
4.462355023E1,1.627832280E3,-1.339961685E3
4.468907673E1,1.628660534E3,-1.339167131E3
4.475460324E1,1.628636736E3,-1.339745639E3
4.482012974E1,1.628665487E3,-1.338845264E3
4.488565625E1,1.628727988E3,-1.338291907E3
4.495118275E1,1.628632407E3,-1.338874446E3
4.501670926E1,1.628883007E3,-1.339045671E3
4.508223576E1,1.628172564E3,-1.337502832E3
4.514776227E1,1.628168777E3,-1.337340150E3
4.521328878E1,1.628029674E3,-1.338180109E3
4.527881528E1,1.628155034E3,-1.338288563E3
4.534434179E1,1.628007022E3,-1.338120072E3
4.540986829E1,1.628313585E3,-1.336932249E3
4.547539480E1,1.628450875E3,-1.336979961E3
4.554092130E1,1.627414066E3,-1.336861116E3
4.560644781E1,1.626909539E3,-1.337108143E3
4.567197431E1,1.627634565E3,-1.337033234E3
4.573750082E1,1.628098564E3,-1.337401374E3
4.580302732E1,1.628198383E3,-1.337381825E3
4.586855383E1,1.627989275E3,-1.338052913E3
4.593408034E1,1.628719741E3,-1.337316373E3
4.599960684E1,1.627755841E3,-1.337114272E3
4.606513335E1,1.627478032E3,-1.336734062E3
4.613065985E1,1.627864274E3,-1.337214873E3
4.619618636E1,1.627723062E3,-1.337249658E3
4.626171286E1,1.626802226E3,-1.337205910E3
4.632723937E1,1.626930935E3,-1.337107616E3
4.639276587E1,1.626866729E3,-1.337081839E3
4.645829238E1,1.626919040E3,-1.337135833E3
4.652381888E1,1.626955498E3,-1.337057160E3
4.658934539E1,1.626880810E3,-1.337045366E3
4.665487190E1,1.626682132E3,-1.336799188E3
4.672039840E1,1.626839736E3,-1.337100979E3
4.678592491E1,1.627562150E3,-1.336291578E3
4.685145141E1,1.626969790E3,-1.336615732E3
4.691697792E1,1.626835577E3,-1.336168379E3
4.698250442E1,1.626968943E3,-1.336400421E3
4.704803093E1,1.626887201E3,-1.336133655E3
4.711355743E1,1.626769404E3,-1.336026348E3
4.717908394E1,1.626862437E3,-1.336067851E3
4.724461044E1,1.626843933E3,-1.336463795E3
4.731013695E1,1.625886284E3,-1.336736690E3
4.737566346E1,1.625739911E3,-1.336913012E3
4.744118996E1,1.626573589E3,-1.336890916E3
4.750671647E1,1.626898147E3,-1.337021664E3
4.757224297E1,1.626959653E3,-1.337030479E3
4.763776948E1,1.627732716E3,-1.336252197E3
4.770329598E1,1.626913829E3,-1.336570871E3
4.776882249E1,1.626901560E3,-1.336244711E3
4.783434899E1,1.626801105E3,-1.335993625E3
4.789987550E1,1.626800799E3,-1.336325303E3
4.796540201E1,1.627694610E3,-1.336467563E3
4.803092851E1,1.627910535E3,-1.336428575E3
4.809645502E1,1.627749302E3,-1.336535460E3
4.816198152E1,1.627200998E3,-1.336361384E3
4.822750803E1,1.626805425E3,-1.336761756E3
4.829303453E1,1.627468332E3,-1.336187684E3
4.835856104E1,1.627633321E3,-1.336118703E3
4.842408754E1,1.627681105E3,-1.336068654E3
4.848961405E1,1.627695804E3,-1.336213492E3
4.855514055E1,1.627004439E3,-1.336264540E3
4.862066706E1,1.626993443E3,-1.336181341E3
4.868619357E1,1.627072532E3,-1.336253983E3
4.875172007E1,1.627029470E3,-1.336335648E3
4.881724658E1,1.626857453E3,-1.336131201E3
4.888277308E1,1.626842413E3,-1.336106892E3
4.894829959E1,1.626929189E3,-1.336397562E3
4.901382609E1,1.626873836E3,-1.336979781E3
4.907935260E1,1.626874179E3,-1.336704042E3
4.914487910E1,1.626992675E3,-1.336515628E3
4.921040561E1,1.626759764E3,-1.335190183E3
4.927593211E1,1.626810967E3,-1.336184288E3
4.934145862E1,1.626629155E3,-1.335938495E3
4.940698513E1,1.626827904E3,-1.336072587E3
4.947251163E1,1.626453193E3,-1.336075970E3
4.953803814E1,1.626508989E3,-1.336198751E3
4.960356464E1,1.626216663E3,-1.336239690E3
4.966909115E1,1.626743817E3,-1.336243134E3
4.973461765E1,1.626604432E3,-1.336962733E3
4.980014416E1,1.626831874E3,-1.336314605E3
4.986567066E1,1.626711367E3,-1.336726870E3
4.993119717E1,1.626778336E3,-1.336352063E3
4.999672367E1,1.626751378E3,-1.336468919E3
5.006225018E1,1.626716301E3,-1.336089089E3
5.012777669E1,1.626917886E3,-1.336326421E3
5.019330319E1,1.626607940E3,-1.336721661E3
5.025882970E1,1.626857365E3,-1.336305301E3
5.032435620E1,1.626708759E3,-1.336069991E3
5.038988271E1,1.626764977E3,-1.336059256E3
5.045540921E1,1.626781125E3,-1.336339683E3
5.052093572E1,1.626704515E3,-1.336072607E3
5.058646222E1,1.626496673E3,-1.335865015E3
5.065198873E1,1.626497231E3,-1.336034212E3
5.071751523E1,1.626533720E3,-1.336093553E3
5.078304174E1,1.626635355E3,-1.336124798E3
5.084856825E1,1.626910816E3,-1.336162687E3
5.091409475E1,1.627089616E3,-1.336114203E3
5.097962126E1,1.627048009E3,-1.336324713E3
5.104514776E1,1.627018237E3,-1.336635292E3
5.111067427E1,1.626845458E3,-1.337101616E3
5.117620077E1,1.626147899E3,-1.337080192E3
5.124172728E1,1.626730902E3,-1.336296001E3
5.130725378E1,1.626963372E3,-1.336571353E3
5.137278029E1,1.626972279E3,-1.336546006E3
5.143830680E1,1.626795379E3,-1.336953264E3
5.150383330E1,1.626811020E3,-1.336868203E3
5.156935981E1,1.626849684E3,-1.336981504E3
5.163488631E1,1.627051294E3,-1.336494336E3
5.170041282E1,1.627101146E3,-1.336568746E3
5.176593932E1,1.627417688E3,-1.336177921E3
5.183146583E1,1.626780706E3,-1.336127705E3
5.189699233E1,1.626492040E3,-1.336094627E3
5.196251884E1,1.626679154E3,-1.335892796E3
5.202804534E1,1.626801259E3,-1.336158463E3
5.209357185E1,1.626827485E3,-1.336108434E3
5.215909836E1,1.627048371E3,-1.336279013E3
5.222462486E1,1.626976495E3,-1.336352931E3
5.229015137E1,1.626833332E3,-1.336144850E3
5.235567787E1,1.626941237E3,-1.336373521E3
5.242120438E1,1.626863122E3,-1.336336426E3
5.248673088E1,1.626785376E3,-1.336813461E3
5.255225739E1,1.626551851E3,-1.336035751E3
5.261778389E1,1.626866709E3,-1.336162756E3
5.268331040E1,1.627086616E3,-1.336257976E3
5.274883690E1,1.627021179E3,-1.336427184E3
5.281436341E1,1.626841654E3,-1.336900067E3
5.287988992E1,1.626943752E3,-1.336406322E3
5.294541642E1,1.626861680E3,-1.336598879E3
5.301094293E1,1.626858398E3,-1.336381757E3
5.307646943E1,1.626705601E3,-1.336161030E3
5.314199594E1,1.626704273E3,-1.336218884E3
5.320752244E1,1.626842863E3,-1.336099184E3
5.327304895E1,1.626957142E3,-1.336314996E3
5.333857545E1,1.626870688E3,-1.336564128E3
5.340410196E1,1.626827876E3,-1.336167669E3
5.346962846E1,1.626634483E3,-1.335979158E3
5.353515497E1,1.626775220E3,-1.335363163E3
5.360068148E1,1.626888778E3,-1.336090418E3
5.366620798E1,1.626803566E3,-1.336191204E3
5.373173449E1,1.626730786E3,-1.336180611E3
5.379726099E1,1.626754390E3,-1.336232298E3
5.386278750E1,1.626939658E3,-1.336125757E3
5.392831400E1,1.626693341E3,-1.336946132E3
5.399384051E1,1.626723199E3,-1.336643587E3
5.405936701E1,1.626799073E3,-1.336173214E3
5.412489352E1,1.626730844E3,-1.335990194E3
5.419042002E1,1.626910120E3,-1.336112543E3
5.425594653E1,1.626756530E3,-1.335778902E3
5.432147304E1,1.626789788E3,-1.336067612E3
5.438699954E1,1.626844417E3,-1.336008789E3
5.445252605E1,1.626772820E3,-1.336056107E3
5.451805255E1,1.627683191E3,-1.336073243E3
5.458357906E1,1.627039373E3,-1.336117845E3
5.464910556E1,1.626768667E3,-1.336078352E3
5.471463207E1,1.626830230E3,-1.336079514E3
5.478015857E1,1.627081439E3,-1.336443580E3
5.484568508E1,1.626866904E3,-1.336353324E3
5.491121159E1,1.626844515E3,-1.336329805E3
5.497673809E1,1.626820434E3,-1.336268468E3
5.504226460E1,1.626741729E3,-1.336010071E3
5.510779110E1,1.626805407E3,-1.335981432E3
5.517331761E1,1.626716834E3,-1.335909390E3
5.523884411E1,1.626742223E3,-1.335997315E3
5.530437062E1,1.626706419E3,-1.336031316E3
5.536989712E1,1.626726936E3,-1.335989934E3
5.543542363E1,1.626822148E3,-1.336067829E3
5.550095013E1,1.626834100E3,-1.336158624E3
5.556647664E1,1.626760392E3,-1.336262703E3
5.563200315E1,1.626686383E3,-1.335983711E3
5.569752965E1,1.627044577E3,-1.336372250E3
5.576305616E1,1.626790630E3,-1.336174102E3
5.582858266E1,1.626834025E3,-1.336088508E3
5.589410917E1,1.626846125E3,-1.336155576E3
5.595963567E1,1.626741357E3,-1.336927283E3
5.602516218E1,1.626737112E3,-1.336857423E3
5.609068868E1,1.626823654E3,-1.336758601E3
5.615621519E1,1.626875070E3,-1.337062634E3
5.622174169E1,1.627430150E3,-1.336176782E3
5.628726820E1,1.627693794E3,-1.336259591E3
5.635279471E1,1.627433141E3,-1.336149538E3
5.641832121E1,1.627828358E3,-1.336257760E3
5.648384772E1,1.627103491E3,-1.336515168E3
5.654937422E1,1.627001401E3,-1.336164313E3
5.661490073E1,1.627439521E3,-1.336106790E3
5.668042723E1,1.627513987E3,-1.335926354E3
5.674595374E1,1.627467820E3,-1.335834785E3
5.681148024E1,1.626910929E3,-1.336230591E3
5.687700675E1,1.626980340E3,-1.336545200E3
5.694253325E1,1.627186834E3,-1.336249756E3
5.700805976E1,1.627250273E3,-1.336236343E3
5.707358627E1,1.626863237E3,-1.336029377E3
5.713911277E1,1.626886926E3,-1.336683913E3
5.720463928E1,1.627039932E3,-1.336381918E3
5.727016578E1,1.626911767E3,-1.336158573E3
5.733569229E1,1.627461312E3,-1.336128231E3
5.740121879E1,1.627342369E3,-1.335982524E3
5.746674530E1,1.627776012E3,-1.335518746E3
5.753227180E1,1.627286942E3,-1.336157385E3
5.759779831E1,1.627447484E3,-1.335983556E3
5.766332481E1,1.627512232E3,-1.335981859E3
5.772885132E1,1.627585209E3,-1.335639309E3
5.779437783E1,1.627808801E3,-1.336206638E3
5.785990433E1,1.628007846E3,-1.336339128E3
5.792543084E1,1.627772218E3,-1.336137452E3
5.799095734E1,1.627669146E3,-1.335410063E3
5.805648385E1,1.626889092E3,-1.335352489E3
5.812201035E1,1.627303188E3,-1.336167170E3
5.818753686E1,1.626946608E3,-1.335889647E3
5.825306336E1,1.627368270E3,-1.336068299E3
5.831858987E1,1.627604088E3,-1.336088014E3
5.838411638E1,1.627785434E3,-1.335529056E3
5.844964288E1,1.626871378E3,-1.336116247E3
5.851516939E1,1.627101983E3,-1.336440816E3
5.858069589E1,1.626762195E3,-1.335876108E3
5.864622240E1,1.627029044E3,-1.336039034E3
5.871174890E1,1.626951655E3,-1.336152483E3
5.877727541E1,1.627381247E3,-1.335939390E3
5.884280191E1,1.627745027E3,-1.335542321E3
5.890832842E1,1.626839827E3,-1.336039929E3
5.897385492E1,1.627134903E3,-1.336349492E3
5.903938143E1,1.627115260E3,-1.336281115E3
5.910490794E1,1.626997122E3,-1.336238186E3
5.917043444E1,1.627096151E3,-1.336152007E3
5.923596095E1,1.627461477E3,-1.335886143E3
5.930148745E1,1.627792624E3,-1.335620262E3
5.936701396E1,1.627126911E3,-1.336272065E3
5.943254046E1,1.627131687E3,-1.336142779E3
5.949806697E1,1.627048264E3,-1.336221814E3
5.956359347E1,1.627329326E3,-1.335950700E3
5.962911998E1,1.627165131E3,-1.336324886E3
5.969464648E1,1.626889952E3,-1.335975674E3
5.976017299E1,1.626894331E3,-1.336078284E3
5.982569950E1,1.627040051E3,-1.336049388E3
5.989122600E1,1.627014578E3,-1.336285844E3
5.995675251E1,1.626981219E3,-1.336240275E3
6.002227901E1,1.626950645E3,-1.336212022E3
6.008780552E1,1.627140934E3,-1.336362590E3
6.015333202E1,1.626894464E3,-1.335951364E3
6.021885853E1,1.626828783E3,-1.336095456E3
6.028438503E1,1.626856346E3,-1.335918840E3
6.034991154E1,1.626922548E3,-1.336127995E3
6.041543804E1,1.626969579E3,-1.336159198E3
6.048096455E1,1.626790862E3,-1.335912345E3
6.054649106E1,1.627074641E3,-1.336146384E3
6.061201756E1,1.627587606E3,-1.335950262E3
6.067754407E1,1.626989325E3,-1.336171004E3
6.074307057E1,1.627097625E3,-1.336302747E3
6.080859708E1,1.626999873E3,-1.336154293E3
6.087412358E1,1.627769489E3,-1.336011232E3
6.093965009E1,1.627049187E3,-1.336263648E3
6.100517659E1,1.626908747E3,-1.336168939E3
6.107070310E1,1.627180965E3,-1.336268791E3
6.113622960E1,1.627655370E3,-1.336213965E3
6.120175611E1,1.626811879E3,-1.336042364E3
6.126728262E1,1.626834664E3,-1.336027054E3
6.133280912E1,1.626812589E3,-1.336066706E3
6.139833563E1,1.626845796E3,-1.336166468E3
6.146386213E1,1.626890250E3,-1.336081078E3
6.152938864E1,1.626788656E3,-1.335956851E3
6.159491514E1,1.627517177E3,-1.336025792E3
6.166044165E1,1.626993416E3,-1.336194157E3
6.172596815E1,1.627114157E3,-1.336270780E3
6.179149466E1,1.626741905E3,-1.335995764E3
6.185702117E1,1.626802231E3,-1.336012718E3
6.192254767E1,1.626770308E3,-1.336189644E3
6.198807418E1,1.626886133E3,-1.336118185E3
6.205360068E1,1.626535069E3,-1.336139801E3
6.211912719E1,1.626637139E3,-1.336096017E3
6.218465369E1,1.626761588E3,-1.336010397E3
6.225018020E1,1.626901034E3,-1.336174345E3
6.231570670E1,1.626852321E3,-1.336122662E3
6.238123321E1,1.627239850E3,-1.336288185E3
6.244675971E1,1.626836837E3,-1.336192654E3
6.251228622E1,1.626698314E3,-1.335998676E3
6.257781273E1,1.626852549E3,-1.336199397E3
6.264333923E1,1.626809723E3,-1.336090983E3
6.270886574E1,1.626417282E3,-1.336087870E3
6.277439224E1,1.626631393E3,-1.336129344E3
6.283991875E1,1.626978988E3,-1.336530038E3
6.290544525E1,1.626971534E3,-1.336178505E3
6.297097176E1,1.626931856E3,-1.336193391E3
6.303649826E1,1.626935148E3,-1.336142870E3
6.310202477E1,1.626867063E3,-1.336159946E3
6.316755127E1,1.626709008E3,-1.336109261E3
6.323307778E1,1.626678914E3,-1.336083735E3
6.329860429E1,1.626688316E3,-1.336218256E3
6.336413079E1,1.626485300E3,-1.336006575E3
6.342965730E1,1.626610105E3,-1.336093280E3
6.349518380E1,1.626717267E3,-1.335994887E3
6.356071031E1,1.626572742E3,-1.335855606E3
6.362623681E1,1.626030506E3,-1.336242937E3
6.369176332E1,1.626610505E3,-1.336146290E3
6.375728982E1,1.626774802E3,-1.336108328E3
6.382281633E1,1.626819505E3,-1.335984458E3
6.388834283E1,1.626679651E3,-1.336191967E3
6.395386934E1,1.626863065E3,-1.336172030E3
6.401939585E1,1.626862594E3,-1.336059290E3
6.408492235E1,1.626857398E3,-1.336154120E3
6.415044886E1,1.627090960E3,-1.336236507E3
6.421597536E1,1.626936711E3,-1.336259581E3
6.428150187E1,1.626814785E3,-1.336169270E3
6.434702837E1,1.626993856E3,-1.336337449E3
6.441255488E1,1.626975892E3,-1.336368935E3
6.447808138E1,1.626843058E3,-1.336282863E3
6.454360789E1,1.626808572E3,-1.336008372E3
6.460913439E1,1.626593864E3,-1.335978541E3
6.467466090E1,1.626250491E3,-1.336205360E3
6.474018741E1,1.626542878E3,-1.335785337E3
6.480571391E1,1.626868481E3,-1.336113063E3
6.487124042E1,1.626707491E3,-1.335871448E3
6.493676692E1,1.626766202E3,-1.336141651E3
6.500229343E1,1.626759845E3,-1.336191167E3
6.506781993E1,1.626859331E3,-1.336077841E3
6.513334644E1,1.626590961E3,-1.336004080E3
6.519887294E1,1.626374091E3,-1.335767799E3
6.526439945E1,1.626556557E3,-1.335651524E3
6.532992596E1,1.626757274E3,-1.336014358E3
6.539545246E1,1.626726037E3,-1.336125601E3
6.546097897E1,1.626752099E3,-1.336079334E3
6.552650547E1,1.626672403E3,-1.336065004E3
6.559203198E1,1.626570017E3,-1.335730454E3
6.565755848E1,1.626483318E3,-1.335980286E3
6.572308499E1,1.626701915E3,-1.335976223E3
6.578861149E1,1.626869569E3,-1.336221870E3
6.585413800E1,1.626848872E3,-1.336120467E3
6.591966450E1,1.626916864E3,-1.336119272E3
6.598519101E1,1.626530777E3,-1.335901457E3
6.605071752E1,1.626747782E3,-1.336220072E3
6.611624402E1,1.627020839E3,-1.336504156E3
6.618177053E1,1.626895877E3,-1.336209621E3
6.624729703E1,1.627019821E3,-1.336465956E3
6.631282354E1,1.626244893E3,-1.336270361E3
6.637835004E1,1.626738889E3,-1.335996084E3
6.644387655E1,1.626747075E3,-1.335914114E3
6.650940305E1,1.626886772E3,-1.336207482E3
6.657492956E1,1.626804339E3,-1.336357146E3
6.664045606E1,1.626822166E3,-1.336188892E3
6.670598257E1,1.626711306E3,-1.336029945E3
6.677150908E1,1.626717171E3,-1.336178105E3
6.683703558E1,1.626799551E3,-1.336149951E3
6.690256209E1,1.626716132E3,-1.336149612E3
6.696808859E1,1.626887339E3,-1.336279155E3
6.703361510E1,1.626757487E3,-1.336260342E3
6.709914160E1,1.626779006E3,-1.336182105E3
6.716466811E1,1.626616400E3,-1.335747981E3
6.723019461E1,1.626583220E3,-1.335985828E3
6.729572112E1,1.626736392E3,-1.336036008E3
6.736124762E1,1.626810681E3,-1.336284296E3
6.742677413E1,1.626967458E3,-1.336303089E3
6.749230064E1,1.626808415E3,-1.336133857E3
6.755782714E1,1.627076124E3,-1.336380004E3
6.762335365E1,1.627526505E3,-1.336021014E3
6.768888015E1,1.626770898E3,-1.336126854E3
6.775440666E1,1.626873469E3,-1.336218807E3
6.781993316E1,1.626819536E3,-1.336095525E3
6.788545967E1,1.627202196E3,-1.336280640E3
6.795098617E1,1.626592234E3,-1.335651902E3
6.801651268E1,1.626807411E3,-1.336126278E3
6.808203918E1,1.627158097E3,-1.336384216E3
6.814756569E1,1.627040108E3,-1.336202624E3
6.821309220E1,1.626961689E3,-1.336247955E3
6.827861870E1,1.626825701E3,-1.336081972E3
6.834414521E1,1.627014953E3,-1.336112145E3
6.840967171E1,1.626830370E3,-1.336133136E3
6.847519822E1,1.626906718E3,-1.336290624E3
6.854072472E1,1.626960155E3,-1.336152908E3
6.860625123E1,1.626444988E3,-1.335865894E3
6.867177773E1,1.626871039E3,-1.336193868E3
6.873730424E1,1.626751143E3,-1.335956660E3
6.880283075E1,1.626489812E3,-1.336002763E3
6.886835725E1,1.626809025E3,-1.336196334E3
6.893388376E1,1.626682401E3,-1.336112349E3
6.899941026E1,1.626102003E3,-1.336413952E3
6.906493677E1,1.626724680E3,-1.336210993E3
6.913046327E1,1.626739595E3,-1.336136443E3
6.919598978E1,1.626677020E3,-1.336141283E3
6.926151628E1,1.626853108E3,-1.336183194E3
6.932704279E1,1.626917105E3,-1.336228368E3
6.939256929E1,1.626784487E3,-1.336100096E3
6.945809580E1,1.627120518E3,-1.336622298E3
6.952362231E1,1.626764721E3,-1.336171152E3
6.958914881E1,1.626897063E3,-1.336223011E3
6.965467532E1,1.626823041E3,-1.336239367E3
6.972020182E1,1.626787890E3,-1.336201440E3
6.978572833E1,1.626877288E3,-1.336328733E3
6.985125483E1,1.627341351E3,-1.336070695E3
6.991678134E1,1.626876194E3,-1.336696271E3
6.998230784E1,1.627473478E3,-1.335894449E3
7.004783435E1,1.627246213E3,-1.336200867E3
7.011336085E1,1.626681076E3,-1.336069681E3
7.017888736E1,1.626181526E3,-1.336256721E3
7.024441387E1,1.626786243E3,-1.336084766E3
7.030994037E1,1.626681267E3,-1.335711850E3
7.037546688E1,1.627274670E3,-1.336188788E3
7.044099338E1,1.627351638E3,-1.335992028E3
7.050651989E1,1.627390546E3,-1.336095035E3
7.057204639E1,1.626856698E3,-1.336230906E3
7.063757290E1,1.626906157E3,-1.336921385E3
7.070309940E1,1.626764794E3,-1.336854666E3
7.076862591E1,1.626871743E3,-1.336332188E3
7.083415241E1,1.626693324E3,-1.336034138E3
7.089967892E1,1.626531544E3,-1.335960293E3
7.096520543E1,1.626693938E3,-1.336052006E3
7.103073193E1,1.626816925E3,-1.336282601E3
7.109625844E1,1.626827698E3,-1.336149522E3
7.116178494E1,1.627160258E3,-1.336158092E3
7.122731145E1,1.627106849E3,-1.336352585E3
7.129283795E1,1.626610751E3,-1.335911518E3
7.135836446E1,1.626787703E3,-1.336095855E3
7.142389096E1,1.626606507E3,-1.335904826E3
7.148941747E1,1.626835602E3,-1.336828865E3
7.155494397E1,1.626581956E3,-1.336642291E3
7.162047048E1,1.626835864E3,-1.337213918E3
7.168599699E1,1.626729931E3,-1.336304516E3
7.175152349E1,1.626757712E3,-1.336405007E3
7.181705000E1,1.627228250E3,-1.336430265E3
7.188257650E1,1.626982256E3,-1.336531500E3
7.194810301E1,1.626732005E3,-1.336075587E3
7.201362951E1,1.626763939E3,-1.336120176E3
7.207915602E1,1.626801878E3,-1.336197227E3
7.214468252E1,1.626758755E3,-1.336133803E3
7.221020903E1,1.627179668E3,-1.336452597E3
7.227573554E1,1.626649160E3,-1.336013675E3
7.234126204E1,1.626857648E3,-1.336125819E3
7.240678855E1,1.626901175E3,-1.336355671E3
7.247231505E1,1.626771120E3,-1.336904405E3
7.253784156E1,1.626831858E3,-1.336268070E3
7.260336806E1,1.626868487E3,-1.336224064E3
7.266889457E1,1.626706451E3,-1.336110291E3
7.273442107E1,1.626899206E3,-1.336172957E3
7.279994758E1,1.626745207E3,-1.335914640E3
7.286547408E1,1.626931363E3,-1.336402075E3
7.293100059E1,1.627300440E3,-1.336229742E3
7.299652710E1,1.626921147E3,-1.336399425E3
7.306205360E1,1.626816445E3,-1.336190038E3
7.312758011E1,1.626619687E3,-1.336017929E3
7.319310661E1,1.626670688E3,-1.336169743E3
7.325863312E1,1.626855966E3,-1.336282548E3
7.332415962E1,1.626817079E3,-1.336862811E3
7.338968613E1,1.626866162E3,-1.337010620E3
7.345521263E1,1.626897987E3,-1.336963773E3
7.352073914E1,1.626866768E3,-1.336690092E3
7.358626564E1,1.626851505E3,-1.336830819E3
7.365179215E1,1.626939467E3,-1.336416940E3
7.371731866E1,1.627174851E3,-1.336581630E3
7.378284516E1,1.626800504E3,-1.336132794E3
7.384837167E1,1.626962573E3,-1.336240427E3
7.391389817E1,1.627458467E3,-1.336125403E3
7.397942468E1,1.627575860E3,-1.336014053E3
7.404495118E1,1.627255459E3,-1.336456399E3
7.411047769E1,1.627612400E3,-1.336216000E3
