Q6D27
t,x,y
0.000000000E0,1.776267471E3,-8.841655248E2
6.552650547E-2,1.776380625E3,-8.841767103E2
1.310530109E-1,1.776650004E3,-8.840901187E2
1.965795164E-1,1.776505121E3,-8.854326895E2
2.621060219E-1,1.776476090E3,-8.852366784E2
3.276325274E-1,1.777272317E3,-8.843838423E2
3.931590328E-1,1.776477339E3,-8.850987567E2
4.586855383E-1,1.776963544E3,-8.848926488E2
5.242120438E-1,1.777234093E3,-8.860456929E2
5.897385492E-1,1.778161822E3,-8.851026065E2
6.552650547E-1,1.778247204E3,-8.852304874E2
7.207915602E-1,1.779019383E3,-8.850765392E2
7.863180657E-1,1.779213581E3,-8.841241724E2
8.518445711E-1,1.778962172E3,-8.832634804E2
9.173710766E-1,1.778346094E3,-8.849418930E2
9.828975821E-1,1.778805943E3,-8.851314241E2
1.048424088E0,1.778144603E3,-8.851086301E2
1.113950593E0,1.778322324E3,-8.860018024E2
1.179477098E0,1.778110331E3,-8.851022274E2
1.245003604E0,1.777332813E3,-8.850984572E2
1.310530109E0,1.776362736E3,-8.860088493E2
1.376056615E0,1.776552044E3,-8.855883127E2
1.441583120E0,1.776167847E3,-8.843949376E2
1.507109626E0,1.776265192E3,-8.849977915E2
1.572636131E0,1.776400629E3,-8.849050510E2
1.638162637E0,1.777245074E3,-8.841419514E2
1.703689142E0,1.776398262E3,-8.850588319E2
1.769215648E0,1.776205332E3,-8.855306954E2
1.834742153E0,1.777126955E3,-8.850392171E2
1.900268659E0,1.778292225E3,-8.853097424E2
1.965795164E0,1.777442548E3,-8.863705686E2
2.031321670E0,1.777137223E3,-8.871092682E2
2.096848175E0,1.776466110E3,-8.862255796E2
2.162374681E0,1.776915376E3,-8.859874356E2
2.227901186E0,1.776362281E3,-8.853370741E2
2.293427692E0,1.776268492E3,-8.852828765E2
2.358954197E0,1.776892655E3,-8.859922474E2
2.424480702E0,1.777765845E3,-8.861795278E2
2.490007208E0,1.778285627E3,-8.846342887E2
2.555533713E0,1.778337625E3,-8.852155748E2
2.621060219E0,1.779075809E3,-8.861523587E2
2.686586724E0,1.778530343E3,-8.864131443E2
2.752113230E0,1.778324165E3,-8.871447270E2
2.817639735E0,1.778618133E3,-8.871220824E2
2.883166241E0,1.778530244E3,-8.873087305E2
2.948692746E0,1.778358084E3,-8.862819064E2
3.014219252E0,1.778319216E3,-8.861851189E2
3.079745757E0,1.778290647E3,-8.853454850E2
3.145272263E0,1.779093392E3,-8.849175860E2
3.210798768E0,1.779323369E3,-8.850387279E2
3.276325274E0,1.778991669E3,-8.847397464E2
3.341851779E0,1.779280124E3,-8.851310730E2
3.407378285E0,1.780193385E3,-8.844468286E2
3.472904790E0,1.779350521E3,-8.841737505E2
3.538431295E0,1.778399549E3,-8.840632938E2
3.603957801E0,1.779165367E3,-8.841284272E2
3.669484306E0,1.779211637E3,-8.832005344E2
3.735010812E0,1.778376532E3,-8.842378033E2
3.800537317E0,1.778124151E3,-8.850258282E2
3.866063823E0,1.778330718E3,-8.850802674E2
3.931590328E0,1.779246400E3,-8.851978417E2
3.997116834E0,1.779110506E3,-8.847562917E2
4.062643339E0,1.780076641E3,-8.850038535E2
4.128169845E0,1.781594709E3,-8.851132888E2
4.193696350E0,1.781319347E3,-8.849652429E2
4.259222856E0,1.780941093E3,-8.849833281E2
4.324749361E0,1.779556399E3,-8.851093047E2
4.390275867E0,1.778777403E3,-8.849401110E2
4.455802372E0,1.780128263E3,-8.843285197E2
4.521328878E0,1.780548440E3,-8.845743509E2
4.586855383E0,1.780916095E3,-8.849806476E2
4.652381888E0,1.781504569E3,-8.854382749E2
4.717908394E0,1.781940484E3,-8.851178538E2
4.783434899E0,1.781183894E3,-8.852004670E2
4.848961405E0,1.780592450E3,-8.851694608E2
4.914487910E0,1.780867383E3,-8.851148679E2
4.980014416E0,1.781101057E3,-8.848704926E2
5.045540921E0,1.779510269E3,-8.843880312E2
5.111067427E0,1.780186280E3,-8.841750990E2
5.176593932E0,1.781919138E3,-8.832169988E2
5.242120438E0,1.781945403E3,-8.841167579E2
5.307646943E0,1.782091469E3,-8.849037661E2
5.373173449E0,1.781283906E3,-8.851500334E2
5.438699954E0,1.780507088E3,-8.851694589E2
5.504226460E0,1.781352768E3,-8.842896729E2
5.569752965E0,1.782162309E3,-8.841300546E2
5.635279471E0,1.782242193E3,-8.836489496E2
5.700805976E0,1.781034914E3,-8.839043558E2
5.766332481E0,1.781443904E3,-8.826408091E2
5.831858987E0,1.781153744E3,-8.840806117E2
5.897385492E0,1.781541767E3,-8.842865864E2
5.962911998E0,1.781037934E3,-8.840570299E2
6.028438503E0,1.781342695E3,-8.839735100E2
6.093965009E0,1.780491011E3,-8.834418958E2
6.159491514E0,1.780403131E3,-8.830914191E2
6.225018020E0,1.781592044E3,-8.822722414E2
6.290544525E0,1.781308728E3,-8.841082478E2
6.356071031E0,1.781787848E3,-8.830347327E2
6.421597536E0,1.780083609E3,-8.831729363E2
6.487124042E0,1.781233061E3,-8.833793087E2
6.552650547E0,1.781342729E3,-8.838889316E2
6.618177053E0,1.780293714E3,-8.838829992E2
6.683703558E0,1.781453797E3,-8.843018628E2
6.749230064E0,1.782179834E3,-8.843082299E2
6.814756569E0,1.782175104E3,-8.841272577E2
6.880283075E0,1.782265747E3,-8.842342567E2
6.945809580E0,1.781297177E3,-8.848337042E2
7.011336085E0,1.781297036E3,-8.861873298E2
7.076862591E0,1.780968184E3,-8.871356937E2
7.142389096E0,1.781282136E3,-8.873373467E2
7.207915602E0,1.780111183E3,-8.877552728E2
7.273442107E0,1.780424613E3,-8.876331974E2
7.338968613E0,1.780325450E3,-8.881087917E2
7.404495118E0,1.780587419E3,-8.875363667E2
7.470021624E0,1.780468541E3,-8.875357923E2
7.535548129E0,1.780566117E3,-8.864460388E2
7.601074635E0,1.780401794E3,-8.870721070E2
7.666601140E0,1.781424235E3,-8.864111024E2
7.732127646E0,1.782290738E3,-8.861748032E2
7.797654151E0,1.782289540E3,-8.855410502E2
7.863180657E0,1.782982958E3,-8.858464796E2
7.928707162E0,1.782415952E3,-8.852716552E2
7.994233668E0,1.782400251E3,-8.852427608E2
8.059760173E0,1.782361420E3,-8.862426456E2
8.125286678E0,1.783364851E3,-8.862181080E2
8.190813184E0,1.783118284E3,-8.863317147E2
8.256339689E0,1.782783062E3,-8.858482023E2
8.321866195E0,1.782516506E3,-8.861699889E2
8.387392700E0,1.782700906E3,-8.861868597E2
8.452919206E0,1.782265788E3,-8.861543935E2
8.518445711E0,1.782383344E3,-8.856188180E2
8.583972217E0,1.781304150E3,-8.860011255E2
8.649498722E0,1.782273251E3,-8.852821996E2
8.715025228E0,1.781468344E3,-8.851702676E2
8.780551733E0,1.782188963E3,-8.849385831E2
8.846078239E0,1.781977611E3,-8.858157353E2
8.911604744E0,1.782133966E3,-8.853698925E2
8.977131250E0,1.782180851E3,-8.851618957E2
9.042657755E0,1.783467146E3,-8.850985886E2
9.108184261E0,1.783424012E3,-8.851165003E2
9.173710766E0,1.784316383E3,-8.849759041E2
9.239237271E0,1.784136333E3,-8.849957678E2
9.304763777E0,1.783338844E3,-8.842662653E2
9.370290282E0,1.783781889E3,-8.840048313E2
9.435816788E0,1.784463962E3,-8.843801515E2
9.501343293E0,1.784238521E3,-8.842621713E2
9.566869799E0,1.784997912E3,-8.851252127E2
9.632396304E0,1.785253883E3,-8.868753797E2
9.697922810E0,1.786218525E3,-8.870937001E2
9.763449315E0,1.786914738E3,-8.860892051E2
9.828975821E0,1.786389850E3,-8.861379714E2
9.894502326E0,1.786306934E3,-8.860705536E2
9.960028832E0,1.786273800E3,-8.858971406E2
1.002555534E1,1.785994403E3,-8.859365469E2
1.009108184E1,1.785397257E3,-8.861631616E2
1.015660835E1,1.784475247E3,-8.856208392E2
1.022213485E1,1.784221476E3,-8.871376322E2
1.028766136E1,1.784271700E3,-8.869651326E2
1.035318786E1,1.783918696E3,-8.870494774E2
1.041871437E1,1.783417190E3,-8.880385985E2
1.048424088E1,1.784321118E3,-8.888948307E2
1.054976738E1,1.785312972E3,-8.883380588E2
1.061529389E1,1.786337227E3,-8.882109392E2
1.068082039E1,1.786194564E3,-8.874849240E2
1.074634690E1,1.785124068E3,-8.890312012E2
1.081187340E1,1.786278366E3,-8.890656909E2
1.087739991E1,1.786387234E3,-8.892494863E2
1.094292641E1,1.786160784E3,-8.892177639E2
1.100845292E1,1.785582779E3,-8.901261750E2
1.107397942E1,1.785352759E3,-8.901809272E2
1.113950593E1,1.784444707E3,-8.905269228E2
1.120503244E1,1.784297404E3,-8.901412748E2
1.127055894E1,1.784295211E3,-8.893432323E2
1.133608545E1,1.784505281E3,-8.901059262E2
1.140161195E1,1.784608365E3,-8.893604268E2
1.146713846E1,1.784856182E3,-8.891819246E2
1.153266496E1,1.784665464E3,-8.901299521E2
1.159819147E1,1.784205878E3,-8.900238365E2
1.166371797E1,1.783293748E3,-8.906182874E2
1.172924448E1,1.782948398E3,-8.902294902E2
1.179477098E1,1.783230232E3,-8.908233759E2
1.186029749E1,1.784078415E3,-8.902480636E2
1.192582400E1,1.784235381E3,-8.901916273E2
1.199135050E1,1.783503361E3,-8.903647447E2
1.205687701E1,1.783142252E3,-8.901333036E2
1.212240351E1,1.783858877E3,-8.897458200E2
1.218793002E1,1.784165556E3,-8.901378119E2
1.225345652E1,1.783564304E3,-8.901276408E2
1.231898303E1,1.783714361E3,-8.896192785E2
1.238450953E1,1.784262944E3,-8.899215916E2
1.245003604E1,1.784451041E3,-8.893032346E2
1.251556255E1,1.784640312E3,-8.893445792E2
1.258108905E1,1.785179693E3,-8.891706485E2
1.264661556E1,1.785388296E3,-8.892459824E2
1.271214206E1,1.786075587E3,-8.899948854E2
1.277766857E1,1.786196454E3,-8.897801530E2
1.284319507E1,1.786354872E3,-8.884436510E2
1.290872158E1,1.786330118E3,-8.882366136E2
1.297424808E1,1.785920131E3,-8.880754604E2
1.303977459E1,1.786534692E3,-8.884983170E2
1.310530109E1,1.786519179E3,-8.881260792E2
1.317082760E1,1.786155093E3,-8.878503218E2
1.323635411E1,1.785850302E3,-8.867538860E2
1.330188061E1,1.785560872E3,-8.853144709E2
1.336740712E1,1.784163575E3,-8.851284506E2
1.343293362E1,1.783203514E3,-8.851108522E2
1.349846013E1,1.784030688E3,-8.860698185E2
1.356398663E1,1.784449778E3,-8.861224670E2
1.362951314E1,1.784486798E3,-8.865492197E2
1.369503964E1,1.784065673E3,-8.872347419E2
1.376056615E1,1.783369400E3,-8.850493790E2
1.382609265E1,1.784241948E3,-8.844747177E2
1.389161916E1,1.784505959E3,-8.851416769E2
1.395714567E1,1.784602540E3,-8.853961669E2
1.402267217E1,1.784294450E3,-8.852727048E2
1.408819868E1,1.785161412E3,-8.852465890E2
1.415372518E1,1.785330709E3,-8.860338800E2
1.421925169E1,1.786263861E3,-8.861833367E2
1.428477819E1,1.785278872E3,-8.850802062E2
1.435030470E1,1.786153693E3,-8.850230613E2
1.441583120E1,1.786591795E3,-8.852298611E2
1.448135771E1,1.786035066E3,-8.840638246E2
1.454688421E1,1.787186992E3,-8.853407318E2
1.461241072E1,1.787116721E3,-8.860972237E2
1.467793723E1,1.786569157E3,-8.862590230E2
1.474346373E1,1.787298193E3,-8.864461343E2
1.480899024E1,1.785428518E3,-8.871611882E2
1.487451674E1,1.785312912E3,-8.862442534E2
1.494004325E1,1.785067213E3,-8.852803827E2
1.500556975E1,1.786246532E3,-8.854260041E2
1.507109626E1,1.786138837E3,-8.860698036E2
1.513662276E1,1.786372459E3,-8.863417490E2
1.520214927E1,1.786870265E3,-8.870256994E2
1.526767577E1,1.786636369E3,-8.874703832E2
1.533320228E1,1.787200542E3,-8.881404707E2
1.539872879E1,1.785954488E3,-8.889876959E2
1.546425529E1,1.786243089E3,-8.901843334E2
1.552978180E1,1.786229556E3,-8.899661556E2
1.559530830E1,1.786374295E3,-8.895884326E2
1.566083481E1,1.786284104E3,-8.892382064E2
1.572636131E1,1.786212389E3,-8.898645710E2
1.579188782E1,1.787047168E3,-8.901899504E2
1.585741432E1,1.786818801E3,-8.919773702E2
1.592294083E1,1.787454258E3,-8.914565651E2
1.598846734E1,1.785215429E3,-8.912422946E2
1.605399384E1,1.785423033E3,-8.930831479E2
1.611952035E1,1.784328997E3,-8.939494190E2
1.618504685E1,1.785342106E3,-8.942199475E2
1.625057336E1,1.785377227E3,-8.944355066E2
1.631609986E1,1.785237563E3,-8.950203346E2
1.638162637E1,1.785223323E3,-8.941925205E2
1.644715287E1,1.784429552E3,-8.942580447E2
1.651267938E1,1.784021745E3,-8.931735422E2
1.657820588E1,1.783473006E3,-8.930641399E2
1.664373239E1,1.783199641E3,-8.917540389E2
1.670925890E1,1.783290798E3,-8.911019564E2
1.677478540E1,1.782271105E3,-8.921561362E2
1.684031191E1,1.782126804E3,-8.911038340E2
1.690583841E1,1.779989075E3,-8.911304871E2
1.697136492E1,1.779998247E3,-8.911588725E2
1.703689142E1,1.781456632E3,-8.904004208E2
1.710241793E1,1.781405889E3,-8.896202577E2
1.716794443E1,1.781080155E3,-8.900859982E2
1.723347094E1,1.781461134E3,-8.902858999E2
1.729899744E1,1.780962452E3,-8.901903416E2
1.736452395E1,1.781923804E3,-8.901647307E2
1.743005046E1,1.781299966E3,-8.892520607E2
1.749557696E1,1.781289296E3,-8.898876446E2
1.756110347E1,1.782185581E3,-8.901729549E2
1.762662997E1,1.783277776E3,-8.893942078E2
1.769215648E1,1.783475118E3,-8.905182833E2
1.775768298E1,1.784102520E3,-8.912277284E2
1.782320949E1,1.783612480E3,-8.915170345E2
1.788873599E1,1.783347701E3,-8.910022064E2
1.795426250E1,1.783375127E3,-8.913622138E2
1.801978900E1,1.782594659E3,-8.911644133E2
1.808531551E1,1.783539609E3,-8.912072892E2
1.815084202E1,1.783292999E3,-8.910420723E2
1.821636852E1,1.784035379E3,-8.907532927E2
1.828189503E1,1.783916927E3,-8.907894716E2
1.834742153E1,1.784279815E3,-8.911875405E2
1.841294804E1,1.783392856E3,-8.920221740E2
1.847847454E1,1.784982612E3,-8.920617783E2
1.854400105E1,1.785248811E3,-8.924154730E2
1.860952755E1,1.785336182E3,-8.933874804E2
1.867505406E1,1.785228320E3,-8.934805561E2
1.874058056E1,1.785984402E3,-8.932249446E2
1.880610707E1,1.786541155E3,-8.934773187E2
1.887163358E1,1.785937879E3,-8.937704225E2
1.893716008E1,1.787682388E3,-8.934493419E2
1.900268659E1,1.788761262E3,-8.935418515E2
1.906821309E1,1.788656756E3,-8.933960588E2
1.913373960E1,1.788211159E3,-8.939504849E2
1.919926610E1,1.787520967E3,-8.933263328E2
1.926479261E1,1.788243921E3,-8.941880272E2
1.933031911E1,1.787235566E3,-8.940184868E2
1.939584562E1,1.788147928E3,-8.943634478E2
1.946137213E1,1.788233467E3,-8.935073219E2
1.952689863E1,1.788207672E3,-8.940676394E2
1.959242514E1,1.787515935E3,-8.943523608E2
1.965795164E1,1.788249789E3,-8.942512655E2
1.972347815E1,1.787143740E3,-8.947169067E2
1.978900465E1,1.786904328E3,-8.950305355E2
1.985453116E1,1.787045466E3,-8.941021172E2
1.992005766E1,1.787388807E3,-8.941778804E2
1.998558417E1,1.787453442E3,-8.934850882E2
2.005111067E1,1.787130736E3,-8.922870175E2
2.011663718E1,1.786295942E3,-8.928094709E2
2.018216369E1,1.787303483E3,-8.923235707E2
2.024769019E1,1.787092151E3,-8.928628682E2
2.031321670E1,1.786145573E3,-8.928574604E2
2.037874320E1,1.786036357E3,-8.929798288E2
2.044426971E1,1.786273306E3,-8.932578572E2
2.050979621E1,1.786202649E3,-8.941578090E2
2.057532272E1,1.785211013E3,-8.941720336E2
2.064084922E1,1.785515979E3,-8.933508549E2
2.070637573E1,1.785293552E3,-8.931481546E2
2.077190223E1,1.786532519E3,-8.943106919E2
2.083742874E1,1.786433548E3,-8.932064302E2
2.090295525E1,1.787504817E3,-8.925092385E2
2.096848175E1,1.787223188E3,-8.930457575E2
2.103400826E1,1.788145078E3,-8.939498590E2
2.109953476E1,1.788457680E3,-8.933901163E2
2.116506127E1,1.789387358E3,-8.943454348E2
2.123058777E1,1.789224149E3,-8.940660815E2
2.129611428E1,1.789530928E3,-8.941828764E2
2.136164078E1,1.789221724E3,-8.943285188E2
2.142716729E1,1.788441456E3,-8.941579652E2
2.149269379E1,1.788224438E3,-8.941413063E2
2.155822030E1,1.787903359E3,-8.939764958E2
2.162374681E1,1.787842456E3,-8.929610821E2
2.168927331E1,1.788007693E3,-8.928897680E2
2.175479982E1,1.788349961E3,-8.928163214E2
2.182032632E1,1.789162005E3,-8.920643568E2
2.188585283E1,1.789317341E3,-8.920495321E2
2.195137933E1,1.790128885E3,-8.923576025E2
2.201690584E1,1.790233305E3,-8.926415319E2
2.208243234E1,1.790168443E3,-8.931952451E2
2.214795885E1,1.789374322E3,-8.932096715E2
2.221348535E1,1.789071216E3,-8.930695594E2
2.227901186E1,1.789280300E3,-8.937575508E2
2.234453837E1,1.789250035E3,-8.937725950E2
2.241006487E1,1.789526676E3,-8.941397225E2
2.247559138E1,1.789113051E3,-8.930971696E2
2.254111788E1,1.788289685E3,-8.930426135E2
2.260664439E1,1.788038264E3,-8.926829429E2
2.267217089E1,1.788038863E3,-8.931737848E2
2.273769740E1,1.787892697E3,-8.930692562E2
2.280322390E1,1.788110337E3,-8.947092777E2
2.286875041E1,1.788052211E3,-8.950271742E2
2.293427692E1,1.788243693E3,-8.952060126E2
2.299980342E1,1.788181809E3,-8.959315202E2
2.306532993E1,1.786884218E3,-8.959863129E2
2.313085643E1,1.787305480E3,-8.971661984E2
2.319638294E1,1.787156109E3,-8.980810154E2
2.326190944E1,1.787133111E3,-8.977923867E2
2.332743595E1,1.787159920E3,-8.972456875E2
2.339296245E1,1.786361830E3,-8.980428851E2
2.345848896E1,1.785257846E3,-8.971218398E2
2.352401546E1,1.784722967E3,-8.974825489E2
2.358954197E1,1.784394431E3,-8.981632840E2
2.365506848E1,1.784538912E3,-8.983741264E2
2.372059498E1,1.783291699E3,-8.980966954E2
2.378612149E1,1.783197816E3,-8.980399528E2
2.385164799E1,1.783051023E3,-8.989428617E2
2.391717450E1,1.782459972E3,-8.980018750E2
2.398270100E1,1.782289456E3,-8.980910365E2
2.404822751E1,1.782672467E3,-8.983501137E2
2.411375401E1,1.781998136E3,-8.978048388E2
2.417928052E1,1.783248914E3,-8.982818130E2
2.424480702E1,1.783281444E3,-8.994717973E2
2.431033353E1,1.783272469E3,-8.994745999E2
2.437586004E1,1.782187950E3,-9.000426314E2
2.444138654E1,1.781347778E3,-9.000495422E2
2.450691305E1,1.781603453E3,-9.002847115E2
2.457243955E1,1.781886146E3,-9.001645677E2
2.463796606E1,1.781276413E3,-8.999301481E2
2.470349256E1,1.782065130E3,-9.001532656E2
2.476901907E1,1.780348821E3,-9.009336524E2
2.483454557E1,1.780159189E3,-9.001488553E2
2.490007208E1,1.779215229E3,-9.001812911E2
2.496559858E1,1.778701725E3,-9.011821048E2
2.503112509E1,1.777720800E3,-9.001445621E2
2.509665160E1,1.778159912E3,-9.001459514E2
2.516217810E1,1.778196003E3,-9.008255687E2
2.522770461E1,1.779230729E3,-9.009298124E2
2.529323111E1,1.779026249E3,-8.999486811E2
2.535875762E1,1.779734062E3,-9.002274639E2
2.542428412E1,1.780246817E3,-8.991656720E2
2.548981063E1,1.779254960E3,-8.996872226E2
2.555533713E1,1.779163918E3,-9.000316631E2
2.562086364E1,1.779370370E3,-9.009613530E2
2.568639014E1,1.779102990E3,-9.003309772E2
2.575191665E1,1.779111768E3,-9.000774815E2
2.581744316E1,1.778950572E3,-8.998974259E2
2.588296966E1,1.778739632E3,-9.001998323E2
2.594849617E1,1.779988900E3,-9.000570706E2
2.601402267E1,1.779056234E3,-9.003073396E2
2.607954918E1,1.778987183E3,-9.008643081E2
2.614507568E1,1.779459425E3,-9.001051448E2
2.621060219E1,1.779457544E3,-9.004745435E2
2.627612869E1,1.780100661E3,-9.001798972E2
2.634165520E1,1.780332329E3,-9.003611194E2
2.640718170E1,1.780282087E3,-9.001524738E2
2.647270821E1,1.780267426E3,-8.992862366E2
2.653823472E1,1.780835817E3,-8.988638598E2
2.660376122E1,1.781620908E3,-8.982429053E2
2.666928773E1,1.781406202E3,-8.984928935E2
2.673481423E1,1.781219794E3,-8.990382891E2
2.680034074E1,1.782193402E3,-8.992422810E2
2.686586724E1,1.783438111E3,-9.002472769E2
2.693139375E1,1.783210621E3,-9.000625912E2
2.699692025E1,1.783231514E3,-8.993780204E2
2.706244676E1,1.783162796E3,-9.009911565E2
2.712797327E1,1.783119688E3,-9.010008763E2
2.719349977E1,1.783661804E3,-9.014197143E2
2.725902628E1,1.783337587E3,-9.019010028E2
2.732455278E1,1.783432629E3,-9.021016947E2
2.739007929E1,1.784100488E3,-9.020773693E2
2.745560579E1,1.784671663E3,-9.031155310E2
2.752113230E1,1.784858514E3,-9.012077815E2
2.758665880E1,1.784169872E3,-9.022345133E2
2.765218531E1,1.783551620E3,-9.022612437E2
2.771771181E1,1.783363547E3,-9.019650556E2
2.778323832E1,1.783429452E3,-9.012447373E2
2.784876483E1,1.783266264E3,-9.011197141E2
2.791429133E1,1.784142367E3,-9.010544273E2
2.797981784E1,1.783340250E3,-9.018089366E2
2.804534434E1,1.783261538E3,-9.021228654E2
2.811087085E1,1.783355505E3,-9.019559210E2
2.817639735E1,1.783945100E3,-9.010554942E2
2.824192386E1,1.783755381E3,-9.012631512E2
2.830745036E1,1.784280635E3,-9.012180410E2
2.837297687E1,1.783459532E3,-9.015105348E2
2.843850337E1,1.784568707E3,-9.013140436E2
2.850402988E1,1.784305310E3,-9.003800578E2
2.856955639E1,1.785266144E3,-9.011981503E2
2.863508289E1,1.785767653E3,-9.021283174E2
2.870060940E1,1.785343964E3,-9.028890089E2
2.876613590E1,1.785267471E3,-9.040450741E2
2.883166241E1,1.785412836E3,-9.041917721E2
2.889718891E1,1.785423373E3,-9.045203924E2
2.896271542E1,1.785099306E3,-9.040820331E2
2.902824192E1,1.784147666E3,-9.039555608E2
2.909376843E1,1.784213361E3,-9.030608478E2
2.915929493E1,1.784192168E3,-9.023722169E2
2.922482144E1,1.784327527E3,-9.012961163E2
2.929034795E1,1.785853830E3,-9.019471099E2
2.935587445E1,1.787228871E3,-9.012822147E2
2.942140096E1,1.786282069E3,-9.005331738E2
2.948692746E1,1.787253234E3,-9.006101670E2
2.955245397E1,1.786317672E3,-9.011856958E2
2.961798047E1,1.786205468E3,-9.005021002E2
2.968350698E1,1.786152912E3,-9.017449408E2
2.974903348E1,1.786074414E3,-9.018448292E2
2.981455999E1,1.786255334E3,-9.001997958E2
2.988008649E1,1.786339148E3,-9.001945279E2
2.994561300E1,1.786237080E3,-9.001279285E2
3.001113951E1,1.786943683E3,-9.007944212E2
3.007666601E1,1.787262827E3,-9.011575499E2
3.014219252E1,1.787908304E3,-9.011517020E2
3.020771902E1,1.787993530E3,-9.020304252E2
3.027324553E1,1.789382408E3,-9.022005846E2
3.033877203E1,1.789210269E3,-9.026662397E2
3.040429854E1,1.789401501E3,-9.011416596E2
3.046982504E1,1.790245882E3,-8.993462601E2
3.053535155E1,1.789313659E3,-8.994051159E2
3.060087806E1,1.788396854E3,-9.000001713E2
3.066640456E1,1.788210845E3,-9.002646385E2
3.073193107E1,1.788483652E3,-9.004643864E2
3.079745757E1,1.788554835E3,-9.015435136E2
3.086298408E1,1.789274556E3,-9.005650666E2
3.092851058E1,1.789989336E3,-9.001253660E2
3.099403709E1,1.790642339E3,-9.003035202E2
3.105956359E1,1.791135846E3,-8.999021714E2
3.112509010E1,1.791089272E3,-8.989626303E2
3.119061660E1,1.791067193E3,-8.987876149E2
3.125614311E1,1.788882074E3,-8.991320580E2
3.132166962E1,1.787491034E3,-8.985834858E2
3.138719612E1,1.787023347E3,-8.991400401E2
3.145272263E1,1.787150257E3,-8.992075356E2
3.151824913E1,1.787261640E3,-8.995742558E2
3.158377564E1,1.787260531E3,-8.990689460E2
3.164930214E1,1.787061358E3,-8.978775489E2
3.171482865E1,1.787230896E3,-8.981472705E2
3.178035515E1,1.787849272E3,-8.979491360E2
3.184588166E1,1.788276357E3,-8.981279929E2
3.191140816E1,1.789260745E3,-8.978393139E2
3.197693467E1,1.789579872E3,-8.983611684E2
3.204246118E1,1.790152050E3,-8.979271464E2
3.210798768E1,1.789794444E3,-8.989182902E2
3.217351419E1,1.788175641E3,-8.988683516E2
3.223904069E1,1.788449984E3,-8.991839978E2
3.230456720E1,1.788607935E3,-8.996219307E2
3.237009370E1,1.788439851E3,-8.990628838E2
3.243562021E1,1.788935312E3,-8.990344148E2
3.250114671E1,1.788836163E3,-8.989222379E2
3.256667322E1,1.788146653E3,-8.990948517E2
3.263219972E1,1.788149593E3,-8.993734120E2
3.269772623E1,1.788184907E3,-8.999945995E2
3.276325274E1,1.788102702E3,-9.002748477E2
3.282877924E1,1.788688842E3,-9.013659738E2
3.289430575E1,1.789315554E3,-9.014796161E2
3.295983225E1,1.788134569E3,-9.011804530E2
3.302535876E1,1.788309140E3,-9.010184471E2
3.309088526E1,1.788191082E3,-8.992712248E2
3.315641177E1,1.788262797E3,-8.991817665E2
3.322193827E1,1.787167330E3,-8.997077821E2
3.328746478E1,1.787516905E3,-8.993770210E2
3.335299128E1,1.788394690E3,-8.991550394E2
3.341851779E1,1.787787997E3,-8.989243843E2
3.348404430E1,1.787365477E3,-8.986366439E2
3.354957080E1,1.787061051E3,-8.980578905E2
3.361509731E1,1.787037045E3,-8.973044847E2
3.368062381E1,1.786255884E3,-8.980630662E2
3.374615032E1,1.786437785E3,-8.983603452E2
3.381167682E1,1.786483833E3,-8.983309080E2
3.387720333E1,1.786135738E3,-8.988335985E2
3.394272983E1,1.786201515E3,-8.982176914E2
3.400825634E1,1.787023754E3,-8.981506598E2
3.407378285E1,1.787190347E3,-8.980937062E2
3.413930935E1,1.787270777E3,-8.964705386E2
3.420483586E1,1.788184775E3,-8.967858596E2
3.427036236E1,1.788630573E3,-8.961101918E2
3.433588887E1,1.789225401E3,-8.950646485E2
3.440141537E1,1.789882974E3,-8.941494770E2
3.446694188E1,1.789887797E3,-8.940523213E2
3.453246838E1,1.790350153E3,-8.941199888E2
3.459799489E1,1.792007880E3,-8.941032238E2
3.466352139E1,1.793939760E3,-8.929010154E2
3.472904790E1,1.793423994E3,-8.953068045E2
3.479457441E1,1.792907223E3,-8.940350135E2
3.486010091E1,1.793710822E3,-8.935900906E2
3.492562742E1,1.794030613E3,-8.941404804E2
3.499115392E1,1.793492670E3,-8.941560959E2
3.505668043E1,1.794159781E3,-8.949507852E2
3.512220693E1,1.793425182E3,-8.936162540E2
3.518773344E1,1.792727640E3,-8.942528512E2
3.525325994E1,1.792591660E3,-8.943816432E2
3.531878645E1,1.791642316E3,-8.944125771E2
3.538431295E1,1.792143199E3,-8.938174080E2
3.544983946E1,1.792362658E3,-8.943593866E2
3.551536597E1,1.792369988E3,-8.949232826E2
3.558089247E1,1.792140223E3,-8.951316391E2
3.564641898E1,1.792198573E3,-8.940904067E2
3.571194548E1,1.791667229E3,-8.942688144E2
3.577747199E1,1.792167106E3,-8.941243658E2
3.584299849E1,1.792246234E3,-8.944418646E2
3.590852500E1,1.792625697E3,-8.951477550E2
3.597405150E1,1.793101382E3,-8.939011316E2
3.603957801E1,1.792558275E3,-8.940586049E2
3.610510451E1,1.792912218E3,-8.939075827E2
3.617063102E1,1.793422118E3,-8.962028114E2
3.623615753E1,1.794300797E3,-8.967312614E2
3.630168403E1,1.794173102E3,-8.959501749E2
3.636721054E1,1.794082470E3,-8.949241552E2
3.643273704E1,1.794246802E3,-8.949253298E2
3.649826355E1,1.794200973E3,-8.941633484E2
3.656379005E1,1.795105464E3,-8.938287905E2
3.662931656E1,1.796155438E3,-8.940722040E2
3.669484306E1,1.795352166E3,-8.940190273E2
3.676036957E1,1.795186734E3,-8.932393081E2
3.682589607E1,1.793661645E3,-8.933651765E2
3.689142258E1,1.793229888E3,-8.933353857E2
3.695694909E1,1.793089127E3,-8.939834935E2
3.702247559E1,1.792286890E3,-8.929849235E2
3.708800210E1,1.792146380E3,-8.921901564E2
3.715352860E1,1.792280683E3,-8.930704277E2
3.721905511E1,1.793297141E3,-8.921902035E2
3.728458161E1,1.792483762E3,-8.930499936E2
3.735010812E1,1.792235863E3,-8.943765922E2
3.741563462E1,1.791624369E3,-8.951371402E2
3.748116113E1,1.792582653E3,-8.953390539E2
3.754668764E1,1.792363507E3,-8.944197788E2
3.761221414E1,1.792197773E3,-8.959941604E2
3.767774065E1,1.793185915E3,-8.958324187E2
3.774326715E1,1.793699952E3,-8.962619311E2
3.780879366E1,1.793498796E3,-8.955585722E2
3.787432016E1,1.793226208E3,-8.954735888E2
3.793984667E1,1.792387781E3,-8.962739127E2
3.800537317E1,1.792300073E3,-8.964716627E2
3.807089968E1,1.793257493E3,-8.961244278E2
3.813642618E1,1.793197001E3,-8.961164818E2
3.820195269E1,1.793385384E3,-8.955103180E2
3.826747920E1,1.793361601E3,-8.942723507E2
3.833300570E1,1.793052027E3,-8.949954983E2
3.839853221E1,1.793047031E3,-8.950541489E2
3.846405871E1,1.793485489E3,-8.955640230E2
3.852958522E1,1.792357626E3,-8.948699657E2
3.859511172E1,1.792251380E3,-8.950659436E2
3.866063823E1,1.792487156E3,-8.961142866E2
3.872616473E1,1.791241528E3,-8.953047073E2
3.879169124E1,1.791363453E3,-8.951386321E2
3.885721774E1,1.792104735E3,-8.948293364E2
3.892274425E1,1.792394839E3,-8.954949531E2
3.898827076E1,1.793113774E3,-8.942272343E2
3.905379726E1,1.793213300E3,-8.943682172E2
3.911932377E1,1.793417253E3,-8.941111369E2
3.918485027E1,1.793284433E3,-8.934433905E2
3.925037678E1,1.792249845E3,-8.943117581E2
3.931590328E1,1.792021133E3,-8.937643520E2
3.938142979E1,1.793342838E3,-8.943488374E2
3.944695629E1,1.794254119E3,-8.953898866E2
3.951248280E1,1.793293795E3,-8.950817723E2
3.957800930E1,1.793441943E3,-8.942412909E2
3.964353581E1,1.793598848E3,-8.951876521E2
3.970906232E1,1.793863524E3,-8.950843870E2
3.977458882E1,1.793379743E3,-8.959188062E2
3.984011533E1,1.793441426E3,-8.961563990E2
3.990564183E1,1.794141976E3,-8.952417254E2
3.997116834E1,1.793358276E3,-8.962328929E2
4.003669484E1,1.794181929E3,-8.963089998E2
4.010222135E1,1.793116637E3,-8.967760695E2
4.016774785E1,1.793608724E3,-8.962831107E2
4.023327436E1,1.793817000E3,-8.961654715E2
4.029880086E1,1.794054019E3,-8.960340371E2
4.036432737E1,1.794398886E3,-8.965046644E2
4.042985388E1,1.793906594E3,-8.958281021E2
4.049538038E1,1.794270116E3,-8.961141474E2
4.056090689E1,1.794186579E3,-8.961371556E2
4.062643339E1,1.792734470E3,-8.956275963E2
4.069195990E1,1.793343031E3,-8.960430073E2
4.075748640E1,1.793301761E3,-8.968442661E2
4.082301291E1,1.793300112E3,-8.978102502E2
4.088853941E1,1.794013285E3,-8.976936335E2
4.095406592E1,1.794272056E3,-8.976190925E2
4.101959243E1,1.794126548E3,-8.971825972E2
4.108511893E1,1.793029998E3,-8.962495758E2
4.115064544E1,1.792216810E3,-8.970828693E2
4.121617194E1,1.791549327E3,-8.972895922E2
4.128169845E1,1.791395438E3,-8.982581005E2
4.134722495E1,1.792283533E3,-8.973145568E2
4.141275146E1,1.793190021E3,-8.974800348E2
4.147827796E1,1.791636296E3,-8.981830306E2
4.154380447E1,1.790993840E3,-8.988228202E2
4.160933097E1,1.791230339E3,-8.989962158E2
4.167485748E1,1.791272079E3,-8.981248660E2
4.174038399E1,1.791269287E3,-8.980999217E2
4.180591049E1,1.792327064E3,-8.972997936E2
4.187143700E1,1.792146555E3,-8.971512369E2
4.193696350E1,1.791482401E3,-8.974498407E2
4.200249001E1,1.792251952E3,-8.971416281E2
4.206801651E1,1.792310391E3,-8.962935475E2
4.213354302E1,1.793298287E3,-8.959813298E2
4.219906952E1,1.794342500E3,-8.951926482E2
4.226459603E1,1.793374506E3,-8.944107487E2
4.233012253E1,1.793077896E3,-8.950373830E2
4.239564904E1,1.792966384E3,-8.952283159E2
4.246117555E1,1.792290061E3,-8.961876629E2
4.252670205E1,1.791954650E3,-8.961461234E2
4.259222856E1,1.792321307E3,-8.951480809E2
4.265775506E1,1.792969148E3,-8.951898339E2
4.272328157E1,1.793407427E3,-8.951244812E2
4.278880807E1,1.794317904E3,-8.954114875E2
4.285433458E1,1.794991775E3,-8.951502727E2
4.291986108E1,1.795109060E3,-8.949712145E2
4.298538759E1,1.795422295E3,-8.951870538E2
4.305091409E1,1.795109909E3,-8.940076620E2
4.311644060E1,1.795295576E3,-8.942053896E2
4.318196711E1,1.795651533E3,-8.946495980E2
4.324749361E1,1.795164061E3,-8.932208467E2
4.331302012E1,1.794445347E3,-8.932291605E2
4.337854662E1,1.794247075E3,-8.930618877E2
4.344407313E1,1.793768355E3,-8.929725790E2
4.350959963E1,1.793174202E3,-8.927524709E2
4.357512614E1,1.792620115E3,-8.923728731E2
4.364065264E1,1.792352454E3,-8.942903279E2
4.370617915E1,1.791295676E3,-8.941423092E2
4.377170565E1,1.790387961E3,-8.940466731E2
4.383723216E1,1.791616923E3,-8.941728019E2
4.390275867E1,1.791905078E3,-8.927251327E2
4.396828517E1,1.791895907E3,-8.928584203E2
4.403381168E1,1.792323310E3,-8.923050411E2
4.409933818E1,1.792077946E3,-8.930066719E2
4.416486469E1,1.791516052E3,-8.923801798E2
4.423039119E1,1.791496286E3,-8.932325466E2
4.429591770E1,1.791429686E3,-8.934790186E2
4.436144420E1,1.791293200E3,-8.938665571E2
4.442697071E1,1.792292546E3,-8.940989063E2
4.449249722E1,1.792161102E3,-8.941410268E2
4.455802372E1,1.793234351E3,-8.933077992E2
4.462355023E1,1.793174905E3,-8.929176365E2
4.468907673E1,1.793058857E3,-8.933024147E2
4.475460324E1,1.792450218E3,-8.943769420E2
4.482012974E1,1.791452989E3,-8.953129982E2
4.488565625E1,1.792081518E3,-8.951403608E2
4.495118275E1,1.791078521E3,-8.949796349E2
4.501670926E1,1.790544352E3,-8.945608743E2
4.508223576E1,1.790316764E3,-8.935899523E2
4.514776227E1,1.791576107E3,-8.936436481E2
4.521328878E1,1.792019716E3,-8.931189756E2
4.527881528E1,1.791469112E3,-8.923763642E2
4.534434179E1,1.791180982E3,-8.927369656E2
4.540986829E1,1.790958633E3,-8.909252577E2
4.547539480E1,1.792278049E3,-8.894766274E2
4.554092130E1,1.792520636E3,-8.891979030E2
4.560644781E1,1.790567692E3,-8.881619115E2
4.567197431E1,1.790363400E3,-8.887919937E2
4.573750082E1,1.790812568E3,-8.876831851E2
4.580302732E1,1.789603858E3,-8.892055282E2
4.586855383E1,1.790270913E3,-8.891619018E2
4.593408034E1,1.790639786E3,-8.892435828E2
4.599960684E1,1.791080168E3,-8.889603737E2
4.606513335E1,1.790245272E3,-8.892204540E2
4.613065985E1,1.791138787E3,-8.903013504E2
4.619618636E1,1.790541894E3,-8.902400737E2
4.626171286E1,1.790971777E3,-8.908594683E2
4.632723937E1,1.791859547E3,-8.920226781E2
4.639276587E1,1.792381653E3,-8.920899866E2
4.645829238E1,1.792309115E3,-8.912600383E2
4.652381888E1,1.791641733E3,-8.922197199E2
4.658934539E1,1.791238290E3,-8.907118022E2
4.665487190E1,1.792052657E3,-8.901022298E2
4.672039840E1,1.793248119E3,-8.901729075E2
4.678592491E1,1.793153076E3,-8.909435548E2
4.685145141E1,1.791835656E3,-8.909903991E2
4.691697792E1,1.791912976E3,-8.919378427E2
4.698250442E1,1.792409825E3,-8.945289540E2
4.704803093E1,1.791579795E3,-8.952357362E2
4.711355743E1,1.793145102E3,-8.943889021E2
4.717908394E1,1.792461007E3,-8.945596534E2
4.724461044E1,1.792753858E3,-8.955374017E2
4.731013695E1,1.790790955E3,-8.939932166E2
4.737566346E1,1.791404659E3,-8.955117352E2
4.744118996E1,1.790751197E3,-8.963897811E2
4.750671647E1,1.791043734E3,-8.968935728E2
4.757224297E1,1.790304783E3,-8.971552493E2
4.763776948E1,1.791201114E3,-8.963254673E2
4.770329598E1,1.790233494E3,-8.969522939E2
4.776882249E1,1.790761800E3,-8.966253284E2
4.783434899E1,1.790246551E3,-8.966726857E2
4.789987550E1,1.790064768E3,-8.961331010E2
4.796540201E1,1.790074711E3,-8.951778436E2
4.803092851E1,1.789327590E3,-8.948932400E2
4.809645502E1,1.789115436E3,-8.942650291E2
4.816198152E1,1.788165028E3,-8.931281449E2
4.822750803E1,1.787522060E3,-8.931170222E2
4.829303453E1,1.786220903E3,-8.920403153E2
4.835856104E1,1.785483601E3,-8.922758204E2
4.842408754E1,1.784587007E3,-8.933198910E2
4.848961405E1,1.785247977E3,-8.924822432E2
4.855514055E1,1.785219852E3,-8.913698202E2
4.862066706E1,1.784202235E3,-8.922636827E2
4.868619357E1,1.783096796E3,-8.908062466E2
4.875172007E1,1.783515352E3,-8.915155088E2
4.881724658E1,1.784692253E3,-8.916486257E2
4.888277308E1,1.785382022E3,-8.916017354E2
4.894829959E1,1.786026546E3,-8.918881178E2
4.901382609E1,1.787126015E3,-8.911007230E2
4.907935260E1,1.786895298E3,-8.907714469E2
4.914487910E1,1.788483716E3,-8.912168135E2
4.921040561E1,1.789288060E3,-8.913037891E2
4.927593211E1,1.788279738E3,-8.888845973E2
4.934145862E1,1.788170685E3,-8.890972260E2
4.940698513E1,1.788824566E3,-8.888122578E2
4.947251163E1,1.789235908E3,-8.898986582E2
4.953803814E1,1.788904701E3,-8.890247153E2
4.960356464E1,1.788269166E3,-8.893411621E2
4.966909115E1,1.787428068E3,-8.901228666E2
4.973461765E1,1.787102397E3,-8.900171055E2
4.980014416E1,1.788237002E3,-8.905128025E2
4.986567066E1,1.788524574E3,-8.922431862E2
4.993119717E1,1.788365873E3,-8.919437100E2
4.999672367E1,1.789253608E3,-8.928795676E2
5.006225018E1,1.789250904E3,-8.940933714E2
5.012777669E1,1.788977744E3,-8.940475674E2
5.019330319E1,1.789106940E3,-8.951753157E2
5.025882970E1,1.789273797E3,-8.952286161E2
5.032435620E1,1.790100030E3,-8.940558656E2
5.038988271E1,1.790189940E3,-8.941880346E2
5.045540921E1,1.791222091E3,-8.952789799E2
5.052093572E1,1.790442045E3,-8.962240907E2
5.058646222E1,1.790523547E3,-8.974085578E2
5.065198873E1,1.791317708E3,-8.980962843E2
5.071751523E1,1.791539299E3,-8.973470128E2
5.078304174E1,1.791277831E3,-8.977474227E2
5.084856825E1,1.791519503E3,-8.982940745E2
5.091409475E1,1.791658971E3,-8.982564167E2
5.097962126E1,1.792468601E3,-8.971331169E2
5.104514776E1,1.792737888E3,-8.974717802E2
5.111067427E1,1.791268801E3,-8.987901017E2
5.117620077E1,1.790549903E3,-8.980957860E2
5.124172728E1,1.792520714E3,-8.973555900E2
5.130725378E1,1.793536894E3,-8.982066403E2
5.137278029E1,1.793308690E3,-8.992131006E2
5.143830680E1,1.792589769E3,-9.003638119E2
5.150383330E1,1.791171920E3,-9.000098909E2
5.156935981E1,1.790342364E3,-9.009931629E2
5.163488631E1,1.791878257E3,-9.020657038E2
5.170041282E1,1.791263322E3,-9.030296725E2
5.176593932E1,1.792414073E3,-9.033086912E2
5.183146583E1,1.792308227E3,-9.018401937E2
5.189699233E1,1.793336988E3,-9.029071715E2
5.196251884E1,1.794286093E3,-9.021605202E2
5.202804534E1,1.795259774E3,-9.011770693E2
5.209357185E1,1.795170006E3,-9.009240907E2
5.215909836E1,1.796076404E3,-9.002996294E2
5.222462486E1,1.795225873E3,-9.002485244E2
5.229015137E1,1.796017907E3,-9.009842621E2
5.235567787E1,1.795910416E3,-9.011832455E2
5.242120438E1,1.795221014E3,-9.020196265E2
5.248673088E1,1.795473949E3,-9.021265236E2
5.255225739E1,1.796116812E3,-9.002751805E2
5.261778389E1,1.797033366E3,-8.992316661E2
5.268331040E1,1.797033052E3,-8.989054299E2
5.274883690E1,1.796278139E3,-8.982758597E2
5.281436341E1,1.795946497E3,-8.979827102E2
5.287988992E1,1.796240740E3,-8.977555665E2
5.294541642E1,1.796041803E3,-8.961667420E2
5.301094293E1,1.796461641E3,-8.954631062E2
5.307646943E1,1.796090775E3,-8.948613075E2
5.314199594E1,1.793699434E3,-8.961700816E2
5.320752244E1,1.793407160E3,-8.962921866E2
5.327304895E1,1.793237238E3,-8.969803623E2
5.333857545E1,1.793243149E3,-8.976705295E2
5.340410196E1,1.793437304E3,-8.984461313E2
5.346962846E1,1.794587235E3,-8.981841852E2
5.353515497E1,1.794064971E3,-9.002234994E2
5.360068148E1,1.794256595E3,-9.000120643E2
5.366620798E1,1.794459124E3,-9.001311390E2
5.373173449E1,1.793409909E3,-9.001596723E2
5.379726099E1,1.793270433E3,-8.994386881E2
5.386278750E1,1.792338779E3,-8.999300457E2
5.392831400E1,1.791879602E3,-8.991258239E2
5.399384051E1,1.791656786E3,-8.993964951E2
5.405936701E1,1.792004658E3,-8.989891793E2
5.412489352E1,1.790329936E3,-8.981096100E2
5.419042002E1,1.791378187E3,-8.974681242E2
5.425594653E1,1.791280095E3,-8.984182260E2
5.432147304E1,1.791999158E3,-8.981787917E2
5.438699954E1,1.791366374E3,-8.982413541E2
5.445252605E1,1.791413239E3,-8.983452513E2
5.451805255E1,1.792307523E3,-8.985898145E2
5.458357906E1,1.791468900E3,-8.992411261E2
5.464910556E1,1.790445670E3,-9.001229656E2
5.471463207E1,1.790199107E3,-9.009129418E2
5.478015857E1,1.790200510E3,-9.009476466E2
5.484568508E1,1.789351814E3,-9.031121817E2
5.491121159E1,1.787902811E3,-9.029428566E2
5.497673809E1,1.787688722E3,-9.031909479E2
5.504226460E1,1.787577151E3,-9.032686371E2
5.510779110E1,1.787382071E3,-9.029676108E2
5.517331761E1,1.788245478E3,-9.015532118E2
5.523884411E1,1.787316237E3,-9.033378299E2
5.530437062E1,1.786470106E3,-9.025068101E2
5.536989712E1,1.785449609E3,-9.022862472E2
5.543542363E1,1.785637153E3,-9.031765288E2
5.550095013E1,1.787324843E3,-9.023537963E2
5.556647664E1,1.787509147E3,-9.021737216E2
5.563200315E1,1.787339777E3,-9.019895110E2
5.569752965E1,1.786091492E3,-9.012171638E2
5.576305616E1,1.784709625E3,-9.014201111E2
5.582858266E1,1.785209702E3,-9.013729206E2
5.589410917E1,1.784357857E3,-9.009141064E2
5.595963567E1,1.785140802E3,-9.010813542E2
5.602516218E1,1.786310431E3,-9.006319600E2
5.609068868E1,1.785342679E3,-8.982641015E2
5.615621519E1,1.785387475E3,-8.993171421E2
5.622174169E1,1.785257776E3,-9.003378244E2
5.628726820E1,1.785252610E3,-8.993688178E2
5.635279471E1,1.785305774E3,-8.984303267E2
5.641832121E1,1.784327997E3,-8.986550985E2
5.648384772E1,1.784324867E3,-8.981470019E2
5.654937422E1,1.784420843E3,-8.989683050E2
5.661490073E1,1.784256948E3,-8.989097074E2
5.668042723E1,1.785344158E3,-8.982507942E2
5.674595374E1,1.784377336E3,-8.980673126E2
5.681148024E1,1.784662341E3,-8.973067654E2
5.687700675E1,1.784461592E3,-8.972147057E2
5.694253325E1,1.785361680E3,-8.960838797E2
5.700805976E1,1.784252001E3,-8.958716278E2
5.707358627E1,1.783940174E3,-8.949267837E2
5.713911277E1,1.784312843E3,-8.954901435E2
5.720463928E1,1.784228688E3,-8.952321281E2
5.727016578E1,1.784591964E3,-8.954349317E2
5.733569229E1,1.785161908E3,-8.952307322E2
5.740121879E1,1.785300756E3,-8.965569891E2
5.746674530E1,1.785394831E3,-8.969448961E2
5.753227180E1,1.786597707E3,-8.975224075E2
5.759779831E1,1.786724176E3,-8.963121082E2
5.766332481E1,1.787126557E3,-8.968186433E2
5.772885132E1,1.787311871E3,-8.966643164E2
5.779437783E1,1.786670289E3,-8.982979581E2
5.785990433E1,1.786526654E3,-8.983210186E2
5.792543084E1,1.786284332E3,-8.991869283E2
5.799095734E1,1.787001020E3,-8.991582732E2
5.805648385E1,1.787784931E3,-8.990708936E2
5.812201035E1,1.786018986E3,-8.988256649E2
5.818753686E1,1.786317497E3,-8.982688168E2
5.825306336E1,1.787427223E3,-8.984814151E2
5.831858987E1,1.787208119E3,-8.982379785E2
5.838411638E1,1.786593394E3,-8.972942833E2
5.844964288E1,1.786626367E3,-8.971484185E2
5.851516939E1,1.786264424E3,-8.976308190E2
5.858069589E1,1.786243513E3,-8.981514015E2
5.864622240E1,1.785846138E3,-8.989468204E2
5.871174890E1,1.786150862E3,-8.982390016E2
5.877727541E1,1.787045603E3,-8.989791456E2
5.884280191E1,1.786206106E3,-8.993725475E2
5.890832842E1,1.785225165E3,-8.982183269E2
5.897385492E1,1.785083117E3,-8.982534376E2
5.903938143E1,1.785180985E3,-8.972960403E2
5.910490794E1,1.784162032E3,-8.970921188E2
5.917043444E1,1.782959416E3,-8.968891436E2
5.923596095E1,1.783325183E3,-8.951819870E2
5.930148745E1,1.783222926E3,-8.950939484E2
5.936701396E1,1.783317716E3,-8.951876804E2
5.943254046E1,1.783745544E3,-8.952825423E2
5.949806697E1,1.782321309E3,-8.936037766E2
5.956359347E1,1.781464314E3,-8.932085367E2
5.962911998E1,1.780355744E3,-8.922848078E2
5.969464648E1,1.779317485E3,-8.923297696E2
5.976017299E1,1.778532059E3,-8.931325993E2
5.982569950E1,1.777206980E3,-8.931384419E2
5.989122600E1,1.777415962E3,-8.941869138E2
5.995675251E1,1.778233601E3,-8.933604610E2
6.002227901E1,1.777530601E3,-8.931730997E2
6.008780552E1,1.776571884E3,-8.931089932E2
6.015333202E1,1.776232949E3,-8.931141971E2
6.021885853E1,1.777485931E3,-8.932812871E2
6.028438503E1,1.778275687E3,-8.931331443E2
6.034991154E1,1.777551636E3,-8.941618445E2
6.041543804E1,1.779271531E3,-8.932806889E2
6.048096455E1,1.779274712E3,-8.934416846E2
6.054649106E1,1.778143298E3,-8.929859080E2
6.061201756E1,1.778262526E3,-8.931943807E2
6.067754407E1,1.777343585E3,-8.940097157E2
6.074307057E1,1.778195183E3,-8.929590789E2
6.080859708E1,1.779163418E3,-8.931363092E2
6.087412358E1,1.778441626E3,-8.940793769E2
6.093965009E1,1.777437125E3,-8.941542525E2
6.100517659E1,1.778299731E3,-8.936241228E2
6.107070310E1,1.777052469E3,-8.937827656E2
6.113622960E1,1.776484653E3,-8.933915260E2
6.120175611E1,1.777437935E3,-8.932266350E2
6.126728262E1,1.778160549E3,-8.921486007E2
6.133280912E1,1.778460923E3,-8.923635383E2
6.139833563E1,1.776957980E3,-8.917858126E2
6.146386213E1,1.777129629E3,-8.910853206E2
6.152938864E1,1.778441658E3,-8.925870363E2
6.159491514E1,1.778183794E3,-8.921476796E2
6.166044165E1,1.777902742E3,-8.928085779E2
6.172596815E1,1.777340198E3,-8.923673378E2
6.179149466E1,1.778308894E3,-8.933045170E2
6.185702117E1,1.778290604E3,-8.951056237E2
6.192254767E1,1.778261028E3,-8.960668262E2
6.198807418E1,1.779206597E3,-8.954311719E2
6.205360068E1,1.779495392E3,-8.955538518E2
6.211912719E1,1.780138902E3,-8.951792144E2
6.218465369E1,1.780383137E3,-8.963408326E2
6.225018020E1,1.781163563E3,-8.974152977E2
6.231570670E1,1.780194312E3,-8.977774460E2
6.238123321E1,1.780618462E3,-8.983777521E2
6.244675971E1,1.780419751E3,-8.990319140E2
6.251228622E1,1.779322351E3,-8.991634659E2
6.257781273E1,1.779010671E3,-9.001602117E2
6.264333923E1,1.778391435E3,-9.001853068E2
6.270886574E1,1.778367156E3,-8.999969567E2
6.277439224E1,1.779297053E3,-8.985410624E2
6.283991875E1,1.778327467E3,-9.006188725E2
6.290544525E1,1.778932390E3,-9.001510302E2
6.297097176E1,1.778269974E3,-9.014528372E2
6.303649826E1,1.778689131E3,-9.015258014E2
6.310202477E1,1.779167193E3,-9.001291714E2
6.316755127E1,1.780216816E3,-9.002589391E2
6.323307778E1,1.779443159E3,-9.003316583E2
6.329860429E1,1.778966761E3,-8.999505273E2
6.336413079E1,1.780209092E3,-8.998149240E2
6.342965730E1,1.779616462E3,-9.003912130E2
6.349518380E1,1.779484814E3,-9.003689086E2
6.356071031E1,1.778537415E3,-9.006204041E2
6.362623681E1,1.777073600E3,-9.008054326E2
6.369176332E1,1.776364413E3,-9.013603891E2
6.375728982E1,1.776468428E3,-9.015223712E2
6.382281633E1,1.775443945E3,-9.032394666E2
6.388834283E1,1.775278810E3,-9.022598751E2
6.395386934E1,1.773959788E3,-9.026785302E2
6.401939585E1,1.773641182E3,-9.032262898E2
6.408492235E1,1.773411630E3,-9.051626846E2
6.415044886E1,1.773266349E3,-9.058644242E2
6.421597536E1,1.774264563E3,-9.053542161E2
6.428150187E1,1.773896278E3,-9.061094241E2
6.434702837E1,1.773335618E3,-9.059628903E2
6.441255488E1,1.774188128E3,-9.062571499E2
6.447808138E1,1.774093657E3,-9.060464500E2
6.454360789E1,1.772387896E3,-9.063476437E2
6.460913439E1,1.773205678E3,-9.062189012E2
6.467466090E1,1.772182975E3,-9.078082051E2
6.474018741E1,1.772490854E3,-9.082483651E2
6.480571391E1,1.773017919E3,-9.071837783E2
6.487124042E1,1.773115488E3,-9.063422887E2
6.493676692E1,1.772268626E3,-9.082474399E2
6.500229343E1,1.771570190E3,-9.091921765E2
6.506781993E1,1.772211250E3,-9.092136215E2
6.513334644E1,1.772518887E3,-9.094804706E2
6.519887294E1,1.773195271E3,-9.081878031E2
6.526439945E1,1.773455151E3,-9.083465856E2
6.532992596E1,1.773390155E3,-9.080201081E2
6.539545246E1,1.773729891E3,-9.084166413E2
6.546097897E1,1.773904752E3,-9.079974700E2
6.552650547E1,1.773365888E3,-9.079829586E2
6.559203198E1,1.774257451E3,-9.090205378E2
6.565755848E1,1.774412987E3,-9.101789522E2
6.572308499E1,1.773483691E3,-9.111556408E2
6.578861149E1,1.772929284E3,-9.108485204E2
6.585413800E1,1.773391841E3,-9.116629338E2
6.591966450E1,1.773178284E3,-9.120218411E2
6.598519101E1,1.772468572E3,-9.113672450E2
6.605071752E1,1.773371297E3,-9.111504521E2
6.611624402E1,1.773160199E3,-9.110157689E2
6.618177053E1,1.773051544E3,-9.117832386E2
6.624729703E1,1.772354545E3,-9.113267019E2
6.631282354E1,1.771201323E3,-9.111284235E2
6.637835004E1,1.771581672E3,-9.105259125E2
6.644387655E1,1.771321620E3,-9.094977592E2
6.650940305E1,1.771344457E3,-9.092612208E2
6.657492956E1,1.771223083E3,-9.107028200E2
6.664045606E1,1.771273486E3,-9.120523416E2
6.670598257E1,1.771244925E3,-9.121253761E2
6.677150908E1,1.771206293E3,-9.122520777E2
6.683703558E1,1.772184585E3,-9.127810944E2
6.690256209E1,1.772975805E3,-9.119527805E2
6.696808859E1,1.773907492E3,-9.121448921E2
6.703361510E1,1.773028190E3,-9.109591847E2
6.709914160E1,1.771165059E3,-9.110542293E2
6.716466811E1,1.770275153E3,-9.111193450E2
6.723019461E1,1.769340249E3,-9.111019354E2
6.729572112E1,1.769079047E3,-9.100561289E2
6.736124762E1,1.769269183E3,-9.110787733E2
6.742677413E1,1.770083013E3,-9.111221287E2
6.749230064E1,1.769217383E3,-9.107648240E2
6.755782714E1,1.768036083E3,-9.101771222E2
6.762335365E1,1.768188955E3,-9.091790843E2
6.768888015E1,1.768188357E3,-9.101203869E2
6.775440666E1,1.767338787E3,-9.108867522E2
6.781993316E1,1.767069240E3,-9.110131501E2
6.788545967E1,1.766256584E3,-9.112250071E2
6.795098617E1,1.765490285E3,-9.110758181E2
6.801651268E1,1.765201712E3,-9.111990264E2
6.808203918E1,1.765569846E3,-9.112608748E2
6.814756569E1,1.765797385E3,-9.109829252E2
6.821309220E1,1.765079240E3,-9.119989440E2
6.827861870E1,1.765481661E3,-9.112982553E2
6.834414521E1,1.765277106E3,-9.114457374E2
6.840967171E1,1.765192814E3,-9.113653666E2
6.847519822E1,1.764553647E3,-9.122587058E2
6.854072472E1,1.765028395E3,-9.112301720E2
6.860625123E1,1.764239535E3,-9.108979483E2
6.867177773E1,1.764226397E3,-9.114155836E2
6.873730424E1,1.763694083E3,-9.122141365E2
6.880283075E1,1.764303085E3,-9.117576237E2
6.886835725E1,1.764222929E3,-9.113533879E2
6.893388376E1,1.763395638E3,-9.120913927E2
6.899941026E1,1.763126063E3,-9.122423463E2
6.906493677E1,1.763181061E3,-9.137455342E2
6.913046327E1,1.764490025E3,-9.142169006E2
6.919598978E1,1.765253694E3,-9.130978812E2
6.926151628E1,1.766242097E3,-9.125793720E2
6.932704279E1,1.765468697E3,-9.130801630E2
6.939256929E1,1.765988777E3,-9.127010717E2
6.945809580E1,1.766062790E3,-9.120549859E2
6.952362231E1,1.765339007E3,-9.138621868E2
6.958914881E1,1.763936560E3,-9.138608593E2
6.965467532E1,1.764595867E3,-9.142926134E2
6.972020182E1,1.765387829E3,-9.141072481E2
6.978572833E1,1.766645800E3,-9.134338324E2
6.985125483E1,1.766251900E3,-9.134322319E2
6.991678134E1,1.766205240E3,-9.131529926E2
6.998230784E1,1.765686083E3,-9.136637195E2
7.004783435E1,1.766278523E3,-9.132268654E2
7.011336085E1,1.766315875E3,-9.135042532E2
7.017888736E1,1.765804700E3,-9.131145433E2
7.024441387E1,1.766395558E3,-9.134114453E2
7.030994037E1,1.767480033E3,-9.141218678E2
7.037546688E1,1.768230122E3,-9.134388892E2
7.044099338E1,1.769182235E3,-9.141205919E2
7.050651989E1,1.769094280E3,-9.147144086E2
7.057204639E1,1.769201015E3,-9.149168288E2
7.063757290E1,1.771326409E3,-9.143192910E2
7.070309940E1,1.770471127E3,-9.145429548E2
7.076862591E1,1.770512986E3,-9.154542659E2
7.083415241E1,1.770358062E3,-9.142196012E2
7.089967892E1,1.769575557E3,-9.143288534E2
7.096520543E1,1.768847792E3,-9.139299402E2
7.103073193E1,1.769224665E3,-9.134176734E2
7.109625844E1,1.768789100E3,-9.131142250E2
7.116178494E1,1.768130733E3,-9.139359124E2
7.122731145E1,1.768191726E3,-9.130962411E2
7.129283795E1,1.769307252E3,-9.134962193E2
7.135836446E1,1.769379855E3,-9.132536556E2
7.142389096E1,1.768778438E3,-9.137737295E2
7.148941747E1,1.768849647E3,-9.130112431E2
7.155494397E1,1.769543037E3,-9.123719706E2
7.162047048E1,1.769663647E3,-9.114995360E2
7.168599699E1,1.769663901E3,-9.122944050E2
7.175152349E1,1.769489197E3,-9.126205806E2
7.181705000E1,1.768866019E3,-9.129857906E2
7.188257650E1,1.769337930E3,-9.139989010E2
7.194810301E1,1.770038725E3,-9.140984879E2
7.201362951E1,1.769226450E3,-9.147562565E2
7.207915602E1,1.770005520E3,-9.148274368E2
7.214468252E1,1.769527147E3,-9.151626922E2
7.221020903E1,1.769804175E3,-9.138810275E2
7.227573554E1,1.769045389E3,-9.140675687E2
7.234126204E1,1.769319063E3,-9.125278914E2
7.240678855E1,1.770537031E3,-9.123078225E2
7.247231505E1,1.770356757E3,-9.122039767E2
7.253784156E1,1.769687920E3,-9.123531553E2
7.260336806E1,1.770548068E3,-9.123897042E2
7.266889457E1,1.769914500E3,-9.111220726E2
7.273442107E1,1.769233485E3,-9.111974088E2
7.279994758E1,1.769167275E3,-9.100137662E2
7.286547408E1,1.769221935E3,-9.091941191E2
7.293100059E1,1.769395473E3,-9.096159795E2
7.299652710E1,1.769349533E3,-9.096562639E2
7.306205360E1,1.769381484E3,-9.104329751E2
7.312758011E1,1.769600181E3,-9.105971028E2
7.319310661E1,1.770034194E3,-9.092212789E2
7.325863312E1,1.770368184E3,-9.103441708E2
7.332415962E1,1.770062463E3,-9.102242431E2
7.338968613E1,1.769280979E3,-9.097897025E2
7.345521263E1,1.769563234E3,-9.093882204E2
7.352073914E1,1.769914588E3,-9.100164073E2
7.358626564E1,1.769430229E3,-9.103637897E2
7.365179215E1,1.770027378E3,-9.100465077E2
7.371731866E1,1.771312179E3,-9.104205982E2
7.378284516E1,1.771315692E3,-9.113600724E2
7.384837167E1,1.771147071E3,-9.110476786E2
7.391389817E1,1.770295341E3,-9.119353224E2
7.397942468E1,1.771011430E3,-9.120581489E2
7.404495118E1,1.770204159E3,-9.120378021E2
7.411047769E1,1.769341184E3,-9.118323304E2
