mAd25
t,x,y
0.000000000E0,4.554089016E2,-5.555448367E2
6.562110375E-2,4.552458674E2,-5.552381717E2
1.312422075E-1,4.552123317E2,-5.554031324E2
1.968633112E-1,4.551776489E2,-5.554148085E2
2.624844150E-1,4.552626896E2,-5.555785600E2
3.281055187E-1,4.551296953E2,-5.556720527E2
3.937266225E-1,4.552660556E2,-5.556221602E2
4.593477262E-1,4.553763403E2,-5.556092494E2
5.249688300E-1,4.553445801E2,-5.555477265E2
5.905899337E-1,4.553370467E2,-5.555707841E2
6.562110375E-1,4.553555768E2,-5.555962831E2
7.218321412E-1,4.553946308E2,-5.557050506E2
7.874532450E-1,4.554599893E2,-5.558146462E2
8.530743487E-1,4.555546020E2,-5.559079072E2
9.186954525E-1,4.555337663E2,-5.559504758E2
9.843165562E-1,4.570927428E2,-5.575093181E2
1.049937660E0,4.577914643E2,-5.582907539E2
1.115558764E0,4.587411837E2,-5.586659775E2
1.181179867E0,4.593411683E2,-5.587795021E2
1.246800971E0,4.599201573E2,-5.598054659E2
1.312422075E0,4.608901429E2,-5.602260135E2
1.378043179E0,4.618774576E2,-5.597339767E2
1.443664282E0,4.631266121E2,-5.593796988E2
1.509285386E0,4.625100063E2,-5.587282971E2
1.574906490E0,4.612689128E2,-5.584297058E2
1.640527594E0,4.611816688E2,-5.593105477E2
1.706148697E0,4.601520188E2,-5.599215854E2
1.771769801E0,4.599336185E2,-5.603828341E2
1.837390905E0,4.604316422E2,-5.610608295E2
1.903012009E0,4.607890758E2,-5.614054314E2
1.968633112E0,4.604619036E2,-5.611845053E2
2.034254216E0,4.600204963E2,-5.614769203E2
2.099875320E0,4.601152391E2,-5.625412169E2
2.165496424E0,4.589827369E2,-5.623327997E2
2.231117527E0,4.581304178E2,-5.621300535E2
2.296738631E0,4.582235620E2,-5.630140619E2
2.362359735E0,4.572236159E2,-5.639695527E2
2.427980839E0,4.574830623E2,-5.634887105E2
2.493601942E0,4.567075068E2,-5.642145991E2
2.559223046E0,4.550579021E2,-5.638209882E2
2.624844150E0,4.547420511E2,-5.633412562E2
2.690465254E0,4.551506499E2,-5.635040761E2
2.756086357E0,4.546075475E2,-5.633032189E2
2.821707461E0,4.543290927E2,-5.628937633E2
2.887328565E0,4.545808134E2,-5.628028602E2
2.952949669E0,4.547122575E2,-5.633014033E2
3.018570772E0,4.543080287E2,-5.633805209E2
3.084191876E0,4.543739645E2,-5.621730119E2
3.149812980E0,4.542846108E2,-5.624087410E2
3.215434084E0,4.544120101E2,-5.623692190E2
3.281055187E0,4.523443903E2,-5.605757170E2
3.346676291E0,4.509912527E2,-5.599144339E2
3.412297395E0,4.515836121E2,-5.605081343E2
3.477918499E0,4.530312249E2,-5.610712535E2
3.543539602E0,4.529738923E2,-5.617226994E2
3.609160706E0,4.533471884E2,-5.603066154E2
3.674781810E0,4.541437343E2,-5.611649337E2
3.740402914E0,4.537816424E2,-5.623794784E2
3.806024017E0,4.537132434E2,-5.628146541E2
3.871645121E0,4.550358816E2,-5.630801166E2
3.937266225E0,4.548724327E2,-5.638790519E2
4.002887329E0,4.542141124E2,-5.646472865E2
4.068508432E0,4.539619585E2,-5.662303263E2
4.134129536E0,4.540260578E2,-5.685047985E2
4.199750640E0,4.530158180E2,-5.684199997E2
4.265371744E0,4.534790995E2,-5.687144855E2
4.330992847E0,4.535384573E2,-5.694669424E2
4.396613951E0,4.523975727E2,-5.708068628E2
4.462235055E0,4.527084142E2,-5.703064278E2
4.527856159E0,4.525618081E2,-5.691213857E2
4.593477262E0,4.528681680E2,-5.697413761E2
4.659098366E0,4.516994135E2,-5.704378486E2
4.724719470E0,4.508290313E2,-5.705577409E2
4.790340574E0,4.516257377E2,-5.701854229E2
4.855961677E0,4.523072224E2,-5.694629688E2
4.921582781E0,4.515299662E2,-5.693725999E2
4.987203885E0,4.510239344E2,-5.687516782E2
5.052824989E0,4.522904984E2,-5.693169388E2
5.118446092E0,4.532444860E2,-5.695739139E2
5.184067196E0,4.538237083E2,-5.687986229E2
5.249688300E0,4.536668659E2,-5.683593259E2
5.315309404E0,4.545063556E2,-5.673894899E2
5.380930507E0,4.554111484E2,-5.656469228E2
5.446551611E0,4.561221033E2,-5.664777405E2
5.512172715E0,4.567696583E2,-5.664738432E2
5.577793818E0,4.564427853E2,-5.672211727E2
5.643414922E0,4.571100085E2,-5.656572681E2
5.709036026E0,4.573407674E2,-5.651357022E2
5.774657130E0,4.572287534E2,-5.644788851E2
5.840278233E0,4.570032712E2,-5.644308833E2
5.905899337E0,4.569431132E2,-5.653610480E2
5.971520441E0,4.577991981E2,-5.641399789E2
6.037141545E0,4.583834787E2,-5.634071845E2
6.102762648E0,4.593967679E2,-5.631740410E2
6.168383752E0,4.599459679E2,-5.631394772E2
6.234004856E0,4.593458611E2,-5.639107225E2
6.299625960E0,4.599812553E2,-5.634859823E2
6.365247063E0,4.605330597E2,-5.625901527E2
6.430868167E0,4.602428150E2,-5.614848402E2
6.496489271E0,4.610099951E2,-5.617963536E2
6.562110375E0,4.611832994E2,-5.616205424E2
6.627731478E0,4.604576743E2,-5.624463376E2
6.693352582E0,4.605131958E2,-5.636782835E2
6.758973686E0,4.607694494E2,-5.657116846E2
6.824594790E0,4.618140714E2,-5.666929571E2
6.890215893E0,4.620609737E2,-5.664671398E2
6.955836997E0,4.618774766E2,-5.647029570E2
7.021458101E0,4.626511756E2,-5.633845535E2
7.087079205E0,4.620241754E2,-5.624733963E2
7.152700308E0,4.620100753E2,-5.630258760E2
7.218321412E0,4.619657863E2,-5.635559856E2
7.283942516E0,4.620794358E2,-5.635498409E2
7.349563620E0,4.618385711E2,-5.626702050E2
7.415184723E0,4.610154185E2,-5.634299794E2
7.480805827E0,4.607920685E2,-5.647493579E2
7.546426931E0,4.619084085E2,-5.651352038E2
7.612048035E0,4.625058287E2,-5.657949608E2
7.677669138E0,4.631230548E2,-5.666338660E2
7.743290242E0,4.641607740E2,-5.664065025E2
7.808911346E0,4.649095984E2,-5.661969412E2
7.874532450E0,4.659614332E2,-5.657622033E2
7.940153553E0,4.646103433E2,-5.657408732E2
8.005774657E0,4.633052861E2,-5.649001624E2
8.071395761E0,4.640803458E2,-5.652803111E2
8.137016865E0,4.632308628E2,-5.637287595E2
8.202637968E0,4.632563543E2,-5.638700402E2
8.268259072E0,4.648017787E2,-5.636284171E2
8.333880176E0,4.642048831E2,-5.637385719E2
8.399501280E0,4.638963976E2,-5.633276059E2
8.465122383E0,4.652446110E2,-5.639050203E2
8.530743487E0,4.648006092E2,-5.646579875E2
8.596364591E0,4.643530074E2,-5.638611627E2
8.661985695E0,4.650126778E2,-5.628269157E2
8.727606798E0,4.645550038E2,-5.634695589E2
8.793227902E0,4.637677493E2,-5.637902943E2
8.858849006E0,4.643463245E2,-5.633742032E2
8.924470110E0,4.658220426E2,-5.635095421E2
8.990091213E0,4.661625764E2,-5.641824025E2
9.055712317E0,4.659075303E2,-5.644183595E2
9.121333421E0,4.664239120E2,-5.644319232E2
9.186954525E0,4.664348968E2,-5.637587152E2
9.252575628E0,4.663339790E2,-5.627506192E2
9.318196732E0,4.661198237E2,-5.631760067E2
9.383817836E0,4.660880260E2,-5.639804818E2
9.449438940E0,4.670716692E2,-5.636069118E2
9.515060043E0,4.670929263E2,-5.635617391E2
9.580681147E0,4.668024961E2,-5.641616880E2
9.646302251E0,4.661560557E2,-5.640163935E2
9.711923355E0,4.655909134E2,-5.634438874E2
9.777544458E0,4.662746797E2,-5.617241399E2
9.843165562E0,4.662702738E2,-5.606814897E2
9.908786666E0,4.672937083E2,-5.601797831E2
9.974407770E0,4.678625459E2,-5.599031601E2
1.004002887E1,4.667526632E2,-5.599514173E2
1.010564998E1,4.660273329E2,-5.608009806E2
1.017127108E1,4.651101341E2,-5.609912525E2
1.023689218E1,4.650379692E2,-5.606826641E2
1.030251329E1,4.648641566E2,-5.612121834E2
1.036813439E1,4.644681141E2,-5.614192899E2
1.043375550E1,4.645856776E2,-5.615575821E2
1.049937660E1,4.638314628E2,-5.615118825E2
1.056499770E1,4.634266930E2,-5.594258633E2
1.063061881E1,4.636267458E2,-5.583182654E2
1.069623991E1,4.642577142E2,-5.591950552E2
1.076186101E1,4.634068063E2,-5.601718023E2
1.082748212E1,4.645183202E2,-5.593204475E2
1.089310322E1,4.641187216E2,-5.575518740E2
1.095872433E1,4.648990339E2,-5.552448345E2
1.102434543E1,4.659154213E2,-5.561993714E2
1.108996653E1,4.660919395E2,-5.537043366E2
1.115558764E1,4.661638709E2,-5.531997364E2
1.122120874E1,4.671672188E2,-5.533265895E2
1.128682984E1,4.671947360E2,-5.542603675E2
1.135245095E1,4.681704516E2,-5.543508191E2
1.141807205E1,4.690122814E2,-5.544802252E2
1.148369316E1,4.699745778E2,-5.536022326E2
1.154931426E1,4.701225280E2,-5.534640415E2
1.161493536E1,4.709621645E2,-5.543304137E2
1.168055647E1,4.707092253E2,-5.539382466E2
1.174617757E1,4.697904475E2,-5.555928960E2
1.181179867E1,4.709760646E2,-5.556207805E2
1.187741978E1,4.719938206E2,-5.544595575E2
1.194304088E1,4.729003165E2,-5.553983228E2
1.200866199E1,4.732353378E2,-5.550303214E2
1.207428309E1,4.726517128E2,-5.542889279E2
1.213990419E1,4.727042108E2,-5.544732233E2
1.220552530E1,4.713816916E2,-5.544073249E2
1.227114640E1,4.691748618E2,-5.538617945E2
1.233676750E1,4.688602243E2,-5.528535317E2
1.240238861E1,4.699710177E2,-5.522830873E2
1.246800971E1,4.692203076E2,-5.519723152E2
1.253363082E1,4.695951716E2,-5.526739644E2
1.259925192E1,4.714977569E2,-5.523096937E2
1.266487302E1,4.715496898E2,-5.515953109E2
1.273049413E1,4.715488683E2,-5.514918754E2
1.279611523E1,4.710525087E2,-5.516499863E2
1.286173633E1,4.704186598E2,-5.529007053E2
1.292735744E1,4.702492262E2,-5.530955847E2
1.299297854E1,4.700505393E2,-5.524523844E2
1.305859965E1,4.700272339E2,-5.527649996E2
1.312422075E1,4.700510316E2,-5.540689197E2
1.318984185E1,4.694118255E2,-5.535918245E2
1.325546296E1,4.686610908E2,-5.524962451E2
1.332108406E1,4.705736608E2,-5.513551710E2
1.338670516E1,4.713591578E2,-5.495092506E2
1.345232627E1,4.712214897E2,-5.509603147E2
1.351794737E1,4.695033921E2,-5.510714993E2
1.358356848E1,4.693797640E2,-5.514911564E2
1.364918958E1,4.684305239E2,-5.517335032E2
1.371481068E1,4.682952006E2,-5.527392493E2
1.378043179E1,4.692539878E2,-5.537337758E2
1.384605289E1,4.700212558E2,-5.541928380E2
1.391167399E1,4.697800449E2,-5.535279863E2
1.397729510E1,4.685745203E2,-5.534339462E2
1.404291620E1,4.686877854E2,-5.535564688E2
1.410853731E1,4.678431775E2,-5.534086167E2
1.417415841E1,4.682274553E2,-5.524886537E2
1.423977951E1,4.682779750E2,-5.525382335E2
1.430540062E1,4.682631542E2,-5.516812025E2
1.437102172E1,4.679061783E2,-5.513012068E2
1.443664282E1,4.682927727E2,-5.507918530E2
1.450226393E1,4.679210734E2,-5.511813749E2
1.456788503E1,4.660196356E2,-5.503632966E2
1.463350614E1,4.653260467E2,-5.490199725E2
1.469912724E1,4.649519011E2,-5.491390176E2
1.476474834E1,4.647453612E2,-5.489535525E2
1.483036945E1,4.652321738E2,-5.493986229E2
1.489599055E1,4.650594741E2,-5.495940546E2
1.496161165E1,4.651347166E2,-5.500356409E2
1.502723276E1,4.659262344E2,-5.503799043E2
1.509285386E1,4.667095873E2,-5.505184484E2
1.515847497E1,4.660821735E2,-5.506083105E2
1.522409607E1,4.666419049E2,-5.506487610E2
1.528971717E1,4.673993836E2,-5.500596615E2
1.535533828E1,4.678433369E2,-5.490683513E2
1.542095938E1,4.675720818E2,-5.490026478E2
1.548658048E1,4.671729424E2,-5.485306853E2
1.555220159E1,4.679237345E2,-5.480882460E2
1.561782269E1,4.682307708E2,-5.475500097E2
1.568344380E1,4.683621336E2,-5.475574205E2
1.574906490E1,4.672197194E2,-5.475588786E2
1.581468600E1,4.666868812E2,-5.471860371E2
1.588030711E1,4.647116629E2,-5.466167034E2
1.594592821E1,4.638713611E2,-5.463731793E2
1.601154931E1,4.639423511E2,-5.465239497E2
1.607717042E1,4.639052808E2,-5.446877401E2
1.614279152E1,4.639065690E2,-5.453895179E2
1.620841263E1,4.632040148E2,-5.451586355E2
1.627403373E1,4.628431182E2,-5.457021758E2
1.633965483E1,4.636664179E2,-5.449843493E2
1.640527594E1,4.659514274E2,-5.458921230E2
1.647089704E1,4.670575516E2,-5.455357671E2
1.653651814E1,4.670093141E2,-5.447045791E2
1.660213925E1,4.666237309E2,-5.462471629E2
1.666776035E1,4.663141228E2,-5.462421520E2
1.673338146E1,4.650610424E2,-5.450423750E2
1.679900256E1,4.660680236E2,-5.461845220E2
1.686462366E1,4.667626055E2,-5.459472780E2
1.693024477E1,4.673715047E2,-5.456697686E2
1.699586587E1,4.671151714E2,-5.437394587E2
1.706148697E1,4.669074835E2,-5.436921019E2
1.712710808E1,4.665522161E2,-5.434946931E2
1.719272918E1,4.672035653E2,-5.454352648E2
1.725835029E1,4.672745602E2,-5.471655931E2
1.732397139E1,4.679695591E2,-5.487329356E2
1.738959249E1,4.674831700E2,-5.497383746E2
1.745521360E1,4.679790939E2,-5.506714906E2
1.752083470E1,4.684364066E2,-5.506092001E2
1.758645580E1,4.692121702E2,-5.505549728E2
1.765207691E1,4.707932184E2,-5.506200304E2
1.771769801E1,4.709653787E2,-5.508981673E2
1.778331912E1,4.712186546E2,-5.512312079E2
1.784894022E1,4.717402065E2,-5.517524224E2
1.791456132E1,4.723171637E2,-5.509979579E2
1.798018243E1,4.719913612E2,-5.517509914E2
1.804580353E1,4.712991737E2,-5.514318298E2
1.811142463E1,4.693076779E2,-5.507007677E2
1.817704574E1,4.685253825E2,-5.505342509E2
1.824266684E1,4.685105573E2,-5.496188472E2
1.830828795E1,4.680548242E2,-5.499656938E2
1.837390905E1,4.687638683E2,-5.491941481E2
1.843953015E1,4.682642525E2,-5.484915448E2
1.850515126E1,4.681963409E2,-5.487418753E2
1.857077236E1,4.684940798E2,-5.483844077E2
1.863639346E1,4.692325113E2,-5.485770501E2
1.870201457E1,4.682792197E2,-5.482073697E2
1.876763567E1,4.689463900E2,-5.478765061E2
1.883325678E1,4.680862059E2,-5.485230835E2
1.889887788E1,4.670856723E2,-5.475199353E2
1.896449898E1,4.668265299E2,-5.475501330E2
1.903012009E1,4.663019536E2,-5.485835986E2
1.909574119E1,4.670210084E2,-5.492094266E2
1.916136229E1,4.672375566E2,-5.477732663E2
1.922698340E1,4.672909762E2,-5.467922217E2
1.929260450E1,4.650698930E2,-5.449610693E2
1.935822561E1,4.661058744E2,-5.434200856E2
1.942384671E1,4.656277282E2,-5.438147576E2
1.948946781E1,4.649151089E2,-5.438600841E2
1.955508892E1,4.651027424E2,-5.443370652E2
1.962071002E1,4.637501355E2,-5.443983048E2
1.968633112E1,4.630618611E2,-5.439388049E2
1.975195223E1,4.629090579E2,-5.432665105E2
1.981757333E1,4.644314229E2,-5.424480908E2
1.988319444E1,4.647327881E2,-5.427104281E2
1.994881554E1,4.648458191E2,-5.427824209E2
2.001443664E1,4.653014769E2,-5.420664409E2
2.008005775E1,4.652720426E2,-5.414544760E2
2.014567885E1,4.654828699E2,-5.422237084E2
2.021129995E1,4.658314119E2,-5.433834071E2
2.027692106E1,4.653840021E2,-5.426100352E2
2.034254216E1,4.659265786E2,-5.430293707E2
2.040816327E1,4.659060979E2,-5.415284018E2
2.047378437E1,4.661066111E2,-5.405652975E2
2.053940547E1,4.656465520E2,-5.399239760E2
2.060502658E1,4.652125602E2,-5.400596748E2
2.067064768E1,4.653992119E2,-5.404579513E2
2.073626878E1,4.646836820E2,-5.403657541E2
2.080188989E1,4.633411297E2,-5.406273927E2
2.086751099E1,4.644894445E2,-5.396530589E2
2.093313210E1,4.659347922E2,-5.396642177E2
2.099875320E1,4.661982613E2,-5.392084776E2
2.106437430E1,4.645804316E2,-5.395269898E2
2.112999541E1,4.627584219E2,-5.404859791E2
2.119561651E1,4.630228675E2,-5.414233388E2
2.126123761E1,4.624661603E2,-5.413124057E2
2.132685872E1,4.638083030E2,-5.417304938E2
2.139247982E1,4.646637075E2,-5.416992235E2
2.145810093E1,4.655261437E2,-5.422614637E2
2.152372203E1,4.652874399E2,-5.425262093E2
2.158934313E1,4.656467426E2,-5.429095727E2
2.165496424E1,4.661040151E2,-5.430822743E2
2.172058534E1,4.663237568E2,-5.403367912E2
2.178620644E1,4.667728753E2,-5.390129348E2
2.185182755E1,4.676339250E2,-5.396086942E2
2.191744865E1,4.691407831E2,-5.391242778E2
2.198306976E1,4.692752559E2,-5.383424843E2
2.204869086E1,4.694465163E2,-5.367517841E2
2.211431196E1,4.692773812E2,-5.354840382E2
2.217993307E1,4.699325767E2,-5.334762323E2
2.224555417E1,4.699226726E2,-5.336066857E2
2.231117527E1,4.717000165E2,-5.334237682E2
2.237679638E1,4.708358993E2,-5.331292309E2
2.244241748E1,4.692906026E2,-5.316897611E2
2.250803859E1,4.697444504E2,-5.332289975E2
2.257365969E1,4.685892635E2,-5.325788483E2
2.263928079E1,4.679801166E2,-5.326742643E2
2.270490190E1,4.670141218E2,-5.330999347E2
2.277052300E1,4.676784036E2,-5.325980305E2
2.283614410E1,4.683113769E2,-5.319820340E2
2.290176521E1,4.681545796E2,-5.321533904E2
2.296738631E1,4.668177883E2,-5.333979405E2
2.303300742E1,4.657810676E2,-5.342860317E2
2.309862852E1,4.670122157E2,-5.360714904E2
2.316424962E1,4.672104918E2,-5.366152822E2
2.322987073E1,4.665961295E2,-5.356257584E2
2.329549183E1,4.648656484E2,-5.354713603E2
2.336111293E1,4.639617396E2,-5.358790176E2
2.342673404E1,4.643926211E2,-5.372330259E2
2.349235514E1,4.631052327E2,-5.378294124E2
2.355797625E1,4.634737149E2,-5.366862772E2
2.362359735E1,4.631039247E2,-5.344498336E2
2.368921845E1,4.630989708E2,-5.334362279E2
2.375483956E1,4.622952640E2,-5.338325999E2
2.382046066E1,4.628146011E2,-5.346977777E2
2.388608176E1,4.643628148E2,-5.345965079E2
2.395170287E1,4.641444473E2,-5.340200787E2
2.401732397E1,4.649156720E2,-5.324898352E2
2.408294508E1,4.643086901E2,-5.324414598E2
2.414856618E1,4.644855633E2,-5.325292963E2
2.421418728E1,4.657627195E2,-5.337940622E2
2.427980839E1,4.671034627E2,-5.333869934E2
2.434542949E1,4.672163836E2,-5.332104563E2
2.441105059E1,4.668659144E2,-5.326611966E2
2.447667170E1,4.665755024E2,-5.331426655E2
2.454229280E1,4.673732802E2,-5.335890170E2
2.460791391E1,4.686087465E2,-5.342195909E2
2.467353501E1,4.684616474E2,-5.354906518E2
2.473915611E1,4.681225274E2,-5.345402932E2
2.480477722E1,4.671810677E2,-5.343422918E2
2.487039832E1,4.668407709E2,-5.347229045E2
2.493601942E1,4.659499771E2,-5.356289652E2
2.500164053E1,4.645102414E2,-5.365052019E2
2.506726163E1,4.649986900E2,-5.363419864E2
2.513288274E1,4.654610965E2,-5.350255680E2
2.519850384E1,4.650772342E2,-5.352446208E2
2.526412494E1,4.640979071E2,-5.336842204E2
2.532974605E1,4.637240010E2,-5.338024149E2
2.539536715E1,4.636528459E2,-5.344088787E2
2.546098825E1,4.641370241E2,-5.347144180E2
2.552660936E1,4.632034356E2,-5.343109746E2
2.559223046E1,4.631256019E2,-5.343696065E2
2.565785157E1,4.637202515E2,-5.344567560E2
2.572347267E1,4.638292898E2,-5.348442097E2
2.578909377E1,4.631877281E2,-5.335848894E2
2.585471488E1,4.631353298E2,-5.333472354E2
2.592033598E1,4.615910227E2,-5.324962075E2
2.598595708E1,4.618756029E2,-5.309076511E2
2.605157819E1,4.612342461E2,-5.309701534E2
2.611719929E1,4.595822219E2,-5.304490110E2
2.618282040E1,4.601520026E2,-5.297385685E2
2.624844150E1,4.599582608E2,-5.304985755E2
2.631406260E1,4.597804331E2,-5.317772657E2
2.637968371E1,4.601878801E2,-5.328202976E2
2.644530481E1,4.601286265E2,-5.322223716E2
2.651092591E1,4.604359946E2,-5.317262104E2
2.657654702E1,4.608550429E2,-5.315484892E2
2.664216812E1,4.611574930E2,-5.307667436E2
2.670778923E1,4.616509481E2,-5.285276279E2
2.677341033E1,4.610476824E2,-5.286250812E2
2.683903143E1,4.613646507E2,-5.295186164E2
2.690465254E1,4.603693093E2,-5.303488453E2
2.697027364E1,4.619788128E2,-5.302386358E2
2.703589474E1,4.620449538E2,-5.313661546E2
2.710151585E1,4.615435694E2,-5.315468758E2
2.716713695E1,4.621061716E2,-5.311511072E2
2.723275805E1,4.630276975E2,-5.303355988E2
2.729837916E1,4.630370320E2,-5.299017427E2
2.736400026E1,4.629375575E2,-5.294032286E2
2.742962137E1,4.635123130E2,-5.296958857E2
2.749524247E1,4.637430635E2,-5.292635214E2
2.756086357E1,4.634130644E2,-5.283526675E2
2.762648468E1,4.641445522E2,-5.276872738E2
2.769210578E1,4.639553111E2,-5.284048402E2
2.775772688E1,4.639829022E2,-5.286347957E2
2.782334799E1,4.635008448E2,-5.282276133E2
2.788896909E1,4.637813848E2,-5.282622341E2
2.795459020E1,4.642139870E2,-5.283297461E2
2.802021130E1,4.645204072E2,-5.281827119E2
2.808583240E1,4.640680802E2,-5.279353271E2
2.815145351E1,4.629395688E2,-5.259299400E2
2.821707461E1,4.629132403E2,-5.258953543E2
2.828269571E1,4.640450908E2,-5.255172089E2
2.834831682E1,4.650680355E2,-5.243069614E2
2.841393792E1,4.645375405E2,-5.236527465E2
2.847955903E1,4.650099533E2,-5.231101670E2
2.854518013E1,4.658598026E2,-5.232478711E2
2.861080123E1,4.654645449E2,-5.239424865E2
2.867642234E1,4.669920676E2,-5.249699003E2
2.874204344E1,4.684559583E2,-5.232444425E2
2.880766454E1,4.697508237E2,-5.223084585E2
2.887328565E1,4.699491562E2,-5.223163435E2
2.893890675E1,4.693216036E2,-5.226998215E2
2.900452786E1,4.689750667E2,-5.237225866E2
2.907014896E1,4.680780481E2,-5.238923801E2
2.913577006E1,4.658003467E2,-5.235512691E2
2.920139117E1,4.652732650E2,-5.233583568E2
2.926701227E1,4.650329728E2,-5.224512408E2
2.933263337E1,4.642812148E2,-5.217797808E2
2.939825448E1,4.642282204E2,-5.213143850E2
2.946387558E1,4.634464355E2,-5.208887321E2
2.952949669E1,4.640185008E2,-5.210981286E2
2.959511779E1,4.619390489E2,-5.211631686E2
2.966073889E1,4.629058914E2,-5.212590013E2
2.972636000E1,4.619790848E2,-5.212038112E2
2.979198110E1,4.619447796E2,-5.213528739E2
2.985760220E1,4.600205239E2,-5.216298070E2
2.992322331E1,4.597030937E2,-5.207782115E2
2.998884441E1,4.601289305E2,-5.205321446E2
3.005446552E1,4.592677344E2,-5.214149862E2
3.012008662E1,4.592054320E2,-5.205141277E2
3.018570772E1,4.589468279E2,-5.194378415E2
3.025132883E1,4.593846962E2,-5.203370681E2
3.031694993E1,4.590303986E2,-5.201079683E2
3.038257103E1,4.588381051E2,-5.200879224E2
3.044819214E1,4.591414582E2,-5.197279155E2
3.051381324E1,4.603695378E2,-5.201459909E2
3.057943435E1,4.596346995E2,-5.188929661E2
3.064505545E1,4.600797633E2,-5.183873039E2
3.071067655E1,4.598471613E2,-5.183777183E2
3.077629766E1,4.599415419E2,-5.191523030E2
3.084191876E1,4.592133485E2,-5.197351531E2
3.090753986E1,4.589341736E2,-5.194023582E2
3.097316097E1,4.589514811E2,-5.194305815E2
3.103878207E1,4.599120226E2,-5.187169756E2
3.110440318E1,4.611552336E2,-5.188844079E2
3.117002428E1,4.619008768E2,-5.191435291E2
3.123564538E1,4.614570418E2,-5.192379848E2
3.130126649E1,4.623004753E2,-5.200521553E2
3.136688759E1,4.635999385E2,-5.194850634E2
3.143250869E1,4.631095961E2,-5.189881009E2
3.149812980E1,4.632427418E2,-5.196607281E2
3.156375090E1,4.635095386E2,-5.211828071E2
3.162937201E1,4.637707720E2,-5.223119615E2
3.169499311E1,4.632232988E2,-5.235049914E2
3.176061421E1,4.625130565E2,-5.237807018E2
3.182623532E1,4.613476995E2,-5.241118099E2
3.189185642E1,4.613619750E2,-5.239197064E2
3.195747752E1,4.600999342E2,-5.244121836E2
3.202309863E1,4.591842251E2,-5.236470048E2
3.208871973E1,4.595813142E2,-5.225487203E2
3.215434084E1,4.596551398E2,-5.228419302E2
3.221996194E1,4.605486561E2,-5.216102055E2
3.228558304E1,4.613126759E2,-5.218262677E2
3.235120415E1,4.622584775E2,-5.225432805E2
3.241682525E1,4.622357942E2,-5.230967098E2
3.248244635E1,4.624469610E2,-5.235717148E2
3.254806746E1,4.630915371E2,-5.240319077E2
3.261368856E1,4.634022489E2,-5.239338632E2
3.267930967E1,4.630628661E2,-5.247721480E2
3.274493077E1,4.629078645E2,-5.253964410E2
3.281055187E1,4.618899111E2,-5.256200496E2
3.287617298E1,4.608829621E2,-5.259237351E2
3.294179408E1,4.606348224E2,-5.262598330E2
3.300741518E1,4.612494412E2,-5.257860794E2
3.307303629E1,4.622528852E2,-5.258005234E2
3.313865739E1,4.627893320E2,-5.258956788E2
3.320427850E1,4.626169829E2,-5.254109103E2
3.326989960E1,4.619001016E2,-5.253230433E2
3.333552070E1,4.611755902E2,-5.261839052E2
3.340114181E1,4.604533944E2,-5.256728808E2
3.346676291E1,4.606481767E2,-5.250968721E2
3.353238401E1,4.608264685E2,-5.251929367E2
3.359800512E1,4.607922606E2,-5.256829019E2
3.366362622E1,4.611357474E2,-5.258299578E2
3.372924733E1,4.617901428E2,-5.248659061E2
3.379486843E1,4.616496969E2,-5.252897335E2
3.386048953E1,4.611474353E2,-5.256854714E2
3.392611064E1,4.607369498E2,-5.251468457E2
3.399173174E1,4.609410341E2,-5.242104725E2
3.405735284E1,4.610854046E2,-5.248474454E2
3.412297395E1,4.606946260E2,-5.254372657E2
3.418859505E1,4.602606933E2,-5.253660506E2
3.425421616E1,4.594585529E2,-5.248220118E2
3.431983726E1,4.590541316E2,-5.243927299E2
3.438545836E1,4.598096518E2,-5.242004331E2
3.445107947E1,4.593632888E2,-5.228758522E2
3.451670057E1,4.601831045E2,-5.221452965E2
3.458232167E1,4.609153793E2,-5.220403583E2
3.464794278E1,4.601530489E2,-5.206737548E2
3.471356388E1,4.596412351E2,-5.193287658E2
3.477918499E1,4.582088351E2,-5.189813312E2
3.484480609E1,4.589168677E2,-5.207168157E2
3.491042719E1,4.599879027E2,-5.204442488E2
3.497604830E1,4.611017003E2,-5.204866623E2
3.504166940E1,4.608585424E2,-5.204868767E2
3.510729050E1,4.610514066E2,-5.210940493E2
3.517291161E1,4.613853350E2,-5.222719909E2
3.523853271E1,4.616687608E2,-5.234370108E2
3.530415382E1,4.619382381E2,-5.238024056E2
3.536977492E1,4.609374906E2,-5.237129970E2
3.543539602E1,4.600990882E2,-5.247792338E2
3.550101713E1,4.616331535E2,-5.254182715E2
3.556663823E1,4.621518681E2,-5.249866752E2
3.563225933E1,4.621634446E2,-5.241173081E2
3.569788044E1,4.610072952E2,-5.247235873E2
3.576350154E1,4.603824117E2,-5.251825268E2
3.582912265E1,4.599663149E2,-5.256037394E2
3.589474375E1,4.607784458E2,-5.262843632E2
3.596036485E1,4.614744417E2,-5.260315037E2
3.602598596E1,4.621587304E2,-5.259272319E2
3.609160706E1,4.641054588E2,-5.260780450E2
3.615722816E1,4.647392381E2,-5.245774015E2
3.622284927E1,4.642647030E2,-5.245503837E2
3.628847037E1,4.656001591E2,-5.257177558E2
3.635409148E1,4.669068723E2,-5.266691935E2
3.641971258E1,4.679874232E2,-5.263228587E2
3.648533368E1,4.693310634E2,-5.259884494E2
3.655095479E1,4.690286427E2,-5.266470753E2
3.661657589E1,4.691520003E2,-5.261141306E2
3.668219699E1,4.690821340E2,-5.260452078E2
3.674781810E1,4.706610718E2,-5.256504894E2
3.681343920E1,4.705632444E2,-5.247932605E2
3.687906031E1,4.696884873E2,-5.245081395E2
3.694468141E1,4.692306738E2,-5.242246101E2
3.701030251E1,4.700451820E2,-5.238282866E2
3.707592362E1,4.702418271E2,-5.238854177E2
3.714154472E1,4.692998280E2,-5.233599860E2
3.720716582E1,4.692721173E2,-5.236617002E2
3.727278693E1,4.694039387E2,-5.235566560E2
3.733840803E1,4.711680967E2,-5.232801339E2
3.740402914E1,4.708795061E2,-5.222482041E2
3.746965024E1,4.691730477E2,-5.214928566E2
3.753527134E1,4.685916813E2,-5.223381265E2
3.760089245E1,4.691617655E2,-5.215932476E2
3.766651355E1,4.696640151E2,-5.226726649E2
3.773213465E1,4.693235865E2,-5.234689721E2
3.779775576E1,4.670197097E2,-5.238579245E2
3.786337686E1,4.683270238E2,-5.234723618E2
3.792899797E1,4.692423619E2,-5.232888850E2
3.799461907E1,4.698112799E2,-5.231325387E2
3.806024017E1,4.698622411E2,-5.222615484E2
3.812586128E1,4.716712930E2,-5.222910464E2
3.819148238E1,4.724814070E2,-5.233370744E2
3.825710348E1,4.707446981E2,-5.238457859E2
3.832272459E1,4.703982226E2,-5.242816282E2
3.838834569E1,4.708370547E2,-5.238640502E2
3.845396680E1,4.704819972E2,-5.229833558E2
3.851958790E1,4.706819200E2,-5.228774151E2
3.858520900E1,4.711030871E2,-5.217531842E2
3.865083011E1,4.708033339E2,-5.228491117E2
3.871645121E1,4.710366444E2,-5.238777265E2
3.878207231E1,4.703337122E2,-5.248301507E2
3.884769342E1,4.706376752E2,-5.244090496E2
3.891331452E1,4.711444249E2,-5.234475158E2
3.897893563E1,4.707862739E2,-5.226093466E2
3.904455673E1,4.703392497E2,-5.230300001E2
3.911017783E1,4.710872598E2,-5.239540729E2
3.917579894E1,4.709520654E2,-5.243071981E2
3.924142004E1,4.707130436E2,-5.243656130E2
3.930704114E1,4.710309082E2,-5.234787532E2
3.937266225E1,4.712311106E2,-5.236255411E2
3.943828335E1,4.715255793E2,-5.234601025E2
3.950390446E1,4.709239781E2,-5.232084218E2
3.956952556E1,4.705691937E2,-5.221482729E2
3.963514666E1,4.698455893E2,-5.214281583E2
3.970076777E1,4.686836057E2,-5.217378888E2
3.976638887E1,4.678471620E2,-5.218140690E2
3.983200997E1,4.686614092E2,-5.213823186E2
3.989763108E1,4.693634864E2,-5.217374287E2
3.996325218E1,4.701031322E2,-5.220396505E2
4.002887329E1,4.707730350E2,-5.214021515E2
4.009449439E1,4.704089677E2,-5.217132522E2
4.016011549E1,4.711362080E2,-5.215432501E2
4.022573660E1,4.724811689E2,-5.211118589E2
4.029135770E1,4.717833760E2,-5.201042542E2
4.035697880E1,4.714271111E2,-5.194020011E2
4.042259991E1,4.723317727E2,-5.191912193E2
4.048822101E1,4.736146921E2,-5.187297687E2
4.055384212E1,4.722947230E2,-5.174054089E2
4.061946322E1,4.719752645E2,-5.165812811E2
4.068508432E1,4.729208087E2,-5.152101608E2
4.075070543E1,4.731847023E2,-5.146200596E2
4.081632653E1,4.726332793E2,-5.154355405E2
4.088194763E1,4.730750870E2,-5.148931261E2
4.094756874E1,4.742519009E2,-5.153506390E2
4.101318984E1,4.745093307E2,-5.153488298E2
4.107881095E1,4.740668331E2,-5.146654691E2
4.114443205E1,4.733851980E2,-5.136509174E2
4.121005315E1,4.732383639E2,-5.134201636E2
4.127567426E1,4.727374320E2,-5.134813678E2
4.134129536E1,4.731696712E2,-5.131141839E2
4.140691646E1,4.730716513E2,-5.135983951E2
4.147253757E1,4.722441214E2,-5.137397531E2
4.153815867E1,4.720978764E2,-5.137905945E2
4.160377978E1,4.729009056E2,-5.141750262E2
4.166940088E1,4.722750447E2,-5.147070682E2
4.173502198E1,4.734029705E2,-5.142082161E2
4.180064309E1,4.734221722E2,-5.136825009E2
4.186626419E1,4.727694337E2,-5.147593259E2
4.193188529E1,4.708830180E2,-5.157388477E2
4.199750640E1,4.695410958E2,-5.166584616E2
4.206312750E1,4.698283269E2,-5.177600486E2
4.212874861E1,4.707585304E2,-5.176018355E2
4.219436971E1,4.698327600E2,-5.168389048E2
4.225999081E1,4.706345914E2,-5.168759892E2
4.232561192E1,4.702121965E2,-5.161220426E2
4.239123302E1,4.697954309E2,-5.154558870E2
4.245685412E1,4.712250375E2,-5.145948082E2
4.252247523E1,4.700600330E2,-5.143900014E2
4.258809633E1,4.713186221E2,-5.131274811E2
4.265371744E1,4.721962643E2,-5.135454310E2
4.271933854E1,4.715309451E2,-5.140858448E2
4.278495964E1,4.710298977E2,-5.138718903E2
4.285058075E1,4.705753039E2,-5.142549719E2
4.291620185E1,4.704996962E2,-5.136838261E2
4.298182295E1,4.688379273E2,-5.137453051E2
4.304744406E1,4.692918854E2,-5.121969569E2
4.311306516E1,4.691800789E2,-5.133286846E2
4.317868627E1,4.683818889E2,-5.122835105E2
4.324430737E1,4.690577799E2,-5.146907459E2
4.330992847E1,4.679768672E2,-5.149762597E2
4.337554958E1,4.668614067E2,-5.142630857E2
4.344117068E1,4.661818575E2,-5.144132189E2
4.350679178E1,4.655403009E2,-5.142032709E2
4.357241289E1,4.650744088E2,-5.135986111E2
4.363803399E1,4.653192415E2,-5.120246018E2
4.370365510E1,4.650186411E2,-5.111648740E2
4.376927620E1,4.662408388E2,-5.115021079E2
4.383489730E1,4.667192676E2,-5.113881430E2
4.390051841E1,4.674818656E2,-5.106000330E2
4.396613951E1,4.697661234E2,-5.106007135E2
4.403176061E1,4.706018442E2,-5.112950065E2
4.409738172E1,4.703280766E2,-5.113593689E2
4.416300282E1,4.706547877E2,-5.105327580E2
4.422862393E1,4.707857957E2,-5.096443412E2
4.429424503E1,4.694384959E2,-5.093923589E2
4.435986613E1,4.686524848E2,-5.096822461E2
4.442548724E1,4.693699692E2,-5.083262826E2
4.449110834E1,4.686257093E2,-5.092375456E2
4.455672944E1,4.672027577E2,-5.075129258E2
4.462235055E1,4.660773926E2,-5.069367876E2
4.468797165E1,4.670878687E2,-5.069854321E2
4.475359276E1,4.691610235E2,-5.077289202E2
4.481921386E1,4.699359059E2,-5.089359743E2
4.488483496E1,4.698627865E2,-5.091044901E2
4.495045607E1,4.704024168E2,-5.081259504E2
4.501607717E1,4.717058624E2,-5.068399298E2
4.508169827E1,4.724407837E2,-5.087936141E2
4.514731938E1,4.725730294E2,-5.094866947E2
4.521294048E1,4.718595495E2,-5.105417470E2
4.527856159E1,4.713016460E2,-5.108070336E2
4.534418269E1,4.699332848E2,-5.114448413E2
4.540980379E1,4.704325420E2,-5.130877839E2
4.547542490E1,4.706496522E2,-5.147499075E2
4.554104600E1,4.704136618E2,-5.160031670E2
4.560666710E1,4.701873727E2,-5.168231484E2
4.567228821E1,4.708801742E2,-5.168238932E2
4.573790931E1,4.712532072E2,-5.175997369E2
4.580353042E1,4.713564554E2,-5.175199325E2
4.586915152E1,4.714884861E2,-5.177138368E2
4.593477262E1,4.707847181E2,-5.182156858E2
4.600039373E1,4.713056705E2,-5.183099033E2
4.606601483E1,4.715527831E2,-5.182456466E2
4.613163593E1,4.717970055E2,-5.190695092E2
4.619725704E1,4.717492753E2,-5.195290754E2
4.626287814E1,4.712543618E2,-5.196369784E2
4.632849925E1,4.722867700E2,-5.203020186E2
4.639412035E1,4.731665217E2,-5.192367968E2
4.645974145E1,4.724435695E2,-5.197090231E2
4.652536256E1,4.731232010E2,-5.199546922E2
4.659098366E1,4.722917377E2,-5.204709004E2
4.665660476E1,4.732723726E2,-5.209390613E2
4.672222587E1,4.735487081E2,-5.199317710E2
4.678784697E1,4.727013834E2,-5.192953173E2
4.685346808E1,4.723669966E2,-5.199815849E2
4.691908918E1,4.729293209E2,-5.206898278E2
4.698471028E1,4.730071188E2,-5.221956653E2
4.705033139E1,4.740764076E2,-5.233055473E2
4.711595249E1,4.749736030E2,-5.235721340E2
4.718157359E1,4.743466574E2,-5.225900044E2
4.724719470E1,4.742300609E2,-5.216508268E2
4.731281580E1,4.742567526E2,-5.224329472E2
4.737843691E1,4.747179045E2,-5.223029591E2
4.744405801E1,4.744369791E2,-5.206101586E2
4.750967911E1,4.750640829E2,-5.202166321E2
4.757530022E1,4.752850930E2,-5.205207612E2
4.764092132E1,4.758400958E2,-5.207226260E2
4.770654242E1,4.762724596E2,-5.215441307E2
4.777216353E1,4.768962725E2,-5.205847975E2
4.783778463E1,4.771229107E2,-5.204377963E2
4.790340574E1,4.763453518E2,-5.208294314E2
4.796902684E1,4.766461693E2,-5.208794514E2
4.803464794E1,4.764780692E2,-5.208293682E2
4.810026905E1,4.768559786E2,-5.214556912E2
4.816589015E1,4.760571973E2,-5.214286121E2
4.823151125E1,4.757277064E2,-5.207180204E2
4.829713236E1,4.753784139E2,-5.199326620E2
4.836275346E1,4.758595121E2,-5.205416620E2
4.842837457E1,4.762126482E2,-5.222429965E2
4.849399567E1,4.767813059E2,-5.225284309E2
4.855961677E1,4.752706142E2,-5.223344970E2
4.862523788E1,4.760545791E2,-5.221012839E2
4.869085898E1,4.760903042E2,-5.227655016E2
4.875648008E1,4.767218624E2,-5.242413501E2
4.882210119E1,4.768499741E2,-5.238422623E2
4.888772229E1,4.765109198E2,-5.237711463E2
4.895334340E1,4.767125012E2,-5.253290312E2
4.901896450E1,4.773596737E2,-5.245528197E2
4.908458560E1,4.772391910E2,-5.230072027E2
4.915020671E1,4.767446107E2,-5.223137991E2
4.921582781E1,4.768673059E2,-5.220320891E2
4.928144891E1,4.769045063E2,-5.222150682E2
4.934707002E1,4.763972153E2,-5.230842505E2
4.941269112E1,4.769572309E2,-5.223497870E2
4.947831223E1,4.767374655E2,-5.232511701E2
4.954393333E1,4.764325849E2,-5.234971658E2
4.960955443E1,4.769650268E2,-5.230789669E2
4.967517554E1,4.774022379E2,-5.224909757E2
4.974079664E1,4.786639675E2,-5.226286153E2
4.980641774E1,4.792713168E2,-5.229694123E2
4.987203885E1,4.779074320E2,-5.233346716E2
4.993765995E1,4.767542942E2,-5.238612231E2
5.000328106E1,4.760154679E2,-5.244576087E2
5.006890216E1,4.760925843E2,-5.237593465E2
5.013452326E1,4.764110233E2,-5.230990405E2
5.020014437E1,4.748597128E2,-5.214525937E2
5.026576547E1,4.745715225E2,-5.201435021E2
5.033138657E1,4.749941053E2,-5.194089802E2
5.039700768E1,4.752283018E2,-5.184073412E2
5.046262878E1,4.764356237E2,-5.170497536E2
5.052824989E1,4.761332959E2,-5.177159354E2
5.059387099E1,4.758950219E2,-5.171770959E2
5.065949209E1,4.754153106E2,-5.181367704E2
5.072511320E1,4.745769890E2,-5.185520074E2
5.079073430E1,4.742253694E2,-5.181903584E2
5.085635540E1,4.741332211E2,-5.184217534E2
5.092197651E1,4.739131026E2,-5.192654445E2
5.098759761E1,4.745441272E2,-5.205161754E2
5.105321872E1,4.741127253E2,-5.197814069E2
5.111883982E1,4.740889592E2,-5.180376191E2
5.118446092E1,4.745796335E2,-5.180320735E2
5.125008203E1,4.742564894E2,-5.186861142E2
5.131570313E1,4.747522409E2,-5.187386086E2
5.138132423E1,4.748984343E2,-5.184734025E2
5.144694534E1,4.742387427E2,-5.172149227E2
5.151256644E1,4.739840363E2,-5.157602090E2
5.157818755E1,4.740737051E2,-5.148511559E2
5.164380865E1,4.731987261E2,-5.135710327E2
5.170942975E1,4.743568255E2,-5.126049735E2
5.177505086E1,4.747548445E2,-5.125404716E2
5.184067196E1,4.729751108E2,-5.125633840E2
5.190629306E1,4.718050450E2,-5.126791393E2
5.197191417E1,4.716232149E2,-5.124716024E2
5.203753527E1,4.733016468E2,-5.130498323E2
5.210315638E1,4.749472753E2,-5.130760703E2
5.216877748E1,4.757686673E2,-5.128439759E2
5.223439858E1,4.761301380E2,-5.137457496E2
5.230001969E1,4.743451472E2,-5.132147930E2
5.236564079E1,4.733947657E2,-5.104506245E2
5.243126189E1,4.732220705E2,-5.092522453E2
5.249688300E1,4.748962159E2,-5.093779962E2
5.256250410E1,4.763296616E2,-5.094300651E2
5.262812521E1,4.771089539E2,-5.105781167E2
5.269374631E1,4.777841427E2,-5.110082989E2
5.275936741E1,4.792631138E2,-5.107855527E2
5.282498852E1,4.792195892E2,-5.105485712E2
5.289060962E1,4.785864465E2,-5.097943010E2
5.295623072E1,4.791158637E2,-5.098870462E2
5.302185183E1,4.802919854E2,-5.101525943E2
5.308747293E1,4.805928841E2,-5.102008141E2
5.315309404E1,4.804262897E2,-5.101842522E2
5.321871514E1,4.810135091E2,-5.104218644E2
5.328433624E1,4.809464610E2,-5.114043364E2
5.334995735E1,4.797795915E2,-5.128830097E2
5.341557845E1,4.794266183E2,-5.133297868E2
5.348119955E1,4.791938380E2,-5.139703287E2
5.354682066E1,4.788246304E2,-5.134439822E2
5.361244176E1,4.785081819E2,-5.131268002E2
5.367806287E1,4.795393264E2,-5.128394745E2
5.374368397E1,4.799061662E2,-5.124025032E2
5.380930507E1,4.811752950E2,-5.127421085E2
5.387492618E1,4.828620035E2,-5.133398678E2
5.394054728E1,4.822396496E2,-5.137883667E2
5.400616838E1,4.837263590E2,-5.151576785E2
5.407178949E1,4.837965729E2,-5.157165861E2
5.413741059E1,4.840364992E2,-5.135955933E2
5.420303169E1,4.850943634E2,-5.137801317E2
5.426865280E1,4.857722007E2,-5.136194733E2
5.433427390E1,4.856608194E2,-5.123516476E2
5.439989501E1,4.848365803E2,-5.124529719E2
5.446551611E1,4.870345746E2,-5.116200581E2
5.453113721E1,4.863711545E2,-5.116719247E2
5.459675832E1,4.855852222E2,-5.126987037E2
5.466237942E1,4.869533726E2,-5.123961727E2
5.472800052E1,4.880105184E2,-5.107087041E2
5.479362163E1,4.882568731E2,-5.106675464E2
5.485924273E1,4.882454296E2,-5.116623651E2
5.492486384E1,4.861181771E2,-5.124147361E2
5.499048494E1,4.855552040E2,-5.124567876E2
5.505610604E1,4.848938586E2,-5.125095304E2
5.512172715E1,4.857898084E2,-5.122350141E2
5.518734825E1,4.861380767E2,-5.117749661E2
5.525296935E1,4.850420042E2,-5.106429167E2
5.531859046E1,4.848209346E2,-5.134537904E2
5.538421156E1,4.834347583E2,-5.139813299E2
5.544983267E1,4.850950535E2,-5.170706154E2
5.551545377E1,4.867195499E2,-5.165655087E2
5.558107487E1,4.868540779E2,-5.156771698E2
5.564669598E1,4.860275784E2,-5.154913815E2
5.571231708E1,4.851885220E2,-5.155856862E2
5.577793818E1,4.850304372E2,-5.155138709E2
5.584355929E1,4.850031087E2,-5.146952007E2
5.590918039E1,4.855412933E2,-5.141549433E2
5.597480150E1,4.858113575E2,-5.136048268E2
5.604042260E1,4.860408125E2,-5.141348404E2
5.610604370E1,4.857237431E2,-5.147272859E2
5.617166481E1,4.844938459E2,-5.148143867E2
5.623728591E1,4.833562014E2,-5.136543865E2
5.630290701E1,4.818145308E2,-5.135084652E2
5.636852812E1,4.809071921E2,-5.135347069E2
5.643414922E1,4.810143092E2,-5.128181825E2
5.649977033E1,4.810858320E2,-5.125399346E2
5.656539143E1,4.812268496E2,-5.132396288E2
5.663101253E1,4.810133918E2,-5.145370937E2
5.669663364E1,4.813556239E2,-5.153817512E2
5.676225474E1,4.834998431E2,-5.163614074E2
5.682787584E1,4.839180420E2,-5.156868094E2
5.689349695E1,4.831177299E2,-5.155003690E2
5.695911805E1,4.834490105E2,-5.154695853E2
5.702473916E1,4.831795265E2,-5.143102131E2
5.709036026E1,4.834108952E2,-5.143606793E2
5.715598136E1,4.832991418E2,-5.143008137E2
5.722160247E1,4.838686309E2,-5.148910938E2
5.728722357E1,4.828348567E2,-5.147820062E2
5.735284467E1,4.830530714E2,-5.156954948E2
5.741846578E1,4.837022995E2,-5.166216988E2
5.748408688E1,4.848186275E2,-5.167214627E2
5.754970799E1,4.861173706E2,-5.164813148E2
5.761532909E1,4.857292005E2,-5.166491144E2
5.768095019E1,4.856371689E2,-5.185028582E2
5.774657130E1,4.859145761E2,-5.196392821E2
5.781219240E1,4.864892406E2,-5.201468847E2
5.787781350E1,4.868888551E2,-5.220118755E2
5.794343461E1,4.862689821E2,-5.230890469E2
5.800905571E1,4.851179035E2,-5.228358068E2
5.807467682E1,4.850719217E2,-5.225251184E2
5.814029792E1,4.863361638E2,-5.213013907E2
5.820591902E1,4.856081593E2,-5.217475480E2
5.827154013E1,4.861919345E2,-5.214136589E2
5.833716123E1,4.860114970E2,-5.216287328E2
5.840278233E1,4.852984578E2,-5.200700140E2
5.846840344E1,4.840978721E2,-5.214034120E2
5.853402454E1,4.842937343E2,-5.228522108E2
5.859964565E1,4.843149237E2,-5.240693519E2
5.866526675E1,4.831162858E2,-5.261603891E2
5.873088785E1,4.819503255E2,-5.254372002E2
5.879650896E1,4.810274088E2,-5.258234681E2
5.886213006E1,4.795497878E2,-5.266933533E2
5.892775116E1,4.794216728E2,-5.276036483E2
5.899337227E1,4.806830884E2,-5.284937336E2
5.905899337E1,4.813272954E2,-5.284151855E2
5.912461448E1,4.815225538E2,-5.286109922E2
5.919023558E1,4.802373848E2,-5.288208039E2
5.925585668E1,4.783561307E2,-5.284973768E2
5.932147779E1,4.782793649E2,-5.276980478E2
5.938709889E1,4.773841371E2,-5.283507577E2
5.945271999E1,4.766861135E2,-5.277089760E2
5.951834110E1,4.760286870E2,-5.284023377E2
5.958396220E1,4.761613239E2,-5.292117431E2
5.964958331E1,4.774017894E2,-5.272975099E2
5.971520441E1,4.768360500E2,-5.264929754E2
5.978082551E1,4.760690318E2,-5.247596943E2
5.984644662E1,4.756824850E2,-5.252649648E2
5.991206772E1,4.754219292E2,-5.253991063E2
5.997768882E1,4.767846204E2,-5.266901913E2
6.004330993E1,4.766018670E2,-5.271825191E2
6.010893103E1,4.756082508E2,-5.263862175E2
6.017455214E1,4.758350440E2,-5.258678773E2
6.024017324E1,4.760213939E2,-5.254540374E2
6.030579434E1,4.767074522E2,-5.244842603E2
6.037141545E1,4.773542499E2,-5.254965151E2
6.043703655E1,4.785128793E2,-5.266711053E2
6.050265765E1,4.773661862E2,-5.273178905E2
6.056827876E1,4.772395564E2,-5.274312083E2
6.063389986E1,4.761968808E2,-5.265455984E2
6.069952097E1,4.766465968E2,-5.262649948E2
6.076514207E1,4.767180842E2,-5.255756124E2
6.083076317E1,4.771101170E2,-5.263036426E2
6.089638428E1,4.770402586E2,-5.263187109E2
6.096200538E1,4.780358830E2,-5.266113773E2
6.102762648E1,4.791683429E2,-5.266758369E2
6.109324759E1,4.800195868E2,-5.265840577E2
6.115886869E1,4.815942311E2,-5.261391619E2
6.122448980E1,4.822849264E2,-5.253974219E2
6.129011090E1,4.836058189E2,-5.249204138E2
6.135573200E1,4.832506754E2,-5.255249498E2
6.142135311E1,4.836105807E2,-5.258406038E2
6.148697421E1,4.850164346E2,-5.257059014E2
6.155259531E1,4.852301859E2,-5.264113668E2
6.161821642E1,4.859880343E2,-5.267257767E2
6.168383752E1,4.885432788E2,-5.290671060E2
6.174945863E1,4.886369416E2,-5.295551757E2
6.181507973E1,4.861800887E2,-5.282832300E2
6.188070083E1,4.850253818E2,-5.285256538E2
6.194632194E1,4.852586431E2,-5.276247702E2
6.201194304E1,4.852526305E2,-5.278096588E2
6.207756414E1,4.849184271E2,-5.282162241E2
6.214318525E1,4.852426293E2,-5.285157672E2
6.220880635E1,4.862165755E2,-5.285483937E2
6.227442746E1,4.885363462E2,-5.284156774E2
6.234004856E1,4.879450584E2,-5.270861114E2
6.240566966E1,4.868424963E2,-5.272852680E2
6.247129077E1,4.860473697E2,-5.259198321E2
6.253691187E1,4.863961441E2,-5.248624917E2
6.260253297E1,4.868756999E2,-5.252171704E2
6.266815408E1,4.861042825E2,-5.246191605E2
6.273377518E1,4.863330645E2,-5.253370889E2
6.279939629E1,4.867994138E2,-5.253566765E2
6.286501739E1,4.867285492E2,-5.247261551E2
6.293063849E1,4.861655105E2,-5.243343757E2
6.299625960E1,4.853242658E2,-5.251138715E2
6.306188070E1,4.841744756E2,-5.256396732E2
6.312750180E1,4.847825618E2,-5.245091141E2
6.319312291E1,4.865352889E2,-5.231114060E2
6.325874401E1,4.864261015E2,-5.227540473E2
6.332436512E1,4.867906643E2,-5.217194793E2
6.338998622E1,4.871763760E2,-5.209256288E2
6.345560732E1,4.860185815E2,-5.196302215E2
6.352122843E1,4.843321688E2,-5.189854297E2
6.358684953E1,4.843642906E2,-5.201110124E2
6.365247063E1,4.851241325E2,-5.201691997E2
6.371809174E1,4.865885843E2,-5.191251118E2
6.378371284E1,4.875490568E2,-5.191690404E2
6.384933395E1,4.883045698E2,-5.190935570E2
6.391495505E1,4.876029093E2,-5.187451783E2
6.398057615E1,4.880074634E2,-5.185537015E2
6.404619726E1,4.877759033E2,-5.185967314E2
6.411181836E1,4.882774054E2,-5.176167615E2
6.417743946E1,4.871519963E2,-5.183046010E2
6.424306057E1,4.858801970E2,-5.193602564E2
6.430868167E1,4.860765808E2,-5.198798292E2
6.437430278E1,4.869918688E2,-5.191597174E2
6.443992388E1,4.879737724E2,-5.184428510E2
6.450554498E1,4.889909996E2,-5.191947696E2
6.457116609E1,4.899872270E2,-5.197529550E2
6.463678719E1,4.891142562E2,-5.209857817E2
6.470240829E1,4.882675693E2,-5.207269907E2
6.476802940E1,4.888320925E2,-5.203722535E2
6.483365050E1,4.877016882E2,-5.198056237E2
6.489927161E1,4.872528835E2,-5.198694872E2
6.496489271E1,4.869261913E2,-5.185974296E2
6.503051381E1,4.860255437E2,-5.186406575E2
6.509613492E1,4.869572178E2,-5.187237777E2
6.516175602E1,4.879823243E2,-5.178883536E2
6.522737712E1,4.893190654E2,-5.156501503E2
6.529299823E1,4.891533025E2,-5.145299185E2
6.535861933E1,4.894203435E2,-5.139487669E2
6.542424044E1,4.889822383E2,-5.146464406E2
6.548986154E1,4.882182040E2,-5.143510319E2
6.555548264E1,4.879658237E2,-5.149159093E2
6.562110375E1,4.890195932E2,-5.144456828E2
6.568672485E1,4.894101681E2,-5.147086082E2
6.575234595E1,4.888541914E2,-5.135110701E2
6.581796706E1,4.899807062E2,-5.125607936E2
6.588358816E1,4.893852722E2,-5.135230042E2
6.594920927E1,4.889786413E2,-5.134809902E2
6.601483037E1,4.899177016E2,-5.126349486E2
6.608045147E1,4.901252117E2,-5.122787399E2
6.614607258E1,4.896979063E2,-5.121184522E2
6.621169368E1,4.905196676E2,-5.121281717E2
6.627731478E1,4.920425201E2,-5.122140289E2
6.634293589E1,4.941778255E2,-5.112227864E2
6.640855699E1,4.946026493E2,-5.111272417E2
6.647417810E1,4.938126885E2,-5.112242140E2
6.653979920E1,4.937596312E2,-5.098928004E2
6.660542030E1,4.941527555E2,-5.078223512E2
6.667104141E1,4.934726253E2,-5.080314840E2
6.673666251E1,4.921036585E2,-5.077297510E2
6.680228361E1,4.906529551E2,-5.066870745E2
6.686790472E1,4.912197467E2,-5.059656717E2
6.693352582E1,4.907971381E2,-5.048469391E2
6.699914693E1,4.909375638E2,-5.034121132E2
6.706476803E1,4.909320896E2,-5.026385547E2
