mBd25
t,x,y
0.000000000E0,1.689466357E3,-4.181902552E2
6.574189731E-2,1.688637579E3,-4.181068153E2
1.314837946E-1,1.688509045E3,-4.180860144E2
1.972256919E-1,1.687913039E3,-4.175621860E2
2.629675892E-1,1.687458812E3,-4.171218502E2
3.287094866E-1,1.687355209E3,-4.163465068E2
3.944513839E-1,1.687178578E3,-4.170650662E2
4.601932812E-1,1.687424436E3,-4.183507115E2
5.259351785E-1,1.687372086E3,-4.192159085E2
5.916770758E-1,1.687467853E3,-4.200952229E2
6.574189731E-1,1.687314760E3,-4.201800745E2
7.231608704E-1,1.687277334E3,-4.201508863E2
7.889027677E-1,1.686557985E3,-4.204828992E2
8.546446650E-1,1.686658520E3,-4.209082803E2
9.203865624E-1,1.687566062E3,-4.209618228E2
9.861284597E-1,1.688261376E3,-4.208948938E2
1.051870357E0,1.687457349E3,-4.201159241E2
1.117612254E0,1.687536182E3,-4.206119137E2
1.183354152E0,1.687290984E3,-4.202447479E2
1.249096049E0,1.687969147E3,-4.203617905E2
1.314837946E0,1.687634596E3,-4.208847901E2
1.380579844E0,1.687034747E3,-4.210868555E2
1.446321741E0,1.687637437E3,-4.211335610E2
1.512063638E0,1.687457418E3,-4.202913689E2
1.577805535E0,1.688120618E3,-4.202329137E2
1.643547433E0,1.688557495E3,-4.204466167E2
1.709289330E0,1.688375725E3,-4.201752105E2
1.775031227E0,1.688299585E3,-4.204563767E2
1.840773125E0,1.687832121E3,-4.203654297E2
1.906515022E0,1.687243983E3,-4.202614761E2
1.972256919E0,1.687375242E3,-4.205586011E2
2.037998817E0,1.687368921E3,-4.219620946E2
2.103740714E0,1.687096297E3,-4.218561571E2
2.169482611E0,1.686850959E3,-4.222380689E2
2.235224509E0,1.686706271E3,-4.223693586E2
2.300966406E0,1.687844091E3,-4.222313953E2
2.366708303E0,1.689142059E3,-4.218355377E2
2.432450201E0,1.689430658E3,-4.220863048E2
2.498192098E0,1.689526162E3,-4.214463958E2
2.563933995E0,1.688424664E3,-4.219804246E2
2.629675892E0,1.688307964E3,-4.218567621E2
2.695417790E0,1.688458636E3,-4.214174612E2
2.761159687E0,1.688340028E3,-4.212393899E2
2.826901584E0,1.688354445E3,-4.212023766E2
2.892643482E0,1.688568259E3,-4.223732932E2
2.958385379E0,1.688632179E3,-4.222618458E2
3.024127276E0,1.688317823E3,-4.220418942E2
3.089869174E0,1.688279048E3,-4.220885114E2
3.155611071E0,1.688507529E3,-4.222500846E2
3.221352968E0,1.689103630E3,-4.220234268E2
3.287094866E0,1.688619984E3,-4.221430056E2
3.352836763E0,1.688762952E3,-4.214499574E2
3.418578660E0,1.688472851E3,-4.212486114E2
3.484320557E0,1.688512562E3,-4.206385161E2
3.550062455E0,1.687646843E3,-4.212551071E2
3.615804352E0,1.687649275E3,-4.212316786E2
3.681546249E0,1.687546959E3,-4.220266624E2
3.747288147E0,1.688611235E3,-4.231135957E2
3.813030044E0,1.689422110E3,-4.233258023E2
3.878771941E0,1.689449554E3,-4.233947776E2
3.944513839E0,1.687758573E3,-4.242564760E2
4.010255736E0,1.687860547E3,-4.244459313E2
4.075997633E0,1.688239905E3,-4.231204776E2
4.141739531E0,1.688472684E3,-4.229419973E2
4.207481428E0,1.688337676E3,-4.220940260E2
4.273223325E0,1.687927269E3,-4.214649744E2
4.338965223E0,1.687563363E3,-4.214482102E2
4.404707120E0,1.687381083E3,-4.216979619E2
4.470449017E0,1.688410771E3,-4.221260834E2
4.536190914E0,1.688575350E3,-4.221623177E2
4.601932812E0,1.688482367E3,-4.213864155E2
4.667674709E0,1.688244788E3,-4.211473149E2
4.733416606E0,1.688462541E3,-4.218615548E2
4.799158504E0,1.688529125E3,-4.213885133E2
4.864900401E0,1.688402158E3,-4.217883552E2
4.930642298E0,1.688436995E3,-4.220526325E2
4.996384196E0,1.688685368E3,-4.214152286E2
5.062126093E0,1.688448010E3,-4.211686220E2
5.127867990E0,1.688442957E3,-4.211544584E2
5.193609888E0,1.688712929E3,-4.211679140E2
5.259351785E0,1.689466751E3,-4.203405316E2
5.325093682E0,1.688788593E3,-4.204242967E2
5.390835580E0,1.688529687E3,-4.200557973E2
5.456577477E0,1.689521228E3,-4.201951714E2
5.522319374E0,1.690716922E3,-4.205227872E2
5.588061271E0,1.690661980E3,-4.211244417E2
5.653803169E0,1.690418374E3,-4.211096335E2
5.719545066E0,1.689979048E3,-4.200390629E2
5.785286963E0,1.689380233E3,-4.201655478E2
5.851028861E0,1.689272265E3,-4.201980574E2
5.916770758E0,1.689537986E3,-4.206235000E2
5.982512655E0,1.689352454E3,-4.209451454E2
6.048254553E0,1.689390859E3,-4.208054302E2
6.113996450E0,1.689425671E3,-4.211863409E2
6.179738347E0,1.689495149E3,-4.212004949E2
6.245480245E0,1.689671767E3,-4.212192363E2
6.311222142E0,1.688581550E3,-4.211457112E2
6.376964039E0,1.687206722E3,-4.209123915E2
6.442705936E0,1.687556177E3,-4.213111764E2
6.508447834E0,1.687370789E3,-4.219963123E2
6.574189731E0,1.688419973E3,-4.214256817E2
6.639931628E0,1.688482674E3,-4.222165292E2
6.705673526E0,1.689494869E3,-4.232454874E2
6.771415423E0,1.690312468E3,-4.241551023E2
6.837157320E0,1.690402510E3,-4.243032078E2
6.902899218E0,1.690418141E3,-4.249221291E2
6.968641115E0,1.691253469E3,-4.248484990E2
7.034383012E0,1.691451385E3,-4.242800524E2
7.100124910E0,1.691435699E3,-4.239232606E2
7.165866807E0,1.691973119E3,-4.229501454E2
7.231608704E0,1.691475115E3,-4.231303649E2
7.297350602E0,1.690445566E3,-4.229126961E2
7.363092499E0,1.690269725E3,-4.230579900E2
7.428834396E0,1.690273689E3,-4.229775748E2
7.494576293E0,1.689948001E3,-4.233321409E2
7.560318191E0,1.689928098E3,-4.243081144E2
7.626060088E0,1.690493566E3,-4.236116862E2
7.691801985E0,1.690164918E3,-4.240815927E2
7.757543883E0,1.689501027E3,-4.242162299E2
7.823285780E0,1.688717385E3,-4.242496788E2
7.889027677E0,1.688808899E3,-4.241329491E2
7.954769575E0,1.688856301E3,-4.233811675E2
8.020511472E0,1.688744109E3,-4.235696564E2
8.086253369E0,1.689348663E3,-4.231882555E2
8.151995267E0,1.689243286E3,-4.232772370E2
8.217737164E0,1.688803537E3,-4.234516582E2
8.283479061E0,1.688265885E3,-4.237496818E2
8.349220959E0,1.688524910E3,-4.234628121E2
8.414962856E0,1.688645209E3,-4.241350686E2
8.480704753E0,1.688969525E3,-4.237303618E2
8.546446650E0,1.689466000E3,-4.234814742E2
8.612188548E0,1.689047692E3,-4.239047067E2
8.677930445E0,1.688606407E3,-4.241096744E2
8.743672342E0,1.689158319E3,-4.238588949E2
8.809414240E0,1.689414075E3,-4.243335941E2
8.875156137E0,1.688785783E3,-4.254033191E2
8.940898034E0,1.688534408E3,-4.260863463E2
9.006639932E0,1.688664903E3,-4.263455538E2
9.072381829E0,1.688531925E3,-4.261178040E2
9.138123726E0,1.688418724E3,-4.250876340E2
9.203865624E0,1.688482127E3,-4.241765626E2
9.269607521E0,1.688542674E3,-4.233912105E2
9.335349418E0,1.688345216E3,-4.239463605E2
9.401091315E0,1.688103594E3,-4.240433385E2
9.466833213E0,1.687508389E3,-4.244553537E2
9.532575110E0,1.687340920E3,-4.242363338E2
9.598317007E0,1.687589027E3,-4.260823991E2
9.664058905E0,1.688079750E3,-4.260972836E2
9.729800802E0,1.686715306E3,-4.272586773E2
9.795542699E0,1.686147808E3,-4.266984058E2
9.861284597E0,1.686461009E3,-4.269423658E2
9.927026494E0,1.687118478E3,-4.269020252E2
9.992768391E0,1.686630749E3,-4.274592456E2
1.005851029E1,1.686410139E3,-4.263732194E2
1.012425219E1,1.686425176E3,-4.261926374E2
1.018999408E1,1.686504145E3,-4.262727353E2
1.025573598E1,1.685450031E3,-4.269706994E2
1.032147788E1,1.685652386E3,-4.263680800E2
1.038721978E1,1.685698399E3,-4.256291799E2
1.045296167E1,1.685308419E3,-4.260291946E2
1.051870357E1,1.685416619E3,-4.260630866E2
1.058444547E1,1.685494315E3,-4.260272840E2
1.065018736E1,1.685367736E3,-4.258219027E2
1.071592926E1,1.685782842E3,-4.246675625E2
1.078167116E1,1.685445178E3,-4.248807217E2
1.084741306E1,1.687154218E3,-4.241787614E2
1.091315495E1,1.686543845E3,-4.241081882E2
1.097889685E1,1.686578052E3,-4.243935795E2
1.104463875E1,1.686501545E3,-4.244112948E2
1.111038065E1,1.685471278E3,-4.250671315E2
1.117612254E1,1.685220345E3,-4.249180253E2
1.124186444E1,1.685393309E3,-4.250262228E2
1.130760634E1,1.685426774E3,-4.243659850E2
1.137334823E1,1.684477833E3,-4.238969959E2
1.143909013E1,1.684248237E3,-4.220324535E2
1.150483203E1,1.684527273E3,-4.204805468E2
1.157057393E1,1.684565524E3,-4.213678522E2
1.163631582E1,1.684670807E3,-4.214733746E2
1.170205772E1,1.685111620E3,-4.209465302E2
1.176779962E1,1.686158488E3,-4.211863061E2
1.183354152E1,1.686829118E3,-4.222744946E2
1.189928341E1,1.686413654E3,-4.220631405E2
1.196502531E1,1.686377209E3,-4.219493836E2
1.203076721E1,1.686497993E3,-4.212700628E2
1.209650911E1,1.686604710E3,-4.213643700E2
1.216225100E1,1.686022294E3,-4.211370958E2
1.222799290E1,1.685663308E3,-4.213217816E2
1.229373480E1,1.685847308E3,-4.221846475E2
1.235947669E1,1.686097208E3,-4.220851690E2
1.242521859E1,1.686156182E3,-4.228607411E2
1.249096049E1,1.686261989E3,-4.221685081E2
1.255670239E1,1.686340588E3,-4.220239567E2
1.262244428E1,1.686476766E3,-4.221673179E2
1.268818618E1,1.686546528E3,-4.221551789E2
1.275392808E1,1.687430155E3,-4.212526701E2
1.281966998E1,1.687358125E3,-4.201652410E2
1.288541187E1,1.687084897E3,-4.197160716E2
1.295115377E1,1.686425015E3,-4.191663385E2
1.301689567E1,1.686454667E3,-4.196629734E2
1.308263756E1,1.686704568E3,-4.211792606E2
1.314837946E1,1.686826305E3,-4.213083084E2
1.321412136E1,1.686616431E3,-4.202681217E2
1.327986326E1,1.686489592E3,-4.201711738E2
1.334560515E1,1.686376827E3,-4.207577493E2
1.341134705E1,1.687420250E3,-4.211329307E2
1.347708895E1,1.688459233E3,-4.213441516E2
1.354283085E1,1.689265315E3,-4.212508428E2
1.360857274E1,1.689600549E3,-4.214267239E2
1.367431464E1,1.689561879E3,-4.215816876E2
1.374005654E1,1.689445366E3,-4.211001159E2
1.380579844E1,1.690591934E3,-4.206293721E2
1.387154033E1,1.690345976E3,-4.200068184E2
1.393728223E1,1.690565832E3,-4.195174576E2
1.400302413E1,1.690150610E3,-4.197240393E2
1.406876602E1,1.690385731E3,-4.191617793E2
1.413450792E1,1.690299333E3,-4.190135828E2
1.420024982E1,1.690572919E3,-4.183700939E2
1.426599172E1,1.691370826E3,-4.183340539E2
1.433173361E1,1.690938397E3,-4.194473137E2
1.439747551E1,1.690899048E3,-4.201889696E2
1.446321741E1,1.691307143E3,-4.191077976E2
1.452895931E1,1.690580980E3,-4.190216090E2
1.459470120E1,1.691475624E3,-4.183715307E2
1.466044310E1,1.691547487E3,-4.184562995E2
1.472618500E1,1.691550596E3,-4.192605577E2
1.479192690E1,1.691463259E3,-4.193998899E2
1.485766879E1,1.691263169E3,-4.197017757E2
1.492341069E1,1.691475605E3,-4.192837772E2
1.498915259E1,1.691418091E3,-4.198651922E2
1.505489448E1,1.691391673E3,-4.191132660E2
1.512063638E1,1.691395201E3,-4.187047895E2
1.518637828E1,1.691461795E3,-4.192090120E2
1.525212018E1,1.691014444E3,-4.198574563E2
1.531786207E1,1.691151188E3,-4.192534031E2
1.538360397E1,1.690541331E3,-4.199865839E2
1.544934587E1,1.689702945E3,-4.210910473E2
1.551508777E1,1.689193079E3,-4.209219028E2
1.558082966E1,1.689519599E3,-4.218858831E2
1.564657156E1,1.689587301E3,-4.221008907E2
1.571231346E1,1.689754849E3,-4.223148114E2
1.577805535E1,1.690245590E3,-4.213425486E2
1.584379725E1,1.689416351E3,-4.213563548E2
1.590953915E1,1.688343280E3,-4.211655729E2
1.597528105E1,1.688395716E3,-4.210269642E2
1.604102294E1,1.688495212E3,-4.210623030E2
1.610676484E1,1.689224569E3,-4.208901409E2
1.617250674E1,1.689226105E3,-4.209647225E2
1.623824864E1,1.688807861E3,-4.210699138E2
1.630399053E1,1.688565044E3,-4.214135545E2
1.636973243E1,1.689292987E3,-4.211596873E2
1.643547433E1,1.688628060E3,-4.210002174E2
1.650121623E1,1.688463283E3,-4.202324585E2
1.656695812E1,1.688375857E3,-4.200849077E2
1.663270002E1,1.688065363E3,-4.188939373E2
1.669844192E1,1.687459603E3,-4.190289598E2
1.676418381E1,1.687629217E3,-4.190314519E2
1.682992571E1,1.687552093E3,-4.188486296E2
1.689566761E1,1.688522997E3,-4.174776668E2
1.696140951E1,1.688595500E3,-4.169837767E2
1.702715140E1,1.688582408E3,-4.171231008E2
1.709289330E1,1.688264033E3,-4.161056711E2
1.715863520E1,1.687771430E3,-4.163096884E2
1.722437710E1,1.688674750E3,-4.164257564E2
1.729011899E1,1.688148152E3,-4.160225425E2
1.735586089E1,1.688206458E3,-4.152625505E2
1.742160279E1,1.687581375E3,-4.152767431E2
1.748734468E1,1.687406051E3,-4.143954622E2
1.755308658E1,1.686633375E3,-4.150999090E2
1.761882848E1,1.686912313E3,-4.152019279E2
1.768457038E1,1.686516922E3,-4.158681043E2
1.775031227E1,1.686628732E3,-4.162182958E2
1.781605417E1,1.687700722E3,-4.155616925E2
1.788179607E1,1.686815805E3,-4.151789467E2
1.794753797E1,1.687270514E3,-4.141694134E2
1.801327986E1,1.687858751E3,-4.145463316E2
1.807902176E1,1.688516191E3,-4.141843396E2
1.814476366E1,1.689431394E3,-4.143073933E2
1.821050556E1,1.689557723E3,-4.142222928E2
1.827624745E1,1.689368428E3,-4.139063199E2
1.834198935E1,1.689172498E3,-4.150440508E2
1.840773125E1,1.688524803E3,-4.152019471E2
1.847347314E1,1.689381464E3,-4.150972673E2
1.853921504E1,1.689541701E3,-4.144547883E2
1.860495694E1,1.689605058E3,-4.144319906E2
1.867069884E1,1.689881380E3,-4.144675218E2
1.873644073E1,1.689500076E3,-4.142621860E2
1.880218263E1,1.689052915E3,-4.141499725E2
1.886792453E1,1.688230794E3,-4.140177280E2
1.893366643E1,1.687546858E3,-4.132911901E2
1.899940832E1,1.687364743E3,-4.139171736E2
1.906515022E1,1.688238927E3,-4.131229694E2
1.913089212E1,1.688447794E3,-4.133661668E2
1.919663401E1,1.688295013E3,-4.137098135E2
1.926237591E1,1.688272516E3,-4.140089812E2
1.932811781E1,1.687509750E3,-4.143186575E2
1.939385971E1,1.687331373E3,-4.141719867E2
1.945960160E1,1.686807866E3,-4.142603289E2
1.952534350E1,1.686527368E3,-4.141608124E2
1.959108540E1,1.687096968E3,-4.140936175E2
1.965682730E1,1.686285864E3,-4.149895075E2
1.972256919E1,1.687152878E3,-4.149112023E2
1.978831109E1,1.686608885E3,-4.151424399E2
1.985405299E1,1.687212386E3,-4.151339962E2
1.991979489E1,1.686771607E3,-4.156503957E2
1.998553678E1,1.686382716E3,-4.148975577E2
2.005127868E1,1.687455377E3,-4.142630783E2
2.011702058E1,1.687490199E3,-4.144997075E2
2.018276247E1,1.686357188E3,-4.149566660E2
2.024850437E1,1.686556198E3,-4.151257011E2
2.031424627E1,1.687266048E3,-4.143006576E2
2.037998817E1,1.688425361E3,-4.152249313E2
2.044573006E1,1.688097757E3,-4.147212693E2
2.051147196E1,1.687828353E3,-4.154335565E2
2.057721386E1,1.686551509E3,-4.153335163E2
2.064295576E1,1.686336099E3,-4.151615917E2
2.070869765E1,1.687424529E3,-4.154211106E2
2.077443955E1,1.687525480E3,-4.162684454E2
2.084018145E1,1.686657526E3,-4.160606242E2
2.090592334E1,1.687339110E3,-4.153355154E2
2.097166524E1,1.687132693E3,-4.151076311E2
2.103740714E1,1.687401863E3,-4.152177515E2
2.110314904E1,1.688417139E3,-4.153520890E2
2.116889093E1,1.688283928E3,-4.151127352E2
2.123463283E1,1.688324065E3,-4.142152668E2
2.130037473E1,1.688053274E3,-4.142385157E2
2.136611663E1,1.687741834E3,-4.142538126E2
2.143185852E1,1.688328054E3,-4.138300947E2
2.149760042E1,1.688950986E3,-4.142784596E2
2.156334232E1,1.688652502E3,-4.142235394E2
2.162908422E1,1.689295766E3,-4.142314562E2
2.169482611E1,1.688557301E3,-4.149995609E2
2.176056801E1,1.689244059E3,-4.150935008E2
2.182630991E1,1.689610099E3,-4.150970699E2
2.189205180E1,1.690583742E3,-4.143429257E2
2.195779370E1,1.689712885E3,-4.144818795E2
2.202353560E1,1.689558554E3,-4.144115462E2
2.208927750E1,1.690167901E3,-4.141619089E2
2.215501939E1,1.690779202E3,-4.144244319E2
2.222076129E1,1.690920238E3,-4.144014958E2
2.228650319E1,1.690376718E3,-4.149007205E2
2.235224509E1,1.690438616E3,-4.154250976E2
2.241798698E1,1.690400500E3,-4.164921790E2
2.248372888E1,1.690403785E3,-4.161416254E2
2.254947078E1,1.690277679E3,-4.151257856E2
2.261521268E1,1.689431115E3,-4.141874779E2
2.268095457E1,1.689488756E3,-4.144720093E2
2.274669647E1,1.689481997E3,-4.149911046E2
2.281243837E1,1.689395168E3,-4.159282751E2
2.287818026E1,1.689406983E3,-4.159587830E2
2.294392216E1,1.689958876E3,-4.155162610E2
2.300966406E1,1.689501774E3,-4.148848487E2
2.307540596E1,1.690260068E3,-4.151518316E2
2.314114785E1,1.690571047E3,-4.155025353E2
2.320688975E1,1.690511522E3,-4.152627864E2
2.327263165E1,1.690512269E3,-4.151589835E2
2.333837355E1,1.690450215E3,-4.150583311E2
2.340411544E1,1.690618135E3,-4.149915727E2
2.346985734E1,1.691244910E3,-4.141838416E2
2.353559924E1,1.690596867E3,-4.140461437E2
2.360134113E1,1.690521504E3,-4.140637673E2
2.366708303E1,1.691549786E3,-4.133424823E2
2.373282493E1,1.692708492E3,-4.135672504E2
2.379856683E1,1.692541400E3,-4.139726758E2
2.386430872E1,1.693311909E3,-4.141470868E2
2.393005062E1,1.693612939E3,-4.151105761E2
2.399579252E1,1.694428438E3,-4.148774239E2
2.406153442E1,1.695628204E3,-4.143660301E2
2.412727631E1,1.695272712E3,-4.139277851E2
2.419301821E1,1.694575714E3,-4.142393939E2
2.425876011E1,1.695015288E3,-4.140641518E2
2.432450201E1,1.695536245E3,-4.144639776E2
2.439024390E1,1.695726513E3,-4.152251640E2
2.445598580E1,1.695558261E3,-4.143291556E2
2.452172770E1,1.695295418E3,-4.141563357E2
2.458746959E1,1.696222100E3,-4.132701532E2
2.465321149E1,1.695450391E3,-4.130759229E2
2.471895339E1,1.694736280E3,-4.130988816E2
2.478469529E1,1.695161426E3,-4.132352368E2
2.485043718E1,1.695354934E3,-4.131767716E2
2.491617908E1,1.695352802E3,-4.122296591E2
2.498192098E1,1.694821978E3,-4.122649238E2
2.504766288E1,1.694426679E3,-4.123516473E2
2.511340477E1,1.694567934E3,-4.134581748E2
2.517914667E1,1.694784783E3,-4.141107731E2
2.524488857E1,1.695507105E3,-4.132658709E2
2.531063046E1,1.696279485E3,-4.132194040E2
2.537637236E1,1.696131270E3,-4.129300564E2
2.544211426E1,1.697320580E3,-4.132847794E2
2.550785616E1,1.697083524E3,-4.130907623E2
2.557359805E1,1.696971921E3,-4.131505192E2
2.563933995E1,1.696460599E3,-4.140387280E2
2.570508185E1,1.696706592E3,-4.143060688E2
2.577082375E1,1.697432324E3,-4.140384084E2
2.583656564E1,1.698301076E3,-4.131997590E2
2.590230754E1,1.697836853E3,-4.133694083E2
2.596804944E1,1.697367594E3,-4.130881008E2
2.603379134E1,1.697666267E3,-4.132285845E2
2.609953323E1,1.697592833E3,-4.132753378E2
2.616527513E1,1.697819553E3,-4.134377694E2
2.623101703E1,1.697369596E3,-4.137457330E2
2.629675892E1,1.696628970E3,-4.141453839E2
2.636250082E1,1.696665716E3,-4.136710239E2
2.642824272E1,1.696439520E3,-4.140395076E2
2.649398462E1,1.697345262E3,-4.144113156E2
2.655972651E1,1.697298527E3,-4.149437262E2
2.662546841E1,1.697463072E3,-4.153001718E2
2.669121031E1,1.696991368E3,-4.151608246E2
2.675695221E1,1.695682804E3,-4.150682703E2
2.682269410E1,1.696454083E3,-4.143305100E2
2.688843600E1,1.695684834E3,-4.145935330E2
2.695417790E1,1.695252357E3,-4.140531027E2
2.701991979E1,1.695639307E3,-4.141225536E2
2.708566169E1,1.696182328E3,-4.141253002E2
2.715140359E1,1.695988742E3,-4.138317016E2
2.721714549E1,1.696501733E3,-4.139567761E2
2.728288738E1,1.696331404E3,-4.139557058E2
2.734862928E1,1.696373597E3,-4.137361596E2
2.741437118E1,1.695634026E3,-4.131679366E2
2.748011308E1,1.695927075E3,-4.132072282E2
2.754585497E1,1.695653023E3,-4.132849012E2
2.761159687E1,1.695716384E3,-4.142256314E2
2.767733877E1,1.696647667E3,-4.142721485E2
2.774308067E1,1.696342880E3,-4.140033234E2
2.780882256E1,1.696522001E3,-4.136298159E2
2.787456446E1,1.695834820E3,-4.135448515E2
2.794030636E1,1.695820888E3,-4.142708127E2
2.800604825E1,1.695384367E3,-4.147490329E2
2.807179015E1,1.694411821E3,-4.147746787E2
2.813753205E1,1.693950831E3,-4.151882585E2
2.820327395E1,1.694360415E3,-4.143751835E2
2.826901584E1,1.694563138E3,-4.140215678E2
2.833475774E1,1.694448820E3,-4.135487691E2
2.840049964E1,1.694562816E3,-4.142325591E2
2.846624154E1,1.695141626E3,-4.140242480E2
2.853198343E1,1.694945932E3,-4.144899222E2
2.859772533E1,1.694984924E3,-4.149587589E2
2.866346723E1,1.695501596E3,-4.153083543E2
2.872920912E1,1.694639592E3,-4.152223104E2
2.879495102E1,1.694966486E3,-4.152144532E2
2.886069292E1,1.695604330E3,-4.156586857E2
2.892643482E1,1.695582593E3,-4.159678276E2
2.899217671E1,1.695442618E3,-4.161433755E2
2.905791861E1,1.695388160E3,-4.152535981E2
2.912366051E1,1.695499447E3,-4.155633234E2
2.918940241E1,1.694911076E3,-4.162706891E2
2.925514430E1,1.695575076E3,-4.163981097E2
2.932088620E1,1.696322385E3,-4.170223679E2
2.938662810E1,1.695588947E3,-4.178584477E2
2.945237000E1,1.695479572E3,-4.178739062E2
2.951811189E1,1.695097585E3,-4.168417523E2
2.958385379E1,1.694371034E3,-4.168014679E2
2.964959569E1,1.694665437E3,-4.171090862E2
2.971533758E1,1.694551670E3,-4.164875071E2
2.978107948E1,1.694104743E3,-4.170819960E2
2.984682138E1,1.693718587E3,-4.174598718E2
2.991256328E1,1.693630893E3,-4.171608683E2
2.997830517E1,1.694520379E3,-4.171435423E2
3.004404707E1,1.694647336E3,-4.173164658E2
3.010978897E1,1.695040983E3,-4.171337767E2
3.017553087E1,1.694725888E3,-4.181616541E2
3.024127276E1,1.693818848E3,-4.191727515E2
3.030701466E1,1.694355446E3,-4.190053263E2
3.037275656E1,1.694366657E3,-4.189319394E2
3.043849846E1,1.695067079E3,-4.178596194E2
3.050424035E1,1.695395457E3,-4.173979035E2
3.056998225E1,1.695042130E3,-4.169386143E2
3.063572415E1,1.695195874E3,-4.161250502E2
3.070146604E1,1.695605411E3,-4.155542510E2
3.076720794E1,1.695586952E3,-4.152860695E2
3.083294984E1,1.695064371E3,-4.147858915E2
3.089869174E1,1.695436276E3,-4.145890233E2
3.096443363E1,1.694926647E3,-4.151449468E2
3.103017553E1,1.695550835E3,-4.143518689E2
3.109591743E1,1.694833157E3,-4.150915408E2
3.116165933E1,1.694511624E3,-4.152089741E2
3.122740122E1,1.694345949E3,-4.150323023E2
3.129314312E1,1.694342730E3,-4.153386539E2
3.135888502E1,1.694122572E3,-4.160230706E2
3.142462691E1,1.694661363E3,-4.162639706E2
3.149036881E1,1.694824398E3,-4.161789516E2
3.155611071E1,1.694717384E3,-4.161894988E2
3.162185261E1,1.694580076E3,-4.169926346E2
3.168759450E1,1.694309734E3,-4.159761353E2
3.175333640E1,1.694355252E3,-4.160751698E2
3.181907830E1,1.695016210E3,-4.167202163E2
3.188482020E1,1.694748590E3,-4.170637946E2
3.195056209E1,1.694924311E3,-4.165015879E2
3.201630399E1,1.694774809E3,-4.162334638E2
3.208204589E1,1.694406673E3,-4.149315258E2
3.214778779E1,1.694284791E3,-4.141458740E2
3.221352968E1,1.693709014E3,-4.142005291E2
3.227927158E1,1.693525369E3,-4.144671647E2
3.234501348E1,1.693680926E3,-4.150096176E2
3.241075537E1,1.693653946E3,-4.140283122E2
3.247649727E1,1.694090474E3,-4.139764315E2
3.254223917E1,1.695258765E3,-4.143426098E2
3.260798107E1,1.695305474E3,-4.143912623E2
3.267372296E1,1.694542766E3,-4.140878007E2
3.273946486E1,1.694451354E3,-4.136477883E2
3.280520676E1,1.694596939E3,-4.126534822E2
3.287094866E1,1.693948661E3,-4.133257020E2
3.293669055E1,1.694257301E3,-4.137817502E2
3.300243245E1,1.694761970E3,-4.143423012E2
3.306817435E1,1.696002139E3,-4.140550337E2
3.313391624E1,1.697279252E3,-4.143191973E2
3.319965814E1,1.697546116E3,-4.151756457E2
3.326540004E1,1.697645421E3,-4.145694660E2
3.333114194E1,1.697617047E3,-4.150515361E2
3.339688383E1,1.698596755E3,-4.159419237E2
3.346262573E1,1.698857363E3,-4.163313714E2
3.352836763E1,1.698629812E3,-4.163622689E2
3.359410953E1,1.698453163E3,-4.163033210E2
3.365985142E1,1.697411631E3,-4.157977063E2
3.372559332E1,1.697040447E3,-4.149958366E2
3.379133522E1,1.696869900E3,-4.153486480E2
3.385707712E1,1.696530888E3,-4.160229760E2
3.392281901E1,1.696440216E3,-4.150313060E2
3.398856091E1,1.695554499E3,-4.144870734E2
3.405430281E1,1.695287182E3,-4.142063677E2
3.412004470E1,1.693478750E3,-4.149428907E2
3.418578660E1,1.692902118E3,-4.151078853E2
3.425152850E1,1.693262193E3,-4.149801503E2
3.431727040E1,1.694059032E3,-4.151926186E2
3.438301229E1,1.694381773E3,-4.153516850E2
3.444875419E1,1.693721917E3,-4.153309372E2
3.451449609E1,1.693334639E3,-4.150828526E2
3.458023799E1,1.693221520E3,-4.149357900E2
3.464597988E1,1.693436503E3,-4.160452516E2
3.471172178E1,1.693583250E3,-4.154614337E2
3.477746368E1,1.693592605E3,-4.151357349E2
3.484320557E1,1.694352820E3,-4.149430060E2
3.490894747E1,1.694087829E3,-4.150050516E2
3.497468937E1,1.695104564E3,-4.141845464E2
3.504043127E1,1.694598766E3,-4.145144613E2
3.510617316E1,1.694115798E3,-4.149150230E2
3.517191506E1,1.694083807E3,-4.149443100E2
3.523765696E1,1.694385402E3,-4.148015526E2
3.530339886E1,1.694369104E3,-4.141167574E2
3.536914075E1,1.694680837E3,-4.141067010E2
3.543488265E1,1.696035187E3,-4.118870609E2
3.550062455E1,1.696620209E3,-4.124620917E2
3.556636645E1,1.696273552E3,-4.119363242E2
3.563210834E1,1.696948626E3,-4.123504746E2
3.569785024E1,1.697116641E3,-4.119749310E2
3.576359214E1,1.697381322E3,-4.119571084E2
3.582933403E1,1.698928599E3,-4.114220724E2
3.589507593E1,1.698686032E3,-4.111952263E2
3.596081783E1,1.698810822E3,-4.116806732E2
3.602655973E1,1.697598768E3,-4.111935385E2
3.609230162E1,1.698506104E3,-4.102364603E2
3.615804352E1,1.698563443E3,-4.113555017E2
3.622378542E1,1.698216503E3,-4.117841701E2
3.628952732E1,1.697527831E3,-4.120696180E2
3.635526921E1,1.698267428E3,-4.120269877E2
3.642101111E1,1.698952496E3,-4.123951534E2
3.648675301E1,1.698738803E3,-4.112616128E2
3.655249491E1,1.698744946E3,-4.115123732E2
3.661823680E1,1.698047727E3,-4.110341382E2
3.668397870E1,1.698296204E3,-4.102967926E2
3.674972060E1,1.698371244E3,-4.118789433E2
3.681546249E1,1.698291924E3,-4.119951167E2
3.688120439E1,1.698760061E3,-4.125106032E2
3.694694629E1,1.698355091E3,-4.129954772E2
3.701268819E1,1.697437744E3,-4.132169764E2
3.707843008E1,1.697263960E3,-4.121401722E2
3.714417198E1,1.698140858E3,-4.120630565E2
3.720991388E1,1.698368860E3,-4.111297093E2
3.727565578E1,1.697885861E3,-4.113184190E2
3.734139767E1,1.696964302E3,-4.113509528E2
3.740713957E1,1.696497846E3,-4.112944785E2
3.747288147E1,1.695348013E3,-4.119081741E2
3.753862336E1,1.695593095E3,-4.122343143E2
3.760436526E1,1.696359836E3,-4.121991580E2
3.767010716E1,1.696222411E3,-4.118630526E2
3.773584906E1,1.696287787E3,-4.111787671E2
3.780159095E1,1.696692262E3,-4.113489556E2
3.786733285E1,1.696691089E3,-4.114243230E2
3.793307475E1,1.696412320E3,-4.111259762E2
3.799881665E1,1.696466739E3,-4.103768497E2
3.806455854E1,1.695248596E3,-4.097798570E2
3.813030044E1,1.695630671E3,-4.084756659E2
3.819604234E1,1.695500010E3,-4.074852624E2
3.826178424E1,1.694382362E3,-4.078276400E2
3.832752613E1,1.694682784E3,-4.072422529E2
3.839326803E1,1.694659828E3,-4.073879859E2
3.845900993E1,1.694438475E3,-4.080909294E2
3.852475182E1,1.694345757E3,-4.081898268E2
3.859049372E1,1.694593684E3,-4.082039287E2
3.865623562E1,1.694669654E3,-4.081924632E2
3.872197752E1,1.695341460E3,-4.071688682E2
3.878771941E1,1.694628128E3,-4.080498999E2
3.885346131E1,1.695241076E3,-4.090251629E2
3.891920321E1,1.695077304E3,-4.100353218E2
3.898494511E1,1.693755874E3,-4.115858350E2
3.905068700E1,1.691258957E3,-4.131168373E2
3.911642890E1,1.690168152E3,-4.137501892E2
3.918217080E1,1.689524532E3,-4.141303048E2
3.924791269E1,1.689491114E3,-4.142949083E2
3.931365459E1,1.688944139E3,-4.152549064E2
3.937939649E1,1.688362840E3,-4.149480836E2
3.944513839E1,1.689174754E3,-4.141695868E2
3.951088028E1,1.690046066E3,-4.141261222E2
3.957662218E1,1.689801243E3,-4.142780116E2
3.964236408E1,1.689613665E3,-4.141025250E2
3.970810598E1,1.689434871E3,-4.133485539E2
3.977384787E1,1.688944344E3,-4.132895060E2
3.983958977E1,1.688999430E3,-4.130264798E2
3.990533167E1,1.689320293E3,-4.130966024E2
3.997107357E1,1.689495076E3,-4.133229105E2
4.003681546E1,1.689811637E3,-4.136859596E2
4.010255736E1,1.689571701E3,-4.133713142E2
4.016829926E1,1.688666387E3,-4.140379162E2
4.023404115E1,1.689446764E3,-4.134388583E2
4.029978305E1,1.689810739E3,-4.140835877E2
4.036552495E1,1.690140512E3,-4.139488009E2
4.043126685E1,1.691248904E3,-4.132910019E2
4.049700874E1,1.691333614E3,-4.132743794E2
4.056275064E1,1.690884870E3,-4.141895987E2
4.062849254E1,1.690661819E3,-4.143284456E2
4.069423444E1,1.690813397E3,-4.144673693E2
4.075997633E1,1.689932884E3,-4.144584806E2
4.082571823E1,1.689653591E3,-4.150342552E2
4.089146013E1,1.689474956E3,-4.148743164E2
4.095720202E1,1.690192754E3,-4.140475952E2
4.102294392E1,1.689640514E3,-4.141143122E2
4.108868582E1,1.690146896E3,-4.130679530E2
4.115442772E1,1.689629339E3,-4.130515328E2
4.122016961E1,1.689779096E3,-4.123747962E2
4.128591151E1,1.689465409E3,-4.119309295E2
4.135165341E1,1.689486114E3,-4.125766760E2
4.141739531E1,1.689532760E3,-4.123059954E2
4.148313720E1,1.689735553E3,-4.132690323E2
4.154887910E1,1.690281618E3,-4.132234740E2
4.161462100E1,1.690462519E3,-4.142276839E2
4.168036290E1,1.690607336E3,-4.149938429E2
4.174610479E1,1.691122924E3,-4.141368325E2
4.181184669E1,1.690353764E3,-4.139167953E2
4.187758859E1,1.689849115E3,-4.134724887E2
4.194333048E1,1.690199100E3,-4.131950963E2
4.200907238E1,1.690343314E3,-4.140982812E2
4.207481428E1,1.690847311E3,-4.153526128E2
4.214055618E1,1.690292189E3,-4.147376934E2
4.220629807E1,1.690374138E3,-4.131596633E2
4.227203997E1,1.689574257E3,-4.130379191E2
4.233778187E1,1.689418654E3,-4.131443835E2
4.240352377E1,1.689413379E3,-4.128904012E2
4.246926566E1,1.688840689E3,-4.132205520E2
4.253500756E1,1.689339658E3,-4.130285801E2
4.260074946E1,1.690232183E3,-4.128922423E2
4.266649135E1,1.690478434E3,-4.131888781E2
4.273223325E1,1.690946104E3,-4.133344781E2
4.279797515E1,1.690620461E3,-4.124691105E2
4.286371705E1,1.689773407E3,-4.123080973E2
4.292945894E1,1.690319055E3,-4.112045634E2
4.299520084E1,1.689628141E3,-4.125552289E2
4.306094274E1,1.688516999E3,-4.130658567E2
4.312668464E1,1.688911925E3,-4.136050473E2
4.319242653E1,1.689247354E3,-4.130264714E2
4.325816843E1,1.689445145E3,-4.131751680E2
4.332391033E1,1.688094613E3,-4.129517453E2
4.338965223E1,1.687608302E3,-4.130981849E2
4.345539412E1,1.688644362E3,-4.134297256E2
4.352113602E1,1.689593296E3,-4.134004357E2
4.358687792E1,1.689602578E3,-4.131569666E2
4.365261981E1,1.689332962E3,-4.120874091E2
4.371836171E1,1.688303716E3,-4.118771190E2
4.378410361E1,1.688323807E3,-4.110624372E2
4.384984551E1,1.687842970E3,-4.105075388E2
4.391558740E1,1.687390866E3,-4.100856067E2
4.398132930E1,1.687407083E3,-4.092734347E2
4.404707120E1,1.687638437E3,-4.095544768E2
4.411281310E1,1.686571877E3,-4.101018910E2
4.417855499E1,1.686195887E3,-4.098049889E2
4.424429689E1,1.686698322E3,-4.103758492E2
4.431003879E1,1.686466178E3,-4.101801097E2
4.437578069E1,1.687222659E3,-4.081498019E2
4.444152258E1,1.686846500E3,-4.074875446E2
4.450726448E1,1.686350105E3,-4.067709010E2
4.457300638E1,1.686156101E3,-4.059602704E2
4.463874827E1,1.686059336E3,-4.049670263E2
4.470449017E1,1.686184979E3,-4.052610047E2
4.477023207E1,1.685979859E3,-4.051266251E2
4.483597397E1,1.686260728E3,-4.053077604E2
4.490171586E1,1.685498708E3,-4.058708213E2
4.496745776E1,1.685229656E3,-4.060797153E2
4.503319966E1,1.685749856E3,-4.074025534E2
4.509894156E1,1.686094227E3,-4.059987052E2
4.516468345E1,1.685892995E3,-4.064559431E2
4.523042535E1,1.685440136E3,-4.058967126E2
4.529616725E1,1.685794200E3,-4.065332379E2
4.536190914E1,1.685102067E3,-4.060946940E2
4.542765104E1,1.685353538E3,-4.062125858E2
4.549339294E1,1.685758982E3,-4.073063619E2
4.555913484E1,1.685429959E3,-4.067879932E2
4.562487673E1,1.685452931E3,-4.068303633E2
4.569061863E1,1.685698325E3,-4.066072695E2
4.575636053E1,1.685170382E3,-4.061373571E2
4.582210243E1,1.684454091E3,-4.062252553E2
4.588784432E1,1.684732054E3,-4.066380683E2
4.595358622E1,1.685401026E3,-4.065248121E2
4.601932812E1,1.685839892E3,-4.065526238E2
4.608507002E1,1.685370231E3,-4.061872457E2
4.615081191E1,1.685594220E3,-4.063893419E2
4.621655381E1,1.686533490E3,-4.074819828E2
4.628229571E1,1.687030981E3,-4.078319014E2
4.634803760E1,1.686323053E3,-4.088076643E2
4.641377950E1,1.687864486E3,-4.093283976E2
4.647952140E1,1.688338476E3,-4.092027677E2
4.654526330E1,1.687844244E3,-4.094304551E2
4.661100519E1,1.687287010E3,-4.090177366E2
4.667674709E1,1.687602893E3,-4.092970276E2
4.674248899E1,1.692502694E3,-4.070704799E2
4.680823089E1,1.692110905E3,-4.069988347E2
4.687397278E1,1.689349861E3,-4.060456255E2
4.693971468E1,1.688798462E3,-4.053377434E2
4.700545658E1,1.687956111E3,-4.051854741E2
4.707119847E1,1.688412392E3,-4.051231228E2
4.713694037E1,1.689110846E3,-4.050331475E2
4.720268227E1,1.691396918E3,-4.051034173E2
4.726842417E1,1.690476515E3,-4.053792778E2
4.733416606E1,1.689846581E3,-4.073973548E2
4.739990796E1,1.690543936E3,-4.063286890E2
4.746564986E1,1.689866688E3,-4.065077328E2
4.753139176E1,1.689018298E3,-4.048109801E2
4.759713365E1,1.689401904E3,-4.039191934E2
4.766287555E1,1.688981361E3,-4.028678644E2
4.772861745E1,1.689222644E3,-4.021740199E2
4.779435935E1,1.689827835E3,-4.025666970E2
4.786010124E1,1.689489104E3,-4.023366324E2
4.792584314E1,1.689606495E3,-4.024921239E2
4.799158504E1,1.688875057E3,-4.031423226E2
4.805732693E1,1.689111099E3,-4.018407822E2
4.812306883E1,1.690207384E3,-4.010085797E2
4.818881073E1,1.690373223E3,-4.019609948E2
4.825455263E1,1.690767404E3,-4.031996222E2
4.832029452E1,1.691242147E3,-4.028758122E2
4.838603642E1,1.692560756E3,-4.031972576E2
4.845177832E1,1.692656442E3,-4.033042013E2
4.851752022E1,1.693138923E3,-4.031602103E2
4.858326211E1,1.692032891E3,-4.028484345E2
4.864900401E1,1.692603588E3,-4.015114364E2
4.871474591E1,1.690646354E3,-4.010701179E2
4.878048780E1,1.691199227E3,-3.999953227E2
4.884622970E1,1.692110457E3,-3.999944923E2
4.891197160E1,1.692426532E3,-3.993344168E2
4.897771350E1,1.692493495E3,-3.993030274E2
4.904345539E1,1.692865201E3,-3.994528991E2
4.910919729E1,1.693460544E3,-3.990110247E2
4.917493919E1,1.693809177E3,-3.995478629E2
4.924068109E1,1.693615656E3,-4.002346403E2
4.930642298E1,1.693999303E3,-3.990114636E2
4.937216488E1,1.694256072E3,-3.998179501E2
4.943790678E1,1.694605646E3,-3.992086319E2
4.950364868E1,1.694176557E3,-3.979730104E2
4.956939057E1,1.693935307E3,-3.983034048E2
4.963513247E1,1.693930296E3,-3.984614811E2
4.970087437E1,1.695333749E3,-3.979936438E2
4.976661626E1,1.696296046E3,-3.979334393E2
4.983235816E1,1.696445526E3,-3.978998000E2
4.989810006E1,1.697895272E3,-3.975071233E2
4.996384196E1,1.697261066E3,-3.962086153E2
5.002958385E1,1.695502560E3,-3.969811335E2
5.009532575E1,1.695561875E3,-3.971082216E2
5.016106765E1,1.696150127E3,-3.968764193E2
5.022680955E1,1.695572248E3,-3.973768545E2
5.029255144E1,1.695413456E3,-3.970126118E2
5.035829334E1,1.695327556E3,-3.968843154E2
5.042403524E1,1.695629570E3,-3.963187830E2
5.048977713E1,1.695631913E3,-3.960983380E2
5.055551903E1,1.696412682E3,-3.961270634E2
5.062126093E1,1.696218168E3,-3.951818707E2
5.068700283E1,1.696529958E3,-3.955963027E2
5.075274472E1,1.695623324E3,-3.971955153E2
5.081848662E1,1.695909372E3,-3.965800537E2
5.088422852E1,1.695812078E3,-3.965043431E2
5.094997042E1,1.694821779E3,-3.972131056E2
5.101571231E1,1.693910880E3,-3.972746900E2
5.108145421E1,1.694722776E3,-3.970949494E2
5.114719611E1,1.695391365E3,-3.961351211E2
5.121293801E1,1.695706709E3,-3.954580253E2
5.127867990E1,1.696068685E3,-3.950848448E2
5.134442180E1,1.695855293E3,-3.963116219E2
5.141016370E1,1.696084406E3,-3.969640049E2
5.147590559E1,1.696219568E3,-3.978684268E2
5.154164749E1,1.696651579E3,-3.983292266E2
5.160738939E1,1.696134361E3,-3.981929289E2
5.167313129E1,1.696201265E3,-3.980587013E2
5.173887318E1,1.696394612E3,-3.980970608E2
5.180461508E1,1.696338673E3,-3.978893003E2
5.187035698E1,1.695604952E3,-3.982955033E2
5.193609888E1,1.695271701E3,-3.979242291E2
5.200184077E1,1.695319065E3,-3.980832102E2
5.206758267E1,1.695496409E3,-3.974996870E2
5.213332457E1,1.695203565E3,-3.979129701E2
5.219906647E1,1.695372948E3,-3.982509392E2
5.226480836E1,1.695338831E3,-3.981338697E2
5.233055026E1,1.695401050E3,-3.980762141E2
5.239629216E1,1.695711399E3,-3.982788286E2
5.246203405E1,1.695804594E3,-3.992315400E2
5.252777595E1,1.696462602E3,-3.990621855E2
5.259351785E1,1.696264487E3,-3.989839510E2
5.265925975E1,1.696531906E3,-3.989496525E2
5.272500164E1,1.696387357E3,-3.980757366E2
5.279074354E1,1.696997263E3,-3.960339336E2
5.285648544E1,1.696531925E3,-3.959873134E2
5.292222734E1,1.696352288E3,-3.952747728E2
5.298796923E1,1.697203503E3,-3.952832625E2
5.305371113E1,1.696548002E3,-3.961111992E2
5.311945303E1,1.697340080E3,-3.953176296E2
5.318519492E1,1.697461825E3,-3.952441241E2
5.325093682E1,1.697689424E3,-3.961231252E2
5.331667872E1,1.698391610E3,-3.958710748E2
5.338242062E1,1.698521021E3,-3.960038854E2
5.344816251E1,1.699452715E3,-3.953092513E2
5.351390441E1,1.699775117E3,-3.953020570E2
5.357964631E1,1.699506689E3,-3.951516185E2
5.364538821E1,1.698547295E3,-3.949859767E2
5.371113010E1,1.699330726E3,-3.949441138E2
5.377687200E1,1.699586539E3,-3.943218392E2
5.384261390E1,1.699873366E3,-3.945336271E2
5.390835580E1,1.699537988E3,-3.942176934E2
5.397409769E1,1.699191063E3,-3.939803843E2
5.403983959E1,1.699626305E3,-3.951205454E2
5.410558149E1,1.700356347E3,-3.952630220E2
5.417132338E1,1.700737349E3,-3.955248175E2
5.423706528E1,1.700189659E3,-3.958049313E2
5.430280718E1,1.700165100E3,-3.952347698E2
5.436854908E1,1.699272850E3,-3.949066899E2
5.443429097E1,1.698527754E3,-3.942972490E2
5.450003287E1,1.699329723E3,-3.948666617E2
5.456577477E1,1.699967273E3,-3.948331301E2
5.463151667E1,1.699931627E3,-3.942970205E2
5.469725856E1,1.699920056E3,-3.934144353E2
5.476300046E1,1.700597527E3,-3.933606400E2
5.482874236E1,1.700799134E3,-3.934026222E2
5.489448425E1,1.701496577E3,-3.923647820E2
5.496022615E1,1.701918963E3,-3.934592906E2
5.502596805E1,1.701889914E3,-3.933860524E2
5.509170995E1,1.701602382E3,-3.923909539E2
5.515745184E1,1.700679826E3,-3.922319712E2
5.522319374E1,1.700778229E3,-3.922481353E2
5.528893564E1,1.699768249E3,-3.921245438E2
5.535467754E1,1.699639146E3,-3.913994796E2
5.542041943E1,1.699187655E3,-3.909741471E2
5.548616133E1,1.698822272E3,-3.913709873E2
5.555190323E1,1.699002937E3,-3.909412937E2
5.561764513E1,1.698522170E3,-3.911836234E2
5.568338702E1,1.698724577E3,-3.921912612E2
5.574912892E1,1.698846180E3,-3.915394448E2
5.581487082E1,1.697949447E3,-3.923381322E2
5.588061271E1,1.698336955E3,-3.922601086E2
5.594635461E1,1.697987071E3,-3.919138867E2
5.601209651E1,1.697546552E3,-3.932518090E2
5.607783841E1,1.697528305E3,-3.932340225E2
5.614358030E1,1.697690081E3,-3.924760200E2
5.620932220E1,1.698198045E3,-3.922145939E2
5.627506410E1,1.698369262E3,-3.919612833E2
5.634080600E1,1.697830020E3,-3.932181780E2
5.640654789E1,1.697448655E3,-3.930772667E2
5.647228979E1,1.697938804E3,-3.925553981E2
5.653803169E1,1.698158218E3,-3.929550702E2
5.660377358E1,1.697844812E3,-3.942774299E2
5.666951548E1,1.698275194E3,-3.939755009E2
5.673525738E1,1.698498002E3,-3.933175532E2
5.680099928E1,1.698282826E3,-3.930306605E2
5.686674117E1,1.699326610E3,-3.929632507E2
5.693248307E1,1.700264971E3,-3.922376434E2
5.699822497E1,1.698224805E3,-3.921550426E2
5.706396687E1,1.697598983E3,-3.922018980E2
5.712970876E1,1.697870923E3,-3.922849673E2
5.719545066E1,1.697692556E3,-3.921350724E2
5.726119256E1,1.697514490E3,-3.922585772E2
5.732693446E1,1.696316301E3,-3.928264730E2
5.739267635E1,1.695670365E3,-3.932126033E2
5.745841825E1,1.696351724E3,-3.921783405E2
5.752416015E1,1.696552694E3,-3.921617960E2
5.758990204E1,1.695958038E3,-3.923120332E2
5.765564394E1,1.696255763E3,-3.922015563E2
5.772138584E1,1.697044663E3,-3.919939869E2
5.778712774E1,1.697237071E3,-3.911658183E2
5.785286963E1,1.697618017E3,-3.911667673E2
5.791861153E1,1.698775605E3,-3.903198407E2
5.798435343E1,1.698243622E3,-3.900343392E2
5.805009533E1,1.697582608E3,-3.902203036E2
5.811583722E1,1.698030166E3,-3.900143765E2
5.818157912E1,1.697794790E3,-3.902743221E2
5.824732102E1,1.698505213E3,-3.890858581E2
5.831306291E1,1.699406221E3,-3.892357486E2
5.837880481E1,1.698655064E3,-3.891309675E2
5.844454671E1,1.698462026E3,-3.883889637E2
5.851028861E1,1.698104517E3,-3.880850816E2
5.857603050E1,1.698304319E3,-3.882152795E2
5.864177240E1,1.698714238E3,-3.885609008E2
5.870751430E1,1.697909427E3,-3.894397722E2
5.877325620E1,1.696434413E3,-3.899811239E2
5.883899809E1,1.697375424E3,-3.902077511E2
5.890473999E1,1.698319322E3,-3.901910109E2
5.897048189E1,1.698080900E3,-3.901492795E2
5.903622379E1,1.698389582E3,-3.909645150E2
5.910196568E1,1.698642276E3,-3.903899913E2
5.916770758E1,1.698223910E3,-3.902027600E2
5.923344948E1,1.698237425E3,-3.902039924E2
5.929919137E1,1.697660673E3,-3.912537760E2
5.936493327E1,1.698515486E3,-3.912912115E2
5.943067517E1,1.697778924E3,-3.912356846E2
5.949641707E1,1.698387187E3,-3.911561989E2
5.956215896E1,1.698380896E3,-3.901552072E2
5.962790086E1,1.698295853E3,-3.890624253E2
5.969364276E1,1.698034986E3,-3.889022589E2
5.975938466E1,1.698645996E3,-3.884686465E2
5.982512655E1,1.697398682E3,-3.889472612E2
5.989086845E1,1.698240624E3,-3.888813601E2
5.995661035E1,1.698443865E3,-3.891842991E2
6.002235225E1,1.697380473E3,-3.900477484E2
6.008809414E1,1.697514884E3,-3.901625552E2
6.015383604E1,1.697929846E3,-3.906181382E2
6.021957794E1,1.697663756E3,-3.903493880E2
6.028531983E1,1.698431004E3,-3.892800216E2
6.035106173E1,1.698272196E3,-3.890833263E2
6.041680363E1,1.698108072E3,-3.880110077E2
6.048254553E1,1.698872408E3,-3.884370051E2
6.054828742E1,1.698540533E3,-3.882523896E2
6.061402932E1,1.698599167E3,-3.882382195E2
6.067977122E1,1.698169259E3,-3.888775968E2
6.074551312E1,1.698564000E3,-3.890306532E2
6.081125501E1,1.699623732E3,-3.893312485E2
6.087699691E1,1.699354063E3,-3.891735634E2
6.094273881E1,1.699596756E3,-3.891780905E2
6.100848070E1,1.699845937E3,-3.893707652E2
6.107422260E1,1.699666674E3,-3.892371003E2
6.113996450E1,1.699527451E3,-3.891722488E2
6.120570640E1,1.698816831E3,-3.892103861E2
6.127144829E1,1.698362038E3,-3.890067265E2
6.133719019E1,1.698691305E3,-3.891218569E2
6.140293209E1,1.699094100E3,-3.879827379E2
6.146867399E1,1.698610473E3,-3.871914344E2
6.153441588E1,1.698455850E3,-3.870609153E2
6.160015778E1,1.698277135E3,-3.870852493E2
6.166589968E1,1.699147113E3,-3.871269269E2
6.173164158E1,1.699077552E3,-3.880061601E2
6.179738347E1,1.698546814E3,-3.891049577E2
6.186312537E1,1.699098747E3,-3.888787436E2
6.192886727E1,1.699205868E3,-3.889981358E2
6.199460916E1,1.699402857E3,-3.890693828E2
6.206035106E1,1.699567778E3,-3.892546315E2
6.212609296E1,1.699464152E3,-3.892151816E2
6.219183486E1,1.699225211E3,-3.890276018E2
6.225757675E1,1.699537255E3,-3.891056390E2
6.232331865E1,1.699101174E3,-3.887957832E2
6.238906055E1,1.699602775E3,-3.892351820E2
6.245480245E1,1.700457820E3,-3.882482115E2
6.252054434E1,1.699611368E3,-3.883346706E2
6.258628624E1,1.698841427E3,-3.885013105E2
6.265202814E1,1.698494271E3,-3.881331033E2
6.271777003E1,1.699039711E3,-3.879754985E2
6.278351193E1,1.699130457E3,-3.880631451E2
6.284925383E1,1.698848048E3,-3.875431670E2
6.291499573E1,1.699117728E3,-3.870093827E2
6.298073762E1,1.699282531E3,-3.869835193E2
6.304647952E1,1.701116099E3,-3.870051891E2
6.311222142E1,1.701823554E3,-3.873297378E2
6.317796332E1,1.702880871E3,-3.875567764E2
6.324370521E1,1.703996830E3,-3.871651948E2
6.330944711E1,1.703759367E3,-3.883382440E2
6.337518901E1,1.703628222E3,-3.883017209E2
6.344093091E1,1.702429895E3,-3.881723089E2
6.350667280E1,1.702449112E3,-3.881770367E2
6.357241470E1,1.701937260E3,-3.883321202E2
6.363815660E1,1.702419269E3,-3.882010760E2
6.370389849E1,1.702393888E3,-3.881139306E2
6.376964039E1,1.702207584E3,-3.880318354E2
6.383538229E1,1.702279427E3,-3.889469139E2
6.390112419E1,1.702475604E3,-3.891594152E2
6.396686608E1,1.702253256E3,-3.881481262E2
6.403260798E1,1.702553181E3,-3.882054897E2
6.409834988E1,1.702664129E3,-3.882415555E2
6.416409178E1,1.703602033E3,-3.874518000E2
6.422983367E1,1.702657673E3,-3.872285602E2
6.429557557E1,1.702783944E3,-3.874030743E2
6.436131747E1,1.703109975E3,-3.869997149E2
6.442705936E1,1.703024550E3,-3.870959567E2
6.449280126E1,1.702901587E3,-3.874429230E2
6.455854316E1,1.702536469E3,-3.872903965E2
6.462428506E1,1.701896229E3,-3.873324437E2
6.469002695E1,1.701966558E3,-3.871418513E2
6.475576885E1,1.701752889E3,-3.872042598E2
6.482151075E1,1.702589138E3,-3.863648348E2
6.488725265E1,1.702379574E3,-3.861525019E2
6.495299454E1,1.702168042E3,-3.862397974E2
6.501873644E1,1.701532395E3,-3.862165770E2
6.508447834E1,1.700436153E3,-3.851306970E2
6.515022024E1,1.701200401E3,-3.842158033E2
6.521596213E1,1.701870518E3,-3.845031481E2
6.528170403E1,1.701323875E3,-3.849703937E2
6.534744593E1,1.701984389E3,-3.849456096E2
6.541318782E1,1.702337287E3,-3.851358323E2
6.547892972E1,1.701765339E3,-3.862373778E2
6.554467162E1,1.702381377E3,-3.860633219E2
6.561041352E1,1.701818398E3,-3.861278312E2
6.567615541E1,1.701565722E3,-3.860636653E2
6.574189731E1,1.701595857E3,-3.860950580E2
6.580763921E1,1.701264051E3,-3.859868995E2
