Number of measurement points: 1332
Sample Rate (Hz): 10
Low limit Ch0 (V): -5
Upper limit Ch0 (V): 5
Low limit Ch1 (V): -10
Upper limit Ch1 (V): 10

Index	Time[s]	Ch0[V]	Ch1[V]
0	0	0	-8.9111328125
1	0.1	0	-8.9111328125
2	0.2	0	-8.9111328125
3	0.3	-0.00244140625	-8.9111328125
4	0.4	0	-8.9111328125
5	0.5	0	-8.9111328125
6	0.6	0	-8.916015625
7	0.7	0	-8.9111328125
8	0.8	0	-8.9111328125
9	0.9	0	-8.9111328125
10	1	0	-8.916015625
11	1.1	0	-8.916015625
12	1.2	0	-8.916015625
13	1.3	0	-8.916015625
14	1.4	0	-8.916015625
15	1.5	0	-8.916015625
16	1.6	0	-8.916015625
17	1.7	0	-8.916015625
18	1.8	0	-8.9111328125
19	1.9	0	-8.9111328125
20	2	0	-8.9111328125
21	2.1	0	-8.90625
22	2.2	0	-8.9013671875
23	2.3	0	-8.9013671875
24	2.4	0	-8.9013671875
25	2.5	0	-8.9013671875
26	2.6	0	-8.896484375
27	2.7	0	-8.896484375
28	2.8	0	-8.9013671875
29	2.9	0	-8.9013671875
30	3	-0.00244140625	-8.896484375
31	3.1	0	-8.896484375
32	3.2	0	-8.896484375
33	3.3	0	-8.8916015625
34	3.4	0	-8.88671875
35	3.5	0	-8.88671875
36	3.6	0	-8.8818359375
37	3.7	-0.00244140625	-8.8818359375
38	3.8	0	-8.876953125
39	3.9	0	-8.876953125
40	4	0	-8.8720703125
41	4.1	-0.00244140625	-8.8671875
42	4.2	0	-8.8671875
43	4.3	-0.00244140625	-8.8623046875
44	4.4	0	-8.8671875
45	4.5	0	-8.8671875
46	4.6	0	-8.8623046875
47	4.7	0	-8.857421875
48	4.8	0	-8.84765625
49	4.9	0	-8.84765625
50	5	0	-8.84765625
51	5.1	0	-8.84765625
52	5.2	0	-8.8427734375
53	5.3	-0.00244140625	-8.8427734375
54	5.4	0	-8.837890625
55	5.5	0	-8.8330078125
56	5.6	0	-8.8330078125
57	5.7	-0.00244140625	-8.828125
58	5.8	0	-8.8232421875
59	5.9	0	-8.8232421875
60	6	0	-8.8232421875
61	6.1	0	-8.8232421875
62	6.2	0	-8.8232421875
63	6.3	0	-8.818359375
64	6.4	0	-8.8232421875
65	6.5	-0.00244140625	-8.8134765625
66	6.6	0	-8.8134765625
67	6.7	0	-8.8134765625
68	6.8	-0.00244140625	-8.80859375
69	6.9	0	-8.80859375
70	7	0	-8.80859375
71	7.1	-0.00244140625	-8.8037109375
72	7.2	0	-8.8037109375
73	7.3	0	-8.798828125
74	7.4	0	-8.798828125
75	7.5	0	-8.7939453125
76	7.6	0	-8.7939453125
77	7.7	0	-8.7939453125
78	7.8	0	-8.7890625
79	7.9	0	-8.7890625
80	8	-0.00244140625	-8.7890625
81	8.1	0	-8.7841796875
82	8.2	0	-8.7841796875
83	8.3	0	-8.7841796875
84	8.4	0	-8.7841796875
85	8.5	0	-8.779296875
86	8.6	-0.00244140625	-8.779296875
87	8.7	0	-8.7744140625
88	8.8	0	-8.76953125
89	8.9	0	-8.7744140625
90	9	0	-8.7744140625
91	9.1	0	-8.7744140625
92	9.2	0	-8.76953125
93	9.3	0	-8.76953125
94	9.4	-0.00244140625	-8.759765625
95	9.5	0	-8.759765625
96	9.6	0	-8.759765625
97	9.7	0	-8.7548828125
98	9.8	0	-8.7451171875
99	9.9	0	-8.7451171875
100	10	0	-8.740234375
101	10.1	0	-8.7353515625
102	10.2	0	-8.73046875
103	10.3	0	-8.73046875
104	10.4	0	-8.73046875
105	10.5	0	-8.7255859375
106	10.6	0	-8.720703125
107	10.7	0	-8.7158203125
108	10.8	0	-8.7109375
109	10.9	0	-8.7060546875
110	11	0	-8.701171875
111	11.1	0	-8.701171875
112	11.2	0	-8.6865234375
113	11.3	0	-8.6962890625
114	11.4	0	-8.69140625
115	11.5	0	-8.69140625
116	11.6	0	-8.6865234375
117	11.7	0	-8.6865234375
118	11.8	0	-8.6865234375
119	11.9	0	-8.681640625
120	12	0	-8.6328125
121	12.1	0	-8.662109375
122	12.2	0	-8.6669921875
123	12.3	-0.00244140625	-8.662109375
124	12.4	0	-8.662109375
125	12.5	0	-8.6572265625
126	12.6	0	-8.6572265625
127	12.7	0	-8.6572265625
128	12.8	0	-8.6572265625
129	12.9	0	-8.65234375
130	13	0	-8.6474609375
131	13.1	0	-8.642578125
132	13.2	0	-8.642578125
133	13.3	0	-8.6376953125
134	13.4	-0.00244140625	-8.6181640625
135	13.5	0	-8.6376953125
136	13.6	0	-8.6376953125
137	13.7	0	-8.6376953125
138	13.8	0	-8.6376953125
139	13.9	0	-8.6376953125
140	14	0	-8.6376953125
141	14.1	0	-8.6328125
142	14.2	0	-8.6181640625
143	14.3	0	-8.6279296875
144	14.4	0	-8.6279296875
145	14.5	-0.00244140625	-8.623046875
146	14.6	0	-8.623046875
147	14.7	0	-8.623046875
148	14.8	-0.00244140625	-8.61328125
149	14.9	-0.00244140625	-8.6181640625
150	15	0	-8.6083984375
151	15.1	0	-8.61328125
152	15.2	-0.00244140625	-8.6083984375
153	15.3	0	-8.61328125
154	15.4	-0.00244140625	-8.6083984375
155	15.5	0	-8.5986328125
156	15.6	0	-8.603515625
157	15.7	0	-8.5986328125
158	15.8	0	-8.5986328125
159	15.9	-0.00244140625	-8.59375
160	16	-0.00244140625	-8.5986328125
161	16.1	0	-8.5986328125
162	16.2	-0.00244140625	-8.59375
163	16.3	-0.00244140625	-8.59375
164	16.4	-0.00244140625	-8.583984375
165	16.5	-0.00244140625	-8.583984375
166	16.6	0	-8.583984375
167	16.7	0	-8.5888671875
168	16.8	-0.00244140625	-8.5693359375
169	16.9	-0.00244140625	-8.5791015625
170	17	0	-8.5791015625
171	17.1	-0.00244140625	-8.5791015625
172	17.2	0	-8.5791015625
173	17.3	-0.00244140625	-8.5791015625
174	17.4	0	-8.57421875
175	17.5	-0.00244140625	-8.57421875
176	17.6	-0.00244140625	-8.5791015625
177	17.7	-0.00244140625	-8.5791015625
178	17.8	-0.00244140625	-8.5791015625
179	17.9	0	-8.5791015625
180	18	0	-8.5791015625
181	18.1	-0.00244140625	-8.5791015625
182	18.2	-0.00244140625	-8.583984375
183	18.3	0	-8.583984375
184	18.4	-0.00244140625	-8.583984375
185	18.5	0	-8.5888671875
186	18.6	0	-8.5888671875
187	18.7	0	-8.5888671875
188	18.8	0	-8.5888671875
189	18.9	0	-8.583984375
190	19	0	-8.5888671875
191	19.1	0	-8.5888671875
192	19.2	0	-8.59375
193	19.3	0	-8.5888671875
194	19.4	-0.00244140625	-8.5791015625
195	19.5	0	-8.5888671875
196	19.6	0	-8.5888671875
197	19.7	0	-8.5888671875
198	19.8	0	-8.5888671875
199	19.9	0	-8.5888671875
200	20	0	-8.5888671875
201	20.1	0	-8.583984375
202	20.2	0	-8.583984375
203	20.3	0	-8.5888671875
204	20.4	0	-8.5888671875
205	20.5	0	-8.5888671875
206	20.6	0	-8.5888671875
207	20.7	0	-8.583984375
208	20.8	0	-8.57421875
209	20.9	0	-8.57421875
210	21	0	-8.57421875
211	21.1	0	-8.57421875
212	21.2	0	-8.57421875
213	21.3	0	-8.5693359375
214	21.4	0	-8.5693359375
215	21.5	0	-8.564453125
216	21.6	0	-8.564453125
217	21.7	0	-8.5546875
218	21.8	0	-8.544921875
219	21.9	0	-8.5400390625
220	22	0	-8.53515625
221	22.1	0	-8.5302734375
222	22.2	-0.00244140625	-8.5205078125
223	22.3	0	-8.5205078125
224	22.4	0	-8.5107421875
225	22.5	0	-8.5107421875
226	22.6	0	-8.505859375
227	22.7	0	-8.5009765625
228	22.8	0	-8.49609375
229	22.9	0	-8.4912109375
230	23	0	-8.4912109375
231	23.1	0	-8.486328125
232	23.2	0	-8.4814453125
233	23.3	0	-8.4814453125
234	23.4	0	-8.4765625
235	23.5	0	-8.4716796875
236	23.6	0	-8.4716796875
237	23.7	-0.00244140625	-8.4716796875
238	23.8	0	-8.4716796875
239	23.9	-0.00244140625	-8.4716796875
240	24	0	-8.4716796875
241	24.1	0	-8.466796875
242	24.2	0	-8.466796875
243	24.3	0	-8.466796875
244	24.4	0	-8.4619140625
245	24.5	0	-8.4619140625
246	24.6	0	-8.4619140625
247	24.7	0	-8.466796875
248	24.8	0	-8.4619140625
249	24.9	0	-8.4619140625
250	25	0	-8.4619140625
251	25.1	0	-8.4619140625
252	25.2	0	-8.4619140625
253	25.3	0	-8.45703125
254	25.4	0	-8.45703125
255	25.5	0	-8.4521484375
256	25.6	0	-8.447265625
257	25.7	0	-8.447265625
258	25.8	0	-8.4423828125
259	25.9	0	-8.4423828125
260	26	0	-8.4375
261	26.1	0	-8.4423828125
262	26.2	0	-8.4375
263	26.3	0	-8.4375
264	26.4	0	-8.4326171875
265	26.5	0	-8.4228515625
266	26.6	0	-8.427734375
267	26.7	0	-8.427734375
268	26.8	0	-8.427734375
269	26.9	0	-8.4228515625
270	27	0	-8.41796875
271	27.1	0	-8.41796875
272	27.2	0	-8.41796875
273	27.3	0	-8.4130859375
274	27.4	0	-8.4130859375
275	27.5	0	-8.4033203125
276	27.6	0	-8.3984375
277	27.7	0	-8.3984375
278	27.8	0	-8.3984375
279	27.9	-0.00244140625	-8.3935546875
280	28	0	-8.388671875
281	28.1	0	-8.388671875
282	28.2	0	-8.3837890625
283	28.3	-0.00244140625	-8.37890625
284	28.4	0	-8.37890625
285	28.5	-0.00244140625	-8.37890625
286	28.6	-0.00244140625	-8.37890625
287	28.7	0	-8.3740234375
288	28.8	0	-8.369140625
289	28.9	0	-8.3642578125
290	29	0	-8.3642578125
291	29.1	0	-8.359375
292	29.2	0	-8.3544921875
293	29.3	0	-8.3544921875
294	29.4	0	-8.3544921875
295	29.5	0	-8.3544921875
296	29.6	0	-8.349609375
297	29.7	-0.00244140625	-8.349609375
298	29.8	0	-8.349609375
299	29.9	0	-8.349609375
300	30	0	-8.349609375
301	30.1	0	-8.3447265625
302	30.2	0	-8.3447265625
303	30.3	0	-8.33984375
304	30.4	0	-8.33984375
305	30.5	-0.00244140625	-8.33984375
306	30.6	-0.00244140625	-8.3349609375
307	30.7	0	-8.3349609375
308	30.8	0	-8.3349609375
309	30.9	-0.00244140625	-8.330078125
310	31	0	-8.330078125
311	31.1	0	-8.3349609375
312	31.2	0	-8.330078125
313	31.3	0	-8.3203125
314	31.4	0	-8.3154296875
315	31.5	0	-8.310546875
316	31.6	0	-8.3056640625
317	31.7	0	-8.30078125
318	31.8	0	-8.2958984375
319	31.9	0	-8.291015625
320	32	-0.00244140625	-8.2861328125
321	32.1	0	-8.28125
322	32.2	0	-8.2763671875
323	32.3	0	-8.2763671875
324	32.4	0	-8.271484375
325	32.5	0	-8.2666015625
326	32.6	0	-8.26171875
327	32.7	0	-8.26171875
328	32.8	0	-8.251953125
329	32.9	0	-8.2470703125
330	33	0	-8.2470703125
331	33.1	0	-8.2421875
332	33.2	0	-8.2373046875
333	33.3	0	-8.2373046875
334	33.4	0	-8.232421875
335	33.5	0	-8.2275390625
336	33.6	0	-8.2275390625
337	33.7	0	-8.2275390625
338	33.8	0	-8.2275390625
339	33.9	0	-8.2275390625
340	34	0	-8.2275390625
341	34.1	0	-8.2275390625
342	34.2	0	-8.2275390625
343	34.3	0	-8.2275390625
344	34.4	-0.00244140625	-8.2275390625
345	34.5	-0.00244140625	-8.2275390625
346	34.6	0	-8.2275390625
347	34.7	0	-8.22265625
348	34.8	0	-8.22265625
349	34.9	-0.00244140625	-8.2177734375
350	35	0	-8.2177734375
351	35.1	0	-8.212890625
352	35.2	0	-8.212890625
353	35.3	-0.00244140625	-8.212890625
354	35.4	-0.00244140625	-8.212890625
355	35.5	-0.00244140625	-8.2080078125
356	35.6	0	-8.203125
357	35.7	-0.00244140625	-8.2080078125
358	35.8	-0.00244140625	-8.203125
359	35.9	0	-8.203125
360	36	0	-8.1982421875
361	36.1	0	-8.1982421875
362	36.2	-0.00244140625	-8.1982421875
363	36.3	-0.00244140625	-8.193359375
364	36.4	-0.00244140625	-8.193359375
365	36.5	-0.00244140625	-8.1884765625
366	36.6	-0.00244140625	-8.1884765625
367	36.7	-0.00244140625	-8.1884765625
368	36.8	-0.00244140625	-8.18359375
369	36.9	0	-8.18359375
370	37	-0.00244140625	-8.18359375
371	37.1	-0.00244140625	-8.1787109375
372	37.2	0	-8.1787109375
373	37.3	0	-8.1787109375
374	37.4	0	-8.173828125
375	37.5	-0.00244140625	-8.173828125
376	37.6	-0.00244140625	-8.173828125
377	37.7	-0.00244140625	-8.1640625
378	37.8	-0.00244140625	-8.1591796875
379	37.9	-0.00244140625	-8.1591796875
380	38	-0.00244140625	-8.154296875
381	38.1	0	-8.154296875
382	38.2	-0.00244140625	-8.154296875
383	38.3	-0.00244140625	-8.154296875
384	38.4	0	-8.154296875
385	38.5	0	-8.1494140625
386	38.6	0	-8.14453125
387	38.7	-0.00244140625	-8.1396484375
388	38.8	0	-8.1396484375
389	38.9	0	-8.14453125
390	39	-0.00244140625	-8.1396484375
391	39.1	0	-8.1396484375
392	39.2	0	-8.134765625
393	39.3	-0.00244140625	-8.1298828125
394	39.4	0	-8.1298828125
395	39.5	0	-8.1298828125
396	39.6	0	-8.1298828125
397	39.7	0	-8.1298828125
398	39.8	0	-8.125
399	39.9	0	-8.125
400	40	0	-8.125
401	40.1	0	-8.1201171875
402	40.2	0	-8.1201171875
403	40.3	-0.00244140625	-8.115234375
404	40.4	0	-8.115234375
405	40.5	0	-8.115234375
406	40.6	0	-8.1103515625
407	40.7	-0.00244140625	-8.1103515625
408	40.8	0	-8.10546875
409	40.9	0	-8.10546875
410	41	0	-8.1005859375
411	41.1	0	-8.10546875
412	41.2	0	-8.10546875
413	41.3	0	-8.1005859375
414	41.4	0	-8.1005859375
415	41.5	0	-8.10546875
416	41.6	0	-8.10546875
417	41.7	0	-8.1005859375
418	41.8	0	-8.095703125
419	41.9	0	-8.095703125
420	42	-0.00244140625	-8.095703125
421	42.1	-0.00244140625	-8.0908203125
422	42.2	0	-8.0859375
423	42.3	0	-8.0810546875
424	42.4	0	-8.076171875
425	42.5	-0.00244140625	-8.076171875
426	42.6	0	-8.0712890625
427	42.7	0	-8.06640625
428	42.8	0	-8.0615234375
429	42.9	0	-8.056640625
430	43	0	-8.0517578125
431	43.1	0	-8.046875
432	43.2	0	-8.0419921875
433	43.3	0	-8.0419921875
434	43.4	0	-8.037109375
435	43.5	0	-8.0322265625
436	43.6	0	-8.02734375
437	43.7	0	-8.0224609375
438	43.8	0	-8.017578125
439	43.9	0	-8.017578125
440	44	-0.00244140625	-8.0078125
441	44.1	0	-8.0029296875
442	44.2	0	-7.998046875
443	44.3	0	-7.998046875
444	44.4	0	-7.998046875
445	44.5	-0.00244140625	-7.9931640625
446	44.6	-0.00244140625	-7.9931640625
447	44.7	0	-7.98828125
448	44.8	0	-7.98828125
449	44.9	0	-7.98828125
450	45	0	-7.9833984375
451	45.1	0	-7.9833984375
452	45.2	0	-7.978515625
453	45.3	0	-7.978515625
454	45.4	-0.00244140625	-7.9736328125
455	45.5	-0.00244140625	-7.9736328125
456	45.6	-0.00244140625	-7.9736328125
457	45.7	-0.00244140625	-7.96875
458	45.8	-0.00244140625	-7.9638671875
459	45.9	-0.00244140625	-7.9638671875
460	46	-0.00244140625	-7.9638671875
461	46.1	-0.00244140625	-7.96875
462	46.2	-0.00244140625	-7.9638671875
463	46.3	-0.00244140625	-7.9638671875
464	46.4	0	-7.958984375
465	46.5	0	-7.958984375
466	46.6	-0.00244140625	-7.9541015625
467	46.7	-0.00244140625	-7.94921875
468	46.8	-0.00244140625	-7.9443359375
469	46.9	-0.00244140625	-7.9443359375
470	47	-0.00244140625	-7.9248046875
471	47.1	-0.00244140625	-7.8369140625
472	47.2	0	-7.9345703125
473	47.3	0	-7.9296875
474	47.4	0	-7.919921875
475	47.5	0	-7.9248046875
476	47.6	0	-7.9248046875
477	47.7	-0.00244140625	-7.919921875
478	47.8	-0.00244140625	-7.919921875
479	47.9	-0.00244140625	-7.8857421875
480	48	-0.00244140625	-7.880859375
481	48.1	-0.00244140625	-7.9150390625
482	48.2	-0.00244140625	-7.9150390625
483	48.3	-0.00244140625	-7.9150390625
484	48.4	-0.00244140625	-7.9150390625
485	48.5	-0.00244140625	-7.91015625
486	48.6	-0.00244140625	-7.91015625
487	48.7	-0.00244140625	-7.91015625
488	48.8	0	-7.900390625
489	48.9	0	-7.91015625
490	49	0	-7.91015625
491	49.1	0	-7.9052734375
492	49.2	0	-7.9052734375
493	49.3	0	-7.9052734375
494	49.4	0	-7.9052734375
495	49.5	0	-7.900390625
496	49.6	-0.00244140625	-7.900390625
497	49.7	-0.00244140625	-7.890625
498	49.8	-0.00244140625	-7.8857421875
499	49.9	-0.00244140625	-7.8955078125
500	50	-0.00244140625	-7.8857421875
501	50.1	-0.00244140625	-7.861328125
502	50.2	-0.00244140625	-7.8759765625
503	50.3	0	-7.880859375
504	50.4	-0.00244140625	-7.8857421875
505	50.5	0	-7.880859375
506	50.6	0	-7.8759765625
507	50.7	0	-7.8759765625
508	50.8	0	-7.8759765625
509	50.9	-0.00244140625	-7.8759765625
510	51	0	-7.8759765625
511	51.1	0	-7.8759765625
512	51.2	-0.00244140625	-7.87109375
513	51.3	-0.00244140625	-7.87109375
514	51.4	-0.00244140625	-7.8662109375
515	51.5	-0.00244140625	-7.8662109375
516	51.6	0	-7.861328125
517	51.7	-0.00244140625	-7.861328125
518	51.8	0	-7.8564453125
519	51.9	-0.00244140625	-7.8515625
520	52	-0.00244140625	-7.8271484375
521	52.1	-0.00244140625	-7.8466796875
522	52.2	0	-7.83203125
523	52.3	0	-7.841796875
524	52.4	0	-7.841796875
525	52.5	-0.00244140625	-7.8466796875
526	52.6	-0.00244140625	-7.783203125
527	52.7	-0.00244140625	-7.841796875
528	52.8	-0.00244140625	-7.841796875
529	52.9	-0.00244140625	-7.8369140625
530	53	-0.00244140625	-7.841796875
531	53.1	-0.00244140625	-7.841796875
532	53.2	-0.00244140625	-7.841796875
533	53.3	0	-7.8369140625
534	53.4	-0.00244140625	-7.841796875
535	53.5	-0.00244140625	-7.841796875
536	53.6	-0.00244140625	-7.7587890625
537	53.7	-0.00244140625	-7.8271484375
538	53.8	-0.00244140625	-7.8271484375
539	53.9	0	-7.822265625
540	54	0	-7.8125
541	54.1	-0.00244140625	-7.8076171875
542	54.2	-0.00244140625	-7.802734375
543	54.3	-0.00244140625	-7.7978515625
544	54.4	-0.00244140625	-7.7978515625
545	54.5	-0.00244140625	-7.79296875
546	54.6	-0.00244140625	-7.783203125
547	54.7	-0.00244140625	-7.7783203125
548	54.8	-0.00244140625	-7.763671875
549	54.9	-0.00244140625	-7.7587890625
550	55	-0.00244140625	-7.75390625
551	55.1	-0.00244140625	-7.7490234375
552	55.2	-0.00244140625	-7.744140625
553	55.3	-0.00244140625	-7.744140625
554	55.4	-0.00244140625	-7.7392578125
555	55.5	-0.00244140625	-7.7392578125
556	55.6	-0.0048828125	-7.734375
557	55.7	-0.0048828125	-7.7294921875
558	55.8	-0.00732421875	-7.724609375
559	55.9	-0.00732421875	-7.724609375
560	56	-0.0048828125	-7.7197265625
561	56.1	-0.0048828125	-7.7197265625
562	56.2	-0.0048828125	-7.71484375
563	56.3	-0.00244140625	-7.71484375
564	56.4	-0.00244140625	-7.71484375
565	56.5	-0.00244140625	-7.71484375
566	56.6	-0.00244140625	-7.71484375
567	56.7	-0.00244140625	-7.7099609375
568	56.8	-0.0048828125	-7.7099609375
569	56.9	-0.0048828125	-7.705078125
570	57	-0.0048828125	-7.7099609375
571	57.1	-0.0048828125	-7.7099609375
572	57.2	-0.00732421875	-7.705078125
573	57.3	-0.00732421875	-7.7001953125
574	57.4	-0.00732421875	-7.7001953125
575	57.5	-0.0048828125	-7.6953125
576	57.6	-0.0048828125	-7.6953125
577	57.7	-0.00244140625	-7.6904296875
578	57.8	-0.00244140625	-7.6904296875
579	57.9	-0.00244140625	-7.6904296875
580	58	-0.00244140625	-7.6904296875
581	58.1	-0.00244140625	-7.6904296875
582	58.2	-0.00244140625	-7.685546875
583	58.3	-0.0048828125	-7.685546875
584	58.4	-0.0048828125	-7.685546875
585	58.5	-0.0048828125	-7.6806640625
586	58.6	-0.00732421875	-7.685546875
587	58.7	-0.00732421875	-7.6806640625
588	58.8	-0.0048828125	-7.6806640625
589	58.9	-0.0048828125	-7.67578125
590	59	-0.0048828125	-7.6708984375
591	59.1	-0.00244140625	-7.6708984375
592	59.2	-0.00244140625	-7.67578125
593	59.3	-0.00244140625	-7.6708984375
594	59.4	-0.00244140625	-7.666015625
595	59.5	-0.00244140625	-7.6611328125
596	59.6	-0.00244140625	-7.6611328125
597	59.7	-0.00244140625	-7.65625
598	59.8	-0.00244140625	-7.65625
599	59.9	-0.00244140625	-7.6513671875
600	60	-0.00244140625	-7.646484375
601	60.1	-0.00244140625	-7.646484375
602	60.2	-0.00244140625	-7.646484375
603	60.3	-0.00244140625	-7.646484375
604	60.4	-0.00244140625	-7.6416015625
605	60.5	-0.00244140625	-7.6416015625
606	60.6	0	-7.6416015625
607	60.7	0	-7.6416015625
608	60.8	-0.00244140625	-7.63671875
609	60.9	-0.00244140625	-7.6318359375
610	61	0	-7.63671875
611	61.1	-0.00244140625	-7.6318359375
612	61.2	-0.00244140625	-7.6318359375
613	61.3	-0.00244140625	-7.6318359375
614	61.4	-0.00244140625	-7.6318359375
615	61.5	-0.00244140625	-7.6123046875
616	61.6	-0.00244140625	-7.6220703125
617	61.7	-0.00244140625	-7.6123046875
618	61.8	-0.00244140625	-7.607421875
619	61.9	-0.00244140625	-7.6025390625
620	62	-0.00244140625	-7.6025390625
621	62.1	-0.00244140625	-7.607421875
622	62.2	-0.00244140625	-7.59765625
623	62.3	-0.00244140625	-7.59765625
624	62.4	-0.00244140625	-7.59765625
625	62.5	-0.0048828125	-7.5927734375
626	62.6	-0.0048828125	-7.59765625
627	62.7	-0.0048828125	-7.55859375
628	62.8	-0.0048828125	-7.587890625
629	62.9	-0.00244140625	-7.5537109375
630	63	-0.00244140625	-7.578125
631	63.1	-0.00244140625	-7.578125
632	63.2	-0.00244140625	-7.568359375
633	63.3	-0.0048828125	-7.5634765625
634	63.4	-0.0048828125	-7.55859375
635	63.5	-0.009765625	-7.5537109375
636	63.6	-0.009765625	-7.548828125
637	63.7	-0.01220703125	-7.5439453125
638	63.8	-0.01220703125	-7.5244140625
639	63.9	-0.009765625	-7.51953125
640	64	-0.00732421875	-7.529296875
641	64.1	-0.0048828125	-7.5244140625
642	64.2	-0.0048828125	-7.51953125
643	64.3	-0.00244140625	-7.5146484375
644	64.4	-0.00244140625	-7.5146484375
645	64.5	-0.00244140625	-7.5146484375
646	64.6	-0.00244140625	-7.509765625
647	64.7	-0.00244140625	-7.5048828125
648	64.8	-0.00244140625	-7.5048828125
649	64.9	-0.00244140625	-7.5048828125
650	65	-0.00244140625	-7.5048828125
651	65.1	-0.00244140625	-7.5048828125
652	65.2	-0.00244140625	-7.4951171875
653	65.3	-0.00244140625	-7.4951171875
654	65.4	-0.00244140625	-7.4951171875
655	65.5	-0.0048828125	-7.5
656	65.6	-0.00732421875	-7.5
657	65.7	-0.009765625	-7.5
658	65.8	-0.01220703125	-7.4951171875
659	65.9	-0.0146484375	-7.5
660	66	-0.01220703125	-7.4951171875
661	66.1	-0.0146484375	-7.4951171875
662	66.2	-0.01220703125	-7.4951171875
663	66.3	-0.0146484375	-7.4951171875
664	66.4	-0.0146484375	-7.5
665	66.5	-0.0146484375	-7.5
666	66.6	-0.01708984375	-7.4951171875
667	66.7	-0.01708984375	-7.4951171875
668	66.8	-0.01953125	-7.490234375
669	66.9	-0.01953125	-7.490234375
670	67	-0.01953125	-7.4951171875
671	67.1	-0.01953125	-7.4951171875
672	67.2	-0.01953125	-7.4951171875
673	67.3	-0.01953125	-7.4951171875
674	67.4	-0.01953125	-7.4951171875
675	67.5	-0.01953125	-7.5
676	67.6	-0.01953125	-7.5
677	67.7	-0.01953125	-7.4951171875
678	67.8	-0.01708984375	-7.4951171875
679	67.9	-0.01708984375	-7.4951171875
680	68	-0.0146484375	-7.4951171875
681	68.1	-0.01220703125	-7.490234375
682	68.2	-0.009765625	-7.4951171875
683	68.3	-0.00732421875	-7.4951171875
684	68.4	-0.00732421875	-7.4951171875
685	68.5	-0.00732421875	-7.5
686	68.6	-0.00732421875	-7.5048828125
687	68.7	-0.00732421875	-7.5048828125
688	68.8	-0.00732421875	-7.5048828125
689	68.9	-0.0048828125	-7.5048828125
690	69	-0.00244140625	-7.5048828125
691	69.1	-0.00244140625	-7.5048828125
692	69.2	-0.00244140625	-7.5048828125
693	69.3	-0.00244140625	-7.5
694	69.4	-0.00244140625	-7.5
695	69.5	-0.00244140625	-7.5
696	69.6	-0.00244140625	-7.5
697	69.7	-0.00244140625	-7.5
698	69.8	-0.00244140625	-7.5048828125
699	69.9	-0.0048828125	-7.5048828125
700	70	-0.00732421875	-7.5048828125
701	70.1	-0.00732421875	-7.5048828125
702	70.2	-0.01220703125	-7.5
703	70.3	-0.01708984375	-7.5
704	70.4	-0.01708984375	-7.5
705	70.5	-0.01708984375	-7.5
706	70.6	-0.01708984375	-7.5048828125
707	70.7	-0.01708984375	-7.5
708	70.8	-0.01708984375	-7.4951171875
709	70.9	-0.01708984375	-7.5
710	71	-0.01708984375	-7.5
711	71.1	-0.01708984375	-7.5048828125
712	71.2	-0.01708984375	-7.5048828125
713	71.3	-0.01708984375	-7.5048828125
714	71.4	-0.01708984375	-7.5048828125
715	71.5	-0.01953125	-7.5
716	71.6	-0.02197265625	-7.5
717	71.7	-0.01953125	-7.5
718	71.8	-0.01953125	-7.4951171875
719	71.9	-0.01953125	-7.5
720	72	-0.01953125	-7.5
721	72.1	-0.01953125	-7.5
722	72.2	-0.01953125	-7.5
723	72.3	-0.01953125	-7.5048828125
724	72.4	-0.01953125	-7.5048828125
725	72.5	-0.01953125	-7.5
726	72.6	-0.01708984375	-7.470703125
727	72.7	-0.01220703125	-7.5
728	72.8	-0.0048828125	-7.4853515625
729	72.9	-0.00244140625	-7.490234375
730	73	-0.00244140625	-7.4853515625
731	73.1	-0.00244140625	-7.4853515625
732	73.2	-0.00244140625	-7.4853515625
733	73.3	-0.00244140625	-7.4853515625
734	73.4	-0.00244140625	-7.4853515625
735	73.5	-0.00244140625	-7.4853515625
736	73.6	-0.00244140625	-7.4755859375
737	73.7	-0.0048828125	-7.4755859375
738	73.8	-0.00732421875	-7.4609375
739	73.9	-0.009765625	-7.4609375
740	74	-0.009765625	-7.4560546875
741	74.1	-0.009765625	-7.4658203125
742	74.2	-0.009765625	-7.4609375
743	74.3	-0.009765625	-7.4560546875
744	74.4	-0.009765625	-7.4560546875
745	74.5	-0.009765625	-7.4560546875
746	74.6	-0.01220703125	-7.451171875
747	74.7	-0.0146484375	-7.4462890625
748	74.8	-0.0146484375	-7.44140625
749	74.9	-0.01220703125	-7.431640625
750	75	-0.01220703125	-7.431640625
751	75.1	-0.01220703125	-7.431640625
752	75.2	-0.01220703125	-7.4267578125
753	75.3	-0.01220703125	-7.4267578125
754	75.4	-0.01220703125	-7.4267578125
755	75.5	-0.01220703125	-7.4267578125
756	75.6	-0.009765625	-7.412109375
757	75.7	-0.00732421875	-7.4169921875
758	75.8	-0.0048828125	-7.3828125
759	75.9	-0.0048828125	-7.40234375
760	76	-0.00244140625	-7.4072265625
761	76.1	-0.00244140625	-7.4072265625
762	76.2	-0.00244140625	-7.4072265625
763	76.3	-0.00244140625	-7.4072265625
764	76.4	-0.00244140625	-7.4072265625
765	76.5	-0.00244140625	-7.4072265625
766	76.6	-0.00244140625	-7.4072265625
767	76.7	-0.00244140625	-7.40234375
768	76.8	-0.00244140625	-7.3828125
769	76.9	-0.0048828125	-7.392578125
770	77	-0.00244140625	-7.392578125
771	77.1	-0.0048828125	-7.392578125
772	77.2	-0.0048828125	-7.392578125
773	77.3	-0.0048828125	-7.392578125
774	77.4	-0.0048828125	-7.392578125
775	77.5	-0.0048828125	-7.3974609375
776	77.6	-0.0048828125	-7.3974609375
777	77.7	-0.0048828125	-7.3974609375
778	77.8	-0.0048828125	-7.3974609375
779	77.9	-0.0048828125	-7.3974609375
780	78	-0.0048828125	-7.40234375
781	78.1	-0.0048828125	-7.40234375
782	78.2	-0.0048828125	-7.3828125
783	78.3	-0.0048828125	-7.392578125
784	78.4	-0.00244140625	-7.392578125
785	78.5	-0.0048828125	-7.392578125
786	78.6	-0.0048828125	-7.3876953125
787	78.7	-0.00244140625	-7.3876953125
788	78.8	-0.00244140625	-7.3876953125
789	78.9	-0.00244140625	-7.3876953125
790	79	-0.00244140625	-7.3876953125
791	79.1	-0.00244140625	-7.3876953125
792	79.2	-0.00244140625	-7.3876953125
793	79.3	-0.00244140625	-7.392578125
794	79.4	-0.00244140625	-7.3876953125
795	79.5	-0.00244140625	-7.3876953125
796	79.6	-0.0048828125	-7.3779296875
797	79.7	-0.0048828125	-7.3779296875
798	79.8	-0.00732421875	-7.373046875
799	79.9	-0.00732421875	-7.373046875
800	80	-0.00732421875	-7.3681640625
801	80.1	-0.0048828125	-7.36328125
802	80.2	-0.0048828125	-7.36328125
803	80.3	-0.0048828125	-7.36328125
804	80.4	-0.02197265625	-7.353515625
805	80.5	-0.02685546875	-7.353515625
806	80.6	-0.03173828125	-7.353515625
807	80.7	-0.0341796875	-7.3486328125
808	80.8	-0.03662109375	-7.3486328125
809	80.9	-0.0341796875	-7.3486328125
810	81	-0.0341796875	-7.34375
811	81.1	-0.03173828125	-7.34375
812	81.2	-0.02685546875	-7.34375
813	81.3	-0.0244140625	-7.34375
814	81.4	-0.01953125	-7.34375
815	81.5	-0.01220703125	-7.34375
816	81.6	-0.00732421875	-7.3388671875
817	81.7	-0.009765625	-7.3388671875
818	81.8	-0.01708984375	-7.3388671875
819	81.9	-0.01708984375	-7.3388671875
820	82	-0.01708984375	-7.3388671875
821	82.1	-0.02197265625	-7.333984375
822	82.2	-0.0537109375	-7.3291015625
823	82.3	-0.0732421875	-7.3291015625
824	82.4	-0.09033203125	-7.3291015625
825	82.5	-0.1025390625	-7.3291015625
826	82.6	-0.107421875	-7.32421875
827	82.7	-0.107421875	-7.32421875
828	82.8	-0.10498046875	-7.32421875
829	82.9	-0.09765625	-7.32421875
830	83	-0.087890625	-7.32421875
831	83.1	-0.078125	-7.3193359375
832	83.2	-0.0634765625	-7.3193359375
833	83.3	-0.05859375	-7.3193359375
834	83.4	-0.0341796875	-7.3193359375
835	83.5	-0.0146484375	-7.314453125
836	83.6	-0.00732421875	-7.314453125
837	83.7	-0.00732421875	-7.314453125
838	83.8	-0.00732421875	-7.314453125
839	83.9	-0.00732421875	-7.314453125
840	84	-0.01953125	-7.3095703125
841	84.1	-0.0244140625	-7.3095703125
842	84.2	-0.05615234375	-7.3095703125
843	84.3	-0.0830078125	-7.3095703125
844	84.4	-0.107421875	-7.3046875
845	84.5	-0.13427734375	-7.3046875
846	84.6	-0.14892578125	-7.3046875
847	84.7	-0.15625	-7.3046875
848	84.8	-0.18310546875	-7.3046875
849	84.9	-0.20751953125	-7.3046875
850	85	-0.21728515625	-7.3046875
851	85.1	-0.21728515625	-7.2998046875
852	85.2	-0.2099609375	-7.2998046875
853	85.3	-0.2001953125	-7.2998046875
854	85.4	-0.185546875	-7.2998046875
855	85.5	-0.18310546875	-7.2998046875
856	85.6	-0.1806640625	-7.2998046875
857	85.7	-0.17822265625	-7.2998046875
858	85.8	-0.17578125	-7.2998046875
859	85.9	-0.16357421875	-7.2998046875
860	86	-0.09765625	-7.294921875
861	86.1	-0.0732421875	-7.294921875
862	86.2	-0.068359375	-7.2998046875
863	86.3	-0.06591796875	-7.294921875
864	86.4	-0.0439453125	-7.294921875
865	86.5	-0.01953125	-7.2900390625
866	86.6	-0.0146484375	-7.2900390625
867	86.7	-0.009765625	-7.2900390625
868	86.8	-0.009765625	-7.28515625
869	86.9	-0.0146484375	-7.28515625
870	87	-0.01953125	-7.28515625
871	87.1	-0.0341796875	-7.2802734375
872	87.2	-0.06591796875	-7.275390625
873	87.3	-0.10986328125	-7.275390625
874	87.4	-0.1806640625	-7.275390625
875	87.5	-0.224609375	-7.275390625
876	87.6	-0.26123046875	-7.2705078125
877	87.7	-0.3076171875	-7.265625
878	87.8	-0.32958984375	-7.2607421875
879	87.9	-0.341796875	-7.265625
880	88	-0.3466796875	-7.2607421875
881	88.1	-0.3466796875	-7.265625
882	88.2	-0.341796875	-7.2607421875
883	88.3	-0.33203125	-7.2607421875
884	88.4	-0.30517578125	-7.255859375
885	88.5	-0.2978515625	-7.255859375
886	88.6	-0.29541015625	-7.255859375
887	88.7	-0.29052734375	-7.2509765625
888	88.8	-0.224609375	-7.24609375
889	88.9	-0.14892578125	-7.24609375
890	89	-0.10009765625	-7.2412109375
891	89.1	-0.08056640625	-7.2412109375
892	89.2	-0.08056640625	-7.2412109375
893	89.3	-0.0732421875	-7.236328125
894	89.4	-0.02197265625	-7.236328125
895	89.5	-0.009765625	-7.2314453125
896	89.6	-0.029296875	-7.2265625
897	89.7	-0.05615234375	-7.2265625
898	89.8	-0.09765625	-7.2216796875
899	89.9	-0.16357421875	-7.2216796875
900	90	-0.29541015625	-7.216796875
901	90.1	-0.41015625	-7.2119140625
902	90.2	-0.44677734375	-7.20703125
903	90.3	-0.44921875	-7.2021484375
904	90.4	-0.4296875	-7.2021484375
905	90.5	-0.42724609375	-7.2021484375
906	90.6	-0.4150390625	-7.197265625
907	90.7	-0.361328125	-7.197265625
908	90.8	-0.3076171875	-7.1923828125
909	90.9	-0.18798828125	-7.1875
910	91	-0.0830078125	-7.1875
911	91.1	-0.02685546875	-7.1826171875
912	91.2	-0.009765625	-7.1826171875
913	91.3	-0.03173828125	-7.177734375
914	91.4	-0.068359375	-7.177734375
915	91.5	-0.13916015625	-7.1728515625
916	91.6	-0.2001953125	-7.1728515625
917	91.7	-0.2392578125	-7.1728515625
918	91.8	-0.29296875	-7.1728515625
919	91.9	-0.36376953125	-7.16796875
920	92	-0.4150390625	-7.16796875
921	92.1	-0.44921875	-7.16796875
922	92.2	-0.49072265625	-7.1630859375
923	92.3	-0.47607421875	-7.1630859375
924	92.4	-0.478515625	-7.1630859375
925	92.5	-0.4736328125	-7.1630859375
926	92.6	-0.41748046875	-7.158203125
927	92.7	-0.34912109375	-7.1533203125
928	92.8	-0.234375	-7.1533203125
929	92.9	-0.1220703125	-7.1533203125
930	93	-0.048828125	-7.1484375
931	93.1	-0.02197265625	-7.1484375
932	93.2	-0.009765625	-7.1484375
933	93.3	-0.01708984375	-7.1484375
934	93.4	-0.0927734375	-7.1435546875
935	93.5	-0.22216796875	-7.1435546875
936	93.6	-0.4052734375	-7.138671875
937	93.7	-0.42724609375	-7.138671875
938	93.8	-0.4296875	-7.138671875
939	93.9	-0.4296875	-7.1435546875
940	94	-0.42724609375	-7.1435546875
941	94.1	-0.42236328125	-7.1435546875
942	94.2	-0.42236328125	-7.1435546875
943	94.3	-0.42236328125	-7.1435546875
944	94.4	-0.419921875	-7.1435546875
945	94.5	-0.419921875	-7.1435546875
946	94.6	-0.419921875	-7.1435546875
947	94.7	-0.419921875	-7.1435546875
948	94.8	-0.419921875	-7.1435546875
949	94.9	-0.419921875	-7.1435546875
950	95	-0.419921875	-7.1435546875
951	95.1	-0.419921875	-7.1435546875
952	95.2	-0.41748046875	-7.1435546875
953	95.3	-0.4150390625	-7.1435546875
954	95.4	-0.41259765625	-7.1435546875
955	95.5	-0.4052734375	-7.1435546875
956	95.6	-0.4052734375	-7.1435546875
957	95.7	-0.4052734375	-7.1435546875
958	95.8	-0.4052734375	-7.1435546875
959	95.9	-0.40771484375	-7.1435546875
960	96	-0.4052734375	-7.1484375
961	96.1	-0.41259765625	-7.1484375
962	96.2	-0.42236328125	-7.1435546875
963	96.3	-0.4541015625	-7.1435546875
964	96.4	-0.46142578125	-7.138671875
965	96.5	-0.4345703125	-7.138671875
966	96.6	-0.380859375	-7.138671875
967	96.7	-0.28564453125	-7.1337890625
968	96.8	-0.17578125	-7.1337890625
969	96.9	-0.08056640625	-7.12890625
970	97	-0.00732421875	-7.12890625
971	97.1	-0.01708984375	-7.12890625
972	97.2	-0.06591796875	-7.1240234375
973	97.3	-0.14404296875	-7.1240234375
974	97.4	-0.24169921875	-7.119140625
975	97.5	-0.31494140625	-7.119140625
976	97.6	-0.35888671875	-7.119140625
977	97.7	-0.3662109375	-7.1142578125
978	97.8	-0.33447265625	-7.1142578125
979	97.9	-0.2880859375	-7.1142578125
980	98	-0.2197265625	-7.109375
981	98.1	-0.1318359375	-7.109375
982	98.2	-0.0390625	-7.1044921875
983	98.3	-0.0048828125	-7.099609375
984	98.4	-0.02685546875	-7.0947265625
985	98.5	-0.087890625	-7.0947265625
986	98.6	-0.166015625	-7.08984375
987	98.7	-0.2294921875	-7.08984375
988	98.8	-0.24169921875	-7.0849609375
989	98.9	-0.224609375	-7.0849609375
990	99	-0.15380859375	-7.080078125
991	99.1	-0.09521484375	-7.080078125
992	99.2	-0.0634765625	-7.0751953125
993	99.3	-0.05859375	-7.0751953125
994	99.4	-0.029296875	-7.0751953125
995	99.5	-0.00244140625	-7.0703125
996	99.6	-0.009765625	-7.0703125
997	99.7	-0.02685546875	-7.0654296875
998	99.8	-0.04638671875	-7.060546875
999	99.9	-0.07568359375	-7.060546875
1000	100	-0.107421875	-7.060546875
1001	100.1	-0.1220703125	-7.060546875
1002	100.2	-0.12451171875	-7.060546875
1003	100.3	-0.1171875	-7.0556640625
1004	100.4	-0.10498046875	-7.0556640625
1005	100.5	-0.087890625	-7.05078125
1006	100.6	-0.048828125	-7.05078125
1007	100.7	-0.0146484375	-7.0458984375
1008	100.8	-0.00244140625	-7.0458984375
1009	100.9	-0.0048828125	-7.041015625
1010	101	-0.01708984375	-7.0361328125
1011	101.1	-0.03173828125	-7.0361328125
1012	101.2	-0.04150390625	-7.0166015625
1013	101.3	-0.04150390625	-7.0263671875
1014	101.4	-0.03662109375	-7.03125
1015	101.5	-0.029296875	-7.0263671875
1016	101.6	-0.01953125	-7.0263671875
1017	101.7	-0.009765625	-7.021484375
1018	101.8	-0.0048828125	-7.021484375
1019	101.9	-0.00244140625	-7.0166015625
1020	102	-0.00244140625	-7.0166015625
1021	102.1	-0.00244140625	-7.0166015625
1022	102.2	-0.0048828125	-7.0166015625
1023	102.3	-0.0048828125	-7.01171875
1024	102.4	-0.0048828125	-7.0166015625
1025	102.5	-0.00732421875	-7.01171875
1026	102.6	-0.00732421875	-7.01171875
1027	102.7	-0.0048828125	-7.0068359375
1028	102.8	-0.00244140625	-7.001953125
1029	102.9	-0.00244140625	-6.9970703125
1030	103	-0.00244140625	-6.9970703125
1031	103.1	-0.00244140625	-6.9921875
1032	103.2	-0.00244140625	-6.9921875
1033	103.3	-0.00244140625	-6.9873046875
1034	103.4	-0.00244140625	-6.9873046875
1035	103.5	-0.00244140625	-6.982421875
1036	103.6	-0.0048828125	-6.982421875
1037	103.7	-0.0048828125	-6.982421875
1038	103.8	-0.0048828125	-6.9775390625
1039	103.9	-0.0048828125	-6.9775390625
1040	104	-0.0048828125	-6.97265625
1041	104.1	-0.0048828125	-6.97265625
1042	104.2	-0.00244140625	-6.97265625
1043	104.3	-0.00244140625	-6.9677734375
1044	104.4	-0.00244140625	-6.962890625
1045	104.5	-0.00244140625	-6.962890625
1046	104.6	-0.00244140625	-6.962890625
1047	104.7	-0.00732421875	-6.953125
1048	104.8	-0.009765625	-6.9482421875
1049	104.9	-0.01220703125	-6.943359375
1050	105	-0.01708984375	-6.943359375
1051	105.1	-0.01708984375	-6.943359375
1052	105.2	-0.0146484375	-6.9384765625
1053	105.3	-0.009765625	-6.93359375
1054	105.4	-0.0048828125	-6.93359375
1055	105.5	-0.00244140625	-6.9287109375
1056	105.6	-0.00244140625	-6.923828125
1057	105.7	-0.00244140625	-6.923828125
1058	105.8	-0.0048828125	-6.9189453125
1059	105.9	-0.009765625	-6.9189453125
1060	106	-0.0146484375	-6.9140625
1061	106.1	-0.01953125	-6.9140625
1062	106.2	-0.02197265625	-6.9091796875
1063	106.3	-0.02197265625	-6.9091796875
1064	106.4	-0.0244140625	-6.904296875
1065	106.5	-0.0244140625	-6.8994140625
1066	106.6	-0.0244140625	-6.8994140625
1067	106.7	-0.01953125	-6.8896484375
1068	106.8	-0.01708984375	-6.884765625
1069	106.9	-0.009765625	-6.8798828125
1070	107	-0.0048828125	-6.8798828125
1071	107.1	-0.00244140625	-6.8798828125
1072	107.2	-0.00244140625	-6.8798828125
1073	107.3	-0.00244140625	-6.875
1074	107.4	-0.00244140625	-6.8701171875
1075	107.5	-0.00732421875	-6.865234375
1076	107.6	-0.0146484375	-6.8603515625
1077	107.7	-0.01708984375	-6.8603515625
1078	107.8	-0.01953125	-6.85546875
1079	107.9	-0.02197265625	-6.85546875
1080	108	-0.02197265625	-6.8505859375
1081	108.1	-0.01953125	-6.8505859375
1082	108.2	-0.01708984375	-6.845703125
1083	108.3	-0.009765625	-6.8408203125
1084	108.4	-0.0048828125	-6.8408203125
1085	108.5	-0.00244140625	-6.8359375
1086	108.6	-0.00244140625	-6.8310546875
1087	108.7	-0.00244140625	-6.8310546875
1088	108.8	-0.00244140625	-6.826171875
1089	108.9	-0.0048828125	-6.8310546875
1090	109	-0.0048828125	-6.8310546875
1091	109.1	-0.00732421875	-6.826171875
1092	109.2	-0.01220703125	-6.8212890625
1093	109.3	-0.01220703125	-6.81640625
1094	109.4	-0.01220703125	-6.81640625
1095	109.5	-0.009765625	-6.8115234375
1096	109.6	-0.00732421875	-6.8115234375
1097	109.7	-0.0048828125	-6.806640625
1098	109.8	-0.00244140625	-6.806640625
1099	109.9	-0.00244140625	-6.8017578125
1100	110	-0.00244140625	-6.8017578125
1101	110.1	-0.00244140625	-6.796875
1102	110.2	-0.0048828125	-6.796875
1103	110.3	-0.0048828125	-6.796875
1104	110.4	-0.0048828125	-6.7919921875
1105	110.5	-0.0048828125	-6.77734375
1106	110.6	-0.0048828125	-6.787109375
1107	110.7	-0.00244140625	-6.7822265625
1108	110.8	-0.00244140625	-6.669921875
1109	110.9	-0.00244140625	-6.767578125
1110	111	-0.00244140625	-6.77734375
1111	111.1	-0.00244140625	-6.77734375
1112	111.2	-0.00244140625	-6.77734375
1113	111.3	-0.00244140625	-6.77734375
1114	111.4	-0.00244140625	-6.77734375
1115	111.5	-0.00244140625	-6.77734375
1116	111.6	-0.00244140625	-6.7724609375
1117	111.7	-0.00244140625	-6.728515625
1118	111.8	-0.00244140625	-6.7626953125
1119	111.9	-0.00244140625	-6.7626953125
1120	112	0	-6.7578125
1121	112.1	-0.00244140625	-6.7529296875
1122	112.2	-0.00244140625	-6.6943359375
1123	112.3	-0.00244140625	-6.748046875
1124	112.4	-0.00244140625	-6.748046875
1125	112.5	-0.00244140625	-6.7431640625
1126	112.6	-0.00244140625	-6.73828125
1127	112.7	-0.00244140625	-6.728515625
1128	112.8	-0.00244140625	-6.6552734375
1129	112.9	-0.00244140625	-6.7138671875
1130	113	-0.00244140625	-6.6796875
1131	113.1	-0.00244140625	-6.71875
1132	113.2	-0.00244140625	-6.7138671875
1133	113.3	-0.00244140625	-6.7138671875
1134	113.4	-0.00244140625	-6.708984375
1135	113.5	-0.00244140625	-6.708984375
1136	113.6	-0.00244140625	-6.708984375
1137	113.7	-0.00244140625	-6.7041015625
1138	113.8	-0.00244140625	-6.69921875
1139	113.9	-0.0048828125	-6.6943359375
1140	114	-0.0048828125	-6.69921875
1141	114.1	-0.00732421875	-6.6943359375
1142	114.2	-0.00732421875	-6.6943359375
1143	114.3	-0.0048828125	-6.689453125
1144	114.4	-0.0048828125	-6.6845703125
1145	114.5	-0.00244140625	-6.6845703125
1146	114.6	-0.00244140625	-6.6748046875
1147	114.7	-0.00244140625	-6.630859375
1148	114.8	-0.00244140625	-6.66015625
1149	114.9	-0.0048828125	-6.630859375
1150	115	-0.009765625	-6.6650390625
1151	115.1	-0.009765625	-6.6357421875
1152	115.2	-0.009765625	-6.6552734375
1153	115.3	-0.0048828125	-6.640625
1154	115.4	-0.00244140625	-6.6455078125
1155	115.5	-0.00244140625	-6.6455078125
1156	115.6	-0.00244140625	-6.640625
1157	115.7	-0.0048828125	-6.6357421875
1158	115.8	-0.00732421875	-6.6357421875
1159	115.9	-0.00732421875	-6.630859375
1160	116	-0.00732421875	-6.6259765625
1161	116.1	-0.00732421875	-6.6259765625
1162	116.2	-0.00732421875	-6.6259765625
1163	116.3	-0.00732421875	-6.6259765625
1164	116.4	-0.00732421875	-6.62109375
1165	116.5	-0.00732421875	-6.62109375
1166	116.6	-0.0048828125	-6.62109375
1167	116.7	-0.0048828125	-6.6162109375
1168	116.8	-0.00244140625	-6.6162109375
1169	116.9	-0.00244140625	-6.611328125
1170	117	0	-6.611328125
1171	117.1	-0.00244140625	-6.6064453125
1172	117.2	-0.00244140625	-6.6015625
1173	117.3	-0.0048828125	-6.6015625
1174	117.4	-0.0048828125	-6.5966796875
1175	117.5	-0.0048828125	-6.5966796875
1176	117.6	-0.0048828125	-6.5869140625
1177	117.7	-0.00244140625	-6.5869140625
1178	117.8	-0.00244140625	-6.58203125
1179	117.9	-0.00244140625	-6.5771484375
1180	118	-0.00244140625	-6.5771484375
1181	118.1	-0.00244140625	-6.5771484375
1182	118.2	-0.00244140625	-6.5771484375
1183	118.3	-0.00244140625	-6.572265625
1184	118.4	-0.00244140625	-6.5673828125
1185	118.5	-0.00244140625	-6.5673828125
1186	118.6	-0.00244140625	-6.5576171875
1187	118.7	-0.00244140625	-6.5576171875
1188	118.8	-0.00244140625	-6.552734375
1189	118.9	-0.00244140625	-6.552734375
1190	119	0	-6.5478515625
1191	119.1	0	-6.5478515625
1192	119.2	-0.00244140625	-6.54296875
1193	119.3	-0.00244140625	-6.54296875
1194	119.4	-0.00244140625	-6.5380859375
1195	119.5	-0.00244140625	-6.5380859375
1196	119.6	-0.00244140625	-6.5380859375
1197	119.7	-0.00244140625	-6.5380859375
1198	119.8	-0.00244140625	-6.5380859375
1199	119.9	-0.00244140625	-6.5283203125
1200	120	-0.00244140625	-6.5283203125
1201	120.1	-0.00244140625	-6.5234375
1202	120.2	-0.00244140625	-6.5234375
1203	120.3	-0.00244140625	-6.5185546875
1204	120.4	-0.00244140625	-6.513671875
1205	120.5	-0.00244140625	-6.513671875
1206	120.6	-0.00244140625	-6.5087890625
1207	120.7	-0.00244140625	-6.5087890625
1208	120.8	-0.00244140625	-6.4990234375
1209	120.9	-0.00244140625	-6.494140625
1210	121	-0.00244140625	-6.4892578125
1211	121.1	-0.0048828125	-6.4892578125
1212	121.2	-0.0048828125	-6.4892578125
1213	121.3	-0.0048828125	-6.484375
1214	121.4	-0.00244140625	-6.484375
1215	121.5	-0.00244140625	-6.484375
1216	121.6	-0.00244140625	-6.4794921875
1217	121.7	-0.00244140625	-6.474609375
1218	121.8	-0.00244140625	-6.4697265625
1219	121.9	-0.00244140625	-6.4697265625
1220	122	-0.0048828125	-6.4697265625
1221	122.1	-0.0048828125	-6.46484375
1222	122.2	-0.0048828125	-6.46484375
1223	122.3	-0.0048828125	-6.46484375
1224	122.4	-0.00732421875	-6.4599609375
1225	122.5	-0.0048828125	-6.4599609375
1226	122.6	-0.0048828125	-6.455078125
1227	122.7	-0.0048828125	-6.4404296875
1228	122.8	-0.00244140625	-6.4453125
1229	122.9	-0.00244140625	-6.4453125
1230	123	0	-6.4453125
1231	123.1	-0.00244140625	-6.4306640625
1232	123.2	-0.00244140625	-6.42578125
1233	123.3	-0.0048828125	-6.435546875
1234	123.4	-0.0048828125	-6.4306640625
1235	123.5	-0.0048828125	-6.42578125
1236	123.6	-0.0048828125	-6.42578125
1237	123.7	-0.0048828125	-6.4111328125
1238	123.8	-0.0048828125	-6.416015625
1239	123.9	-0.00244140625	-6.4013671875
1240	124	-0.00244140625	-6.4111328125
1241	124.1	-0.00244140625	-6.4111328125
1242	124.2	-0.00244140625	-6.4013671875
1243	124.3	-0.00244140625	-6.4013671875
1244	124.4	-0.0048828125	-6.3916015625
1245	124.5	-0.0048828125	-6.396484375
1246	124.6	-0.00244140625	-6.3916015625
1247	124.7	-0.00244140625	-6.38671875
1248	124.8	-0.00244140625	-6.38671875
1249	124.9	-0.00244140625	-6.38671875
1250	125	-0.00244140625	-6.38671875
1251	125.1	-0.00244140625	-6.38671875
1252	125.2	0	-6.3818359375
1253	125.3	-0.00244140625	-6.3720703125
1254	125.4	-0.00244140625	-6.2939453125
1255	125.5	-0.00244140625	-6.3671875
1256	125.6	-0.00244140625	-6.3671875
1257	125.7	-0.00244140625	-6.3623046875
1258	125.8	-0.00244140625	-6.357421875
1259	125.9	-0.00244140625	-6.3525390625
1260	126	0	-6.3525390625
1261	126.1	-0.00244140625	-6.34765625
1262	126.2	0	-6.34765625
1263	126.3	0	-6.3427734375
1264	126.4	0	-6.337890625
1265	126.5	0	-6.337890625
1266	126.6	-0.00244140625	-6.3330078125
1267	126.7	-0.00244140625	-6.3330078125
1268	126.8	-0.00244140625	-6.328125
1269	126.9	-0.00244140625	-6.3330078125
1270	127	0	-6.3330078125
1271	127.1	-0.00244140625	-6.328125
1272	127.2	-0.00244140625	-6.3232421875
1273	127.3	0	-6.3232421875
1274	127.4	0	-6.318359375
1275	127.5	0	-6.3134765625
1276	127.6	0	-6.30859375
1277	127.7	-0.00244140625	-6.3037109375
1278	127.8	-0.00244140625	-6.279296875
1279	127.9	-0.00244140625	-6.2939453125
1280	128	-0.00244140625	-6.2939453125
1281	128.1	-0.00244140625	-6.2744140625
1282	128.2	-0.00244140625	-6.2890625
1283	128.3	0	-6.2890625
1284	128.4	-0.00244140625	-6.2841796875
1285	128.5	0	-6.2841796875
1286	128.6	0	-6.23046875
1287	128.7	-0.00244140625	-6.279296875
1288	128.8	-0.00244140625	-6.2744140625
1289	128.9	-0.00244140625	-6.2646484375
1290	129	-0.00244140625	-6.26953125
1291	129.1	-0.00244140625	-6.26953125
1292	129.2	-0.00244140625	-6.2548828125
1293	129.3	-0.00244140625	-6.2548828125
1294	129.4	-0.00244140625	-6.2548828125
1295	129.5	-0.00244140625	-6.2548828125
1296	129.6	-0.00244140625	-6.25
1297	129.7	-0.00244140625	-6.2451171875
1298	129.8	-0.00244140625	-6.2158203125
1299	129.9	-0.0048828125	-6.23046875
1300	130	-0.0048828125	-6.2353515625
1301	130.1	-0.0048828125	-6.23046875
1302	130.2	-0.0048828125	-6.2255859375
1303	130.3	-0.00244140625	-6.220703125
1304	130.4	-0.00244140625	-6.220703125
1305	130.5	-0.00244140625	-6.220703125
1306	130.6	0	-6.2158203125
1307	130.7	0	-6.2158203125
1308	130.8	-0.00244140625	-6.2060546875
1309	130.9	-0.00244140625	-6.2060546875
1310	131	-0.00244140625	-6.201171875
1311	131.1	-0.0048828125	-6.1962890625
1312	131.2	-0.0048828125	-6.1962890625
1313	131.3	-0.0048828125	-6.19140625
1314	131.4	-0.00244140625	-6.19140625
1315	131.5	-0.00244140625	-6.19140625
1316	131.6	-0.00244140625	-6.19140625
1317	131.7	-0.00244140625	-6.19140625
1318	131.8	-0.00244140625	-6.1865234375
1319	131.9	0	-6.181640625
1320	132	-0.00244140625	-6.1767578125
1321	132.1	-0.00244140625	-6.171875
1322	132.2	-0.00244140625	-6.1669921875
1323	132.3	-0.00244140625	-6.1669921875
1324	132.4	-0.00244140625	-6.162109375
1325	132.5	-0.00244140625	-6.1572265625
1326	132.6	0	-6.15234375
1327	132.7	0	-6.1474609375
1328	132.8	0	-6.1474609375
1329	132.9	0	-6.1474609375
1330	133	0	-6.1474609375
1331	133.1	0	-6.1474609375
