Date	2019/12/23	
Time	15:27:19	
Y_Unit_Label	Voltage (V)	
X_Dimension	Time (s)	
X0	15:27:19.581817449942 23-Dec-19	
Delta_X	2.500000E-6	
***End_of_Header***		
X_Value	Voltage - Dev1_ai0	Comment
0.000000	0.101670
2.500000E-6	0.101863
5.000000E-6	0.101782
7.500000E-6	0.101863
1.000000E-5	0.101734
1.250000E-5	0.101750
1.500000E-5	0.101814
1.750000E-5	0.101782
2.000000E-5	0.101798
2.250000E-5	0.101895
2.500000E-5	0.101975
2.750000E-5	0.101847
3.000000E-5	0.101782
3.250000E-5	0.101847
3.500000E-5	0.102008
3.750000E-5	0.101927
4.000000E-5	0.101750
4.250000E-5	0.101782
4.500000E-5	0.101847
4.750000E-5	0.101863
5.000000E-5	0.101863
5.250000E-5	0.101863
5.500000E-5	0.101863
5.750000E-5	0.101863
6.000000E-5	0.101847
6.250000E-5	0.101782
6.500000E-5	0.101927
6.750000E-5	0.101863
7.000000E-5	0.101798
7.250000E-5	0.101831
7.500000E-5	0.102008
7.750000E-5	0.101879
8.000000E-5	0.101814
8.250000E-5	0.101847
8.500000E-5	0.101879
8.750000E-5	0.101831
9.000000E-5	0.101814
9.250000E-5	0.101831
9.500000E-5	0.101927
9.750000E-5	0.101927
1.000000E-4	0.101766
0.000102	0.101895
0.000105	0.101879
0.000107	0.102024
0.000110	0.101863
0.000112	0.101831
0.000115	0.101992
0.000117	0.101911
0.000120	0.101831
0.000122	0.101847
0.000125	0.101879
0.000127	0.101847
0.000130	0.101895
0.000132	0.101847
0.000135	0.101959
0.000137	0.101863
0.000140	0.101879
0.000142	0.101943
0.000145	0.101943
0.000147	0.101959
0.000150	0.101992
0.000152	0.101927
0.000155	0.101927
0.000157	0.101992
0.000160	0.101911
0.000162	0.101879
0.000165	0.101927
0.000167	0.101879
0.000170	0.101895
0.000172	0.101911
0.000175	0.101927
0.000177	0.102120
0.000180	0.101863
0.000182	0.101847
0.000185	0.101879
0.000187	0.102024
0.000190	0.101959
0.000192	0.101863
0.000195	0.101879
0.000197	0.101959
0.000200	0.101975
0.000202	0.101750
0.000205	0.101959
0.000207	0.101975
0.000210	0.101879
0.000212	0.101670
0.000215	0.102008
0.000217	0.102024
0.000220	0.101959
0.000222	0.101927
0.000225	0.101879
0.000227	0.101975
0.000230	0.102104
0.000232	0.101959
0.000235	0.101992
0.000237	0.102185
0.000240	0.102120
0.000242	0.101895
0.000245	0.101927
0.000247	0.101975
0.000250	0.101959
0.000252	0.101992
0.000255	0.101879
0.000257	0.102104
0.000260	0.102072
0.000262	0.102008
0.000265	0.101927
0.000267	0.102008
0.000270	0.102008
0.000272	0.101911
0.000275	0.102104
0.000277	0.101911
0.000280	0.101911
0.000282	0.101814
0.000285	0.101959
0.000287	0.102088
0.000290	0.102153
0.000292	0.101975
0.000295	0.101975
0.000297	0.102024
0.000300	0.102056
0.000302	0.102008
0.000305	0.102056
0.000307	0.102072
0.000310	0.101992
0.000312	0.101992
0.000315	0.101943
0.000317	0.102072
0.000320	0.102056
0.000322	0.101992
0.000325	0.101992
0.000327	0.102072
0.000330	0.101927
0.000332	0.102088
0.000335	0.101959
0.000337	0.102024
0.000340	0.102008
0.000342	0.102024
0.000345	0.102008
0.000347	0.102088
0.000350	0.101992
0.000352	0.101975
0.000355	0.101895
0.000357	0.102056
0.000360	0.102088
0.000362	0.102024
0.000365	0.102072
0.000367	0.102088
0.000370	0.102153
0.000372	0.102072
0.000375	0.101992
0.000377	0.102056
0.000380	0.102169
0.000382	0.102024
0.000385	0.102120
0.000387	0.102104
0.000390	0.102265
0.000392	0.102056
0.000395	0.102136
0.000397	0.102201
0.000400	0.102136
0.000402	0.102072
0.000405	0.102088
0.000407	0.102104
0.000410	0.102136
0.000412	0.102072
0.000415	0.102120
0.000417	0.102056
0.000420	0.102056
0.000422	0.102136
0.000425	0.102136
0.000427	0.102072
0.000430	0.101992
0.000432	0.102040
0.000435	0.102072
0.000437	0.102040
0.000440	0.102056
0.000442	0.102056
0.000445	0.102024
0.000447	0.102072
0.000450	0.102185
0.000452	0.102201
0.000455	0.102233
0.000457	0.101911
0.000460	0.102314
0.000462	0.102217
0.000465	0.102233
0.000467	0.102153
0.000470	0.102120
0.000472	0.102104
0.000475	0.102056
0.000477	0.102040
0.000480	0.102104
0.000482	0.102201
0.000485	0.102136
0.000487	0.102136
0.000490	0.102136
0.000492	0.102169
0.000495	0.102314
0.000497	0.102281
0.000500	0.102088
0.000502	0.102088
0.000505	0.102072
0.000507	0.102040
0.000510	0.101959
0.000512	0.102297
0.000515	0.102056
0.000517	0.102104
0.000520	0.102088
0.000522	0.102153
0.000525	0.102201
0.000527	0.102088
0.000530	0.102185
0.000532	0.102169
0.000535	0.102120
0.000537	0.102056
0.000540	0.102314
0.000542	0.102185
0.000545	0.102104
0.000547	0.102233
0.000550	0.102120
0.000552	0.102169
0.000555	0.102153
0.000557	0.102265
0.000560	0.102169
0.000562	0.102136
0.000565	0.102040
0.000567	0.102056
0.000570	0.102201
0.000572	0.102185
0.000575	0.102120
0.000577	0.102265
0.000580	0.102104
0.000582	0.102169
0.000585	0.102217
0.000587	0.102201
0.000590	0.102169
0.000592	0.102088
0.000595	0.102217
0.000597	0.102153
0.000600	0.102233
0.000602	0.102185
0.000605	0.102136
0.000607	0.102040
0.000610	0.102153
0.000612	0.102233
0.000615	0.102265
0.000617	0.102217
0.000620	0.102153
0.000622	0.102201
0.000625	0.102136
0.000627	0.102169
0.000630	0.102233
0.000632	0.102201
0.000635	0.102169
0.000637	0.101959
0.000640	0.102185
0.000642	0.102136
0.000645	0.102217
0.000647	0.102185
0.000650	0.102120
0.000652	0.102169
0.000655	0.102233
0.000657	0.102265
0.000660	0.102265
0.000662	0.102217
0.000665	0.102169
0.000667	0.102233
0.000670	0.102153
0.000672	0.102330
0.000675	0.102297
0.000677	0.102217
0.000680	0.102217
0.000682	0.102104
0.000685	0.102169
0.000687	0.102378
0.000690	0.102185
0.000692	0.102153
0.000695	0.102056
0.000697	0.101911
0.000700	0.102088
0.000702	0.102169
0.000705	0.102362
0.000707	0.102136
0.000710	0.102249
0.000712	0.102169
0.000715	0.102217
0.000717	0.102104
0.000720	0.102201
0.000722	0.102297
0.000725	0.102281
0.000727	0.102281
0.000730	0.102136
0.000732	0.102330
0.000735	0.102201
0.000737	0.102217
0.000740	0.102233
0.000742	0.102201
0.000745	0.102249
0.000747	0.102265
0.000750	0.102185
0.000752	0.102088
0.000755	0.102314
0.000757	0.102362
0.000760	0.102281
0.000762	0.102217
0.000765	0.102297
0.000767	0.102185
0.000770	0.102217
0.000772	0.102169
0.000775	0.102346
0.000777	0.102217
0.000780	0.102249
0.000782	0.102362
0.000785	0.102281
0.000787	0.102281
0.000790	0.102281
0.000792	0.102233
0.000795	0.102297
0.000797	0.102217
0.000800	0.102233
0.000802	0.102201
0.000805	0.102249
0.000807	0.102314
0.000810	0.102249
0.000812	0.102265
0.000815	0.102314
0.000817	0.057910
0.000820	0.014456
0.000822	-0.017325
0.000825	-0.040268
0.000827	-0.057253
0.000830	-0.069441
0.000832	-0.078376
0.000835	-0.084865
0.000837	-0.089598
0.000840	-0.093075
0.000842	-0.095458
0.000845	-0.097342
0.000847	-0.098727
0.000850	-0.099741
0.000852	-0.100353
0.000855	-0.100852
0.000857	-0.101222
0.000860	-0.101592
0.000862	-0.101753
0.000865	-0.101882
0.000867	-0.102027
0.000870	-0.102124
0.000872	-0.102124
0.000875	-0.102220
0.000877	-0.102285
0.000880	-0.102285
0.000882	-0.102285
0.000885	-0.102285
0.000887	-0.102269
0.000890	-0.102446
0.000892	-0.102413
0.000895	-0.102413
0.000897	-0.102333
0.000900	-0.102220
0.000902	-0.102413
0.000905	-0.102365
0.000907	-0.102317
0.000910	-0.102413
0.000912	-0.102365
0.000915	-0.102397
0.000917	-0.102446
0.000920	-0.102430
0.000922	-0.102462
0.000925	-0.102317
0.000927	-0.102349
0.000930	-0.102430
0.000932	-0.102413
0.000935	-0.102607
0.000937	-0.102494
0.000940	-0.102269
0.000942	-0.102446
0.000945	-0.102413
0.000947	-0.102349
0.000950	-0.102494
0.000952	-0.102462
0.000955	-0.102430
0.000957	-0.102397
0.000960	-0.102430
0.000962	-0.102446
0.000965	-0.102526
0.000967	-0.102381
0.000970	-0.102430
0.000972	-0.102381
0.000975	-0.102397
0.000977	-0.102478
0.000980	-0.102478
0.000982	-0.102462
0.000985	-0.102462
0.000987	-0.102413
0.000990	-0.102430
0.000992	-0.102478
0.000995	-0.102462
0.000997	-0.102430
0.001000	-0.102462
0.001002	-0.102462
0.001005	-0.102494
0.001007	-0.102478
0.001010	-0.102397
0.001012	-0.102430
0.001015	-0.102333
0.001017	-0.102413
0.001020	-0.102494
0.001022	-0.102478
0.001025	-0.102510
0.001027	-0.102478
0.001030	-0.102478
0.001032	-0.102494
0.001035	-0.102478
0.001037	-0.102413
0.001040	-0.102397
0.001042	-0.102510
0.001045	-0.102510
0.001047	-0.102462
0.001050	-0.102542
0.001052	-0.102430
0.001055	-0.102494
0.001057	-0.102462
0.001060	-0.102478
0.001062	-0.102526
0.001065	-0.102526
0.001067	-0.102462
0.001070	-0.102365
0.001072	-0.102462
0.001075	-0.102510
0.001077	-0.102526
0.001080	-0.102542
0.001082	-0.102574
0.001085	-0.102542
0.001087	-0.102446
0.001090	-0.102542
0.001092	-0.102607
0.001095	-0.102526
0.001097	-0.102510
0.001100	-0.102526
0.001102	-0.102494
0.001105	-0.102526
0.001107	-0.102462
0.001110	-0.102478
0.001112	-0.102574
0.001115	-0.102462
0.001117	-0.102526
0.001120	-0.102430
0.001122	-0.102494
0.001125	-0.102510
0.001127	-0.102462
0.001130	-0.102462
0.001132	-0.102446
0.001135	-0.102478
0.001137	-0.102639
0.001140	-0.102494
0.001142	-0.102446
0.001145	-0.102526
0.001147	-0.102446
0.001150	-0.102478
0.001152	-0.102558
0.001155	-0.102462
0.001157	-0.102494
0.001160	-0.102446
0.001162	-0.102510
0.001165	-0.102574
0.001167	-0.102462
0.001170	-0.102462
0.001172	-0.102510
0.001175	-0.102510
0.001177	-0.102558
0.001180	-0.102494
0.001182	-0.102558
0.001185	-0.102526
0.001187	-0.102462
0.001190	-0.102526
0.001192	-0.102397
0.001195	-0.102478
0.001197	-0.102510
0.001200	-0.102526
0.001202	-0.102478
0.001205	-0.102526
0.001207	-0.102478
0.001210	-0.102413
0.001212	-0.102542
0.001215	-0.102510
0.001217	-0.102574
0.001220	-0.102478
0.001222	-0.102526
0.001225	-0.102671
0.001227	-0.102558
0.001230	-0.102542
0.001232	-0.102591
0.001235	-0.102607
0.001237	-0.102542
0.001240	-0.102526
0.001242	-0.102526
0.001245	-0.102558
0.001247	-0.102526
0.001250	-0.102462
0.001252	-0.102526
0.001255	-0.102623
0.001257	-0.102558
0.001260	-0.102574
0.001262	-0.102510
0.001265	-0.102671
0.001267	-0.102526
0.001270	-0.102623
0.001272	-0.102397
0.001275	-0.102494
0.001277	-0.102639
0.001280	-0.102591
0.001282	-0.102558
0.001285	-0.102558
0.001287	-0.102526
0.001290	-0.102655
0.001292	-0.102671
0.001295	-0.102607
0.001297	-0.102607
0.001300	-0.102494
0.001302	-0.102526
0.001305	-0.102623
0.001307	-0.102558
0.001310	-0.102574
0.001312	-0.102558
0.001315	-0.102574
0.001317	-0.102687
0.001320	-0.102542
0.001322	-0.102558
0.001325	-0.102526
0.001327	-0.102526
0.001330	-0.102558
0.001332	-0.102639
0.001335	-0.102510
0.001337	-0.102510
0.001340	-0.102494
0.001342	-0.102526
0.001345	-0.102542
0.001347	-0.102574
0.001350	-0.102574
0.001352	-0.102607
0.001355	-0.102574
0.001357	-0.102542
0.001360	-0.102526
0.001362	-0.102607
0.001365	-0.102542
0.001367	-0.102671
0.001370	-0.102494
0.001372	-0.102574
0.001375	-0.102526
0.001377	-0.102671
0.001380	-0.102591
0.001382	-0.102574
0.001385	-0.102478
0.001387	-0.102558
0.001390	-0.102607
0.001392	-0.102574
0.001395	-0.102558
0.001397	-0.102542
0.001400	-0.102526
0.001402	-0.102607
0.001405	-0.102526
0.001407	-0.102655
0.001410	-0.102735
0.001412	-0.102558
0.001415	-0.102542
0.001417	-0.102591
0.001420	-0.102655
0.001422	-0.102574
0.001425	-0.102558
0.001427	-0.102526
0.001430	-0.102510
0.001432	-0.102510
0.001435	-0.102671
0.001437	-0.102687
0.001440	-0.102607
0.001442	-0.102591
0.001445	-0.102462
0.001447	-0.102574
0.001450	-0.102623
0.001452	-0.102591
0.001455	-0.102558
0.001457	-0.102591
0.001460	-0.102574
0.001462	-0.102494
0.001465	-0.102607
0.001467	-0.102542
0.001470	-0.102639
0.001472	-0.102526
0.001475	-0.102494
0.001477	-0.102623
0.001480	-0.102655
0.001482	-0.102591
0.001485	-0.102574
0.001487	-0.102639
0.001490	-0.102558
0.001492	-0.102639
0.001495	-0.102655
0.001497	-0.102655
0.001500	-0.102607
0.001502	-0.102558
0.001505	-0.102655
0.001507	-0.102655
0.001510	-0.102591
0.001512	-0.102478
0.001515	-0.102639
0.001517	-0.102494
0.001520	-0.102591
0.001522	-0.102671
0.001525	-0.102574
0.001527	-0.102542
0.001530	-0.102558
0.001532	-0.102639
0.001535	-0.102558
0.001537	-0.102623
0.001540	-0.102623
0.001542	-0.102671
0.001545	-0.102655
0.001547	-0.102639
0.001550	-0.102639
0.001552	-0.102623
0.001555	-0.102526
0.001557	-0.102542
0.001560	-0.102607
0.001562	-0.102639
0.001565	-0.102542
0.001567	-0.102591
0.001570	-0.102574
0.001572	-0.102558
0.001575	-0.102607
0.001577	-0.102671
0.001580	-0.102671
0.001582	-0.102591
0.001585	-0.102639
0.001587	-0.102574
0.001590	-0.102623
0.001592	-0.102558
0.001595	-0.102671
0.001597	-0.102558
0.001600	-0.102623
0.001602	-0.102558
0.001605	-0.102591
0.001607	-0.102623
0.001610	-0.102558
0.001612	-0.102623
0.001615	-0.102623
0.001617	-0.102542
0.001620	-0.102558
0.001622	-0.102687
0.001625	-0.102591
0.001627	-0.102591
0.001630	-0.102574
0.001632	-0.102719
0.001635	-0.102607
0.001637	-0.102671
0.001640	-0.102542
0.001642	-0.102639
0.001645	-0.102623
0.001647	-0.102687
0.001650	-0.102494
0.001652	-0.102623
0.001655	-0.102591
0.001657	-0.102494
0.001660	-0.102574
0.001662	-0.102623
0.001665	-0.102623
0.001667	-0.102591
0.001670	-0.102623
0.001672	-0.102574
0.001675	-0.102623
0.001677	-0.102671
0.001680	-0.102800
0.001682	-0.102639
0.001685	-0.102655
0.001687	-0.102574
0.001690	-0.102607
0.001692	-0.102607
0.001695	-0.102591
0.001697	-0.102574
0.001700	-0.102607
0.001702	-0.102526
0.001705	-0.102687
0.001707	-0.102623
0.001710	-0.102639
0.001712	-0.102607
0.001715	-0.102413
0.001717	-0.102574
0.001720	-0.102558
0.001722	-0.102591
0.001725	-0.102623
0.001727	-0.102591
0.001730	-0.102542
0.001732	-0.102607
0.001735	-0.102607
0.001737	-0.102607
0.001740	-0.102607
0.001742	-0.102607
0.001745	-0.102655
0.001747	-0.102623
0.001750	-0.102655
0.001752	-0.102655
0.001755	-0.102542
0.001757	-0.102623
0.001760	-0.102526
0.001762	-0.102607
0.001765	-0.102623
0.001767	-0.102639
0.001770	-0.102510
0.001772	-0.102591
0.001775	-0.102687
0.001777	-0.102623
0.001780	-0.102591
0.001782	-0.102526
0.001785	-0.102574
0.001787	-0.102574
0.001790	-0.102591
0.001792	-0.102655
0.001795	-0.102591
0.001797	-0.102639
0.001800	-0.102591
0.001802	-0.102591
0.001805	-0.102623
0.001807	-0.102639
0.001810	-0.102623
0.001812	-0.102542
0.001815	-0.102623
0.001817	-0.058139
0.001820	-0.014717
0.001822	0.016887
0.001825	0.039878
0.001827	0.056590
0.001830	0.068681
0.001832	0.077584
0.001835	0.084088
0.001837	0.088757
0.001840	0.092380
0.001842	0.094730
0.001845	0.096630
0.001847	0.097886
0.001850	0.098884
0.001852	0.099625
0.001855	0.100172
0.001857	0.100575
0.001860	0.100913
0.001862	0.101058
0.001865	0.101074
0.001867	0.101380
0.001870	0.101348
0.001872	0.101541
0.001875	0.101460
0.001877	0.101525
0.001880	0.101492
0.001882	0.101589
0.001885	0.101686
0.001887	0.101718
0.001890	0.101637
0.001892	0.101621
0.001895	0.101653
0.001897	0.101653
0.001900	0.101766
0.001902	0.101766
0.001905	0.101734
0.001907	0.101670
0.001910	0.101702
0.001912	0.101831
0.001915	0.101831
0.001917	0.101831
0.001920	0.101798
0.001922	0.101814
0.001925	0.101734
0.001927	0.101718
0.001930	0.101653
0.001932	0.101847
0.001935	0.101718
0.001937	0.101814
0.001940	0.101782
0.001942	0.101847
0.001945	0.101863
0.001947	0.101831
0.001950	0.101831
0.001952	0.101911
0.001955	0.101718
0.001957	0.101863
0.001960	0.101879
0.001962	0.101863
0.001965	0.101766
0.001967	0.101718
0.001970	0.101895
0.001972	0.101847
0.001975	0.101959
0.001977	0.101847
0.001980	0.101879
0.001982	0.101814
0.001985	0.101927
0.001987	0.101879
0.001990	0.101895
0.001992	0.101911
0.001995	0.101879
0.001997	0.101911
0.002000	0.101863
0.002002	0.101879
0.002005	0.101847
0.002007	0.101766
0.002010	0.101814
0.002012	0.101927
0.002015	0.101943
0.002017	0.101975
0.002020	0.101975
0.002022	0.101911
0.002025	0.101766
0.002027	0.101927
0.002030	0.101831
0.002032	0.102072
0.002035	0.101943
0.002037	0.101911
0.002040	0.101879
0.002042	0.102040
0.002045	0.102024
0.002047	0.102056
0.002050	0.101782
0.002052	0.102008
0.002055	0.102008
0.002057	0.102024
0.002060	0.101863
0.002062	0.101975
0.002065	0.102104
0.002067	0.102024
0.002070	0.101927
0.002072	0.101975
0.002075	0.101992
0.002077	0.102056
0.002080	0.101992
0.002082	0.101959
0.002085	0.102040
0.002087	0.101879
0.002090	0.101992
0.002092	0.101975
0.002095	0.102136
0.002097	0.101895
0.002100	0.102008
0.002102	0.101992
0.002105	0.102040
0.002107	0.102072
0.002110	0.102072
0.002112	0.102008
0.002115	0.102056
0.002117	0.102040
0.002120	0.101943
0.002122	0.102072
0.002125	0.102072
0.002127	0.102024
0.002130	0.101959
0.002132	0.102024
0.002135	0.102088
0.002137	0.102088
0.002140	0.102040
0.002142	0.101992
0.002145	0.102008
0.002147	0.102072
0.002150	0.101975
0.002152	0.102153
0.002155	0.102056
0.002157	0.102056
0.002160	0.101959
0.002162	0.101992
0.002165	0.102169
0.002167	0.102072
0.002170	0.102088
0.002172	0.102281
0.002175	0.102088
0.002177	0.102008
0.002180	0.102088
0.002182	0.102136
0.002185	0.102136
0.002187	0.102024
0.002190	0.102008
0.002192	0.102072
0.002195	0.102104
0.002197	0.102120
0.002200	0.101975
0.002202	0.102040
0.002205	0.102072
0.002207	0.102169
0.002210	0.102136
0.002212	0.102169
0.002215	0.102201
0.002217	0.102136
0.002220	0.102297
0.002222	0.102153
0.002225	0.102088
0.002227	0.102056
0.002230	0.101992
0.002232	0.102153
0.002235	0.102008
0.002237	0.102153
0.002240	0.102072
0.002242	0.102153
0.002245	0.102169
0.002247	0.102120
0.002250	0.102056
0.002252	0.102056
0.002255	0.102169
0.002257	0.102120
0.002260	0.102153
0.002262	0.102040
0.002265	0.102104
0.002267	0.102249
0.002270	0.102104
0.002272	0.102233
0.002275	0.102120
0.002277	0.102088
0.002280	0.102153
0.002282	0.102394
0.002285	0.102088
0.002287	0.102136
0.002290	0.102024
0.002292	0.102136
0.002295	0.102169
0.002297	0.102136
0.002300	0.102185
0.002302	0.102136
0.002305	0.102378
0.002307	0.102201
0.002310	0.102072
0.002312	0.102120
0.002315	0.102136
0.002317	0.102249
0.002320	0.102120
0.002322	0.102153
0.002325	0.102153
0.002327	0.102217
0.002330	0.102201
0.002332	0.102201
0.002335	0.102153
0.002337	0.102281
0.002340	0.102185
0.002342	0.102217
0.002345	0.102040
0.002347	0.102104
0.002350	0.102088
0.002352	0.102265
0.002355	0.102136
0.002357	0.102185
0.002360	0.102249
0.002362	0.102233
0.002365	0.102233
0.002367	0.102281
0.002370	0.102056
0.002372	0.102136
0.002375	0.102265
0.002377	0.102249
0.002380	0.102265
0.002382	0.102169
0.002385	0.102169
0.002387	0.102249
0.002390	0.102265
0.002392	0.102265
0.002395	0.102265
0.002397	0.102281
0.002400	0.102169
0.002402	0.102201
0.002405	0.102249
0.002407	0.102330
0.002410	0.102233
0.002412	0.102201
0.002415	0.102185
0.002417	0.101943
0.002420	0.102249
0.002422	0.102265
0.002425	0.102265
0.002427	0.102249
0.002430	0.102217
0.002432	0.102249
0.002435	0.102185
0.002437	0.102346
0.002440	0.102169
0.002442	0.102185
0.002445	0.102185
0.002447	0.102201
0.002450	0.102314
0.002452	0.102265
0.002455	0.102217
0.002457	0.102249
0.002460	0.102249
0.002462	0.102265
0.002465	0.102378
0.002467	0.102249
0.002470	0.102169
0.002472	0.102217
0.002475	0.102201
0.002477	0.102378
0.002480	0.102410
0.002482	0.102281
0.002485	0.102201
0.002487	0.102249
0.002490	0.102297
0.002492	0.102233
0.002495	0.102281
0.002497	0.102378
0.002500	0.102281
0.002502	0.102201
0.002505	0.102185
0.002507	0.102346
0.002510	0.102330
0.002512	0.102346
0.002515	0.102281
0.002517	0.102346
0.002520	0.102346
0.002522	0.102394
0.002525	0.102346
0.002527	0.102314
0.002530	0.102394
0.002532	0.102330
0.002535	0.102330
0.002537	0.102362
0.002540	0.102410
0.002542	0.102136
0.002545	0.102153
0.002547	0.102249
0.002550	0.102362
0.002552	0.102378
0.002555	0.102314
0.002557	0.102153
0.002560	0.102362
0.002562	0.102249
0.002565	0.102281
0.002567	0.102330
0.002570	0.102330
0.002572	0.102185
0.002575	0.102201
0.002577	0.102297
0.002580	0.102362
0.002582	0.102426
0.002585	0.102297
0.002587	0.102153
0.002590	0.102362
0.002592	0.102346
0.002595	0.102314
0.002597	0.102410
0.002600	0.102426
0.002602	0.102410
0.002605	0.102346
0.002607	0.102378
0.002610	0.102394
0.002612	0.102410
0.002615	0.102362
0.002617	0.102346
0.002620	0.102426
0.002622	0.102249
0.002625	0.102523
0.002627	0.102475
0.002630	0.102330
0.002632	0.102297
0.002635	0.102362
0.002637	0.102378
0.002640	0.102410
0.002642	0.102378
0.002645	0.102281
0.002647	0.102442
0.002650	0.102442
0.002652	0.102475
0.002655	0.102475
0.002657	0.102362
0.002660	0.102346
0.002662	0.102330
0.002665	0.102507
0.002667	0.102394
0.002670	0.102426
0.002672	0.102346
0.002675	0.102410
0.002677	0.102378
0.002680	0.102442
0.002682	0.102410
0.002685	0.102426
0.002687	0.102523
0.002690	0.102394
0.002692	0.102523
0.002695	0.102362
0.002697	0.102330
0.002700	0.102378
0.002702	0.102475
0.002705	0.102378
0.002707	0.102410
0.002710	0.102394
0.002712	0.102426
0.002715	0.102539
0.002717	0.102475
0.002720	0.102458
0.002722	0.102507
0.002725	0.102442
0.002727	0.102426
0.002730	0.102426
0.002732	0.102426
0.002735	0.102346
0.002737	0.102297
0.002740	0.102378
0.002742	0.102426
0.002745	0.102458
0.002747	0.102442
0.002750	0.102426
0.002752	0.102475
0.002755	0.102426
0.002757	0.102378
0.002760	0.102507
0.002762	0.102394
0.002765	0.102442
0.002767	0.102458
0.002770	0.102394
0.002772	0.102442
0.002775	0.102491
0.002777	0.102523
0.002780	0.102426
0.002782	0.102458
0.002785	0.102458
0.002787	0.102426
0.002790	0.102442
0.002792	0.102314
0.002795	0.102458
0.002797	0.102507
0.002800	0.102426
0.002802	0.102394
0.002805	0.102507
0.002807	0.102426
0.002810	0.102507
0.002812	0.102362
0.002815	0.102507
0.002817	0.058184
0.002820	0.014810
0.002822	-0.017084
0.002825	-0.040123
0.002827	-0.056995
0.002830	-0.069264
0.002832	-0.078215
0.002835	-0.084494
0.002837	-0.089356
0.002840	-0.092802
0.002842	-0.095346
0.002845	-0.097197
0.002847	-0.098533
0.002850	-0.099419
0.002852	-0.100127
0.002855	-0.100642
0.002857	-0.101109
0.002860	-0.101319
0.002862	-0.101480
0.002865	-0.101689
0.002867	-0.101850
0.002870	-0.101914
0.002872	-0.102027
0.002875	-0.101963
0.002877	-0.101979
0.002880	-0.102091
0.002882	-0.102043
0.002885	-0.102091
0.002887	-0.102188
0.002890	-0.102140
0.002892	-0.102108
0.002895	-0.102140
0.002897	-0.102252
0.002900	-0.102188
0.002902	-0.102188
0.002905	-0.102172
0.002907	-0.102172
0.002910	-0.102236
0.002912	-0.102204
0.002915	-0.102220
0.002917	-0.102285
0.002920	-0.102108
0.002922	-0.102172
0.002925	-0.102140
0.002927	-0.102285
0.002930	-0.102236
0.002932	-0.102188
0.002935	-0.102172
0.002937	-0.102172
0.002940	-0.102204
0.002942	-0.102204
0.002945	-0.102220
0.002947	-0.102220
0.002950	-0.102252
0.002952	-0.102204
0.002955	-0.102269
0.002957	-0.102317
0.002960	-0.102172
0.002962	-0.102317
0.002965	-0.102108
0.002967	-0.102091
0.002970	-0.102220
0.002972	-0.102236
0.002975	-0.102365
0.002977	-0.102236
0.002980	-0.102301
0.002982	-0.102333
0.002985	-0.102204
0.002987	-0.102317
0.002990	-0.102317
0.002992	-0.102397
0.002995	-0.102204
0.002997	-0.102204
0.003000	-0.102252
0.003002	-0.102220
0.003005	-0.102269
0.003007	-0.102349
0.003010	-0.102349
0.003012	-0.102285
0.003015	-0.102236
0.003017	-0.102317
0.003020	-0.102317
0.003022	-0.102349
0.003025	-0.102252
0.003027	-0.102220
0.003030	-0.102333
0.003032	-0.102220
0.003035	-0.102252
0.003037	-0.102252
0.003040	-0.102269
0.003042	-0.102204
0.003045	-0.102204
0.003047	-0.102365
0.003050	-0.102413
0.003052	-0.102204
0.003055	-0.102172
0.003057	-0.102269
0.003060	-0.102397
0.003062	-0.102269
0.003065	-0.102236
0.003067	-0.102269
0.003070	-0.102252
0.003072	-0.102236
0.003075	-0.102285
0.003077	-0.102188
0.003080	-0.102204
0.003082	-0.102430
0.003085	-0.102301
0.003087	-0.102252
0.003090	-0.102430
0.003092	-0.102349
0.003095	-0.102381
0.003097	-0.102349
0.003100	-0.102204
0.003102	-0.102236
0.003105	-0.102172
0.003107	-0.102220
0.003110	-0.102317
0.003112	-0.102381
0.003115	-0.102285
0.003117	-0.102333
0.003120	-0.102381
0.003122	-0.102365
0.003125	-0.102333
0.003127	-0.102397
0.003130	-0.102236
0.003132	-0.102252
0.003135	-0.102236
0.003137	-0.102252
0.003140	-0.102317
0.003142	-0.102413
0.003145	-0.102188
0.003147	-0.102285
0.003150	-0.102446
0.003152	-0.102397
0.003155	-0.102478
0.003157	-0.102430
0.003160	-0.102317
0.003162	-0.102333
0.003165	-0.102236
0.003167	-0.102124
0.003170	-0.102349
0.003172	-0.102494
0.003175	-0.102285
0.003177	-0.102285
0.003180	-0.102430
0.003182	-0.102526
0.003185	-0.102462
0.003187	-0.102317
0.003190	-0.102446
0.003192	-0.102220
0.003195	-0.102285
0.003197	-0.102220
0.003200	-0.102397
0.003202	-0.102446
0.003205	-0.102317
0.003207	-0.102252
0.003210	-0.102397
0.003212	-0.102494
0.003215	-0.102494
0.003217	-0.102285
0.003220	-0.102317
0.003222	-0.102269
0.003225	-0.102252
0.003227	-0.102301
0.003230	-0.102333
0.003232	-0.102462
0.003235	-0.102252
0.003237	-0.102236
0.003240	-0.102333
0.003242	-0.102397
0.003245	-0.102430
0.003247	-0.102333
0.003250	-0.102317
0.003252	-0.102349
0.003255	-0.102269
0.003257	-0.102236
0.003260	-0.102365
0.003262	-0.102301
0.003265	-0.102317
0.003267	-0.102252
0.003270	-0.102301
0.003272	-0.102413
0.003275	-0.102478
0.003277	-0.102301
0.003280	-0.102333
0.003282	-0.102397
0.003285	-0.102397
0.003287	-0.102188
0.003290	-0.102397
0.003292	-0.102285
0.003295	-0.102285
0.003297	-0.102317
0.003300	-0.102591
0.003302	-0.102478
0.003305	-0.102478
0.003307	-0.102220
0.003310	-0.102204
0.003312	-0.102317
0.003315	-0.102349
0.003317	-0.102252
0.003320	-0.102301
0.003322	-0.102301
0.003325	-0.102285
0.003327	-0.102269
0.003330	-0.102204
0.003332	-0.102526
0.003335	-0.102462
0.003337	-0.102397
0.003340	-0.102269
0.003342	-0.102349
0.003345	-0.102349
0.003347	-0.102301
0.003350	-0.102381
0.003352	-0.102269
0.003355	-0.102349
0.003357	-0.102236
0.003360	-0.102188
0.003362	-0.102381
0.003365	-0.102494
0.003367	-0.102301
0.003370	-0.102252
0.003372	-0.102413
0.003375	-0.102365
0.003377	-0.102269
0.003380	-0.102397
0.003382	-0.102317
0.003385	-0.102333
0.003387	-0.102220
0.003390	-0.102365
0.003392	-0.102333
0.003395	-0.102462
0.003397	-0.102365
0.003400	-0.102317
0.003402	-0.102510
0.003405	-0.102349
0.003407	-0.102301
0.003410	-0.102317
0.003412	-0.102301
0.003415	-0.102349
0.003417	-0.102301
0.003420	-0.102365
0.003422	-0.102397
0.003425	-0.102478
0.003427	-0.102397
0.003430	-0.102269
0.003432	-0.102607
0.003435	-0.102413
0.003437	-0.102397
0.003440	-0.102365
0.003442	-0.102349
0.003445	-0.102413
0.003447	-0.102252
0.003450	-0.102365
0.003452	-0.102349
0.003455	-0.102542
0.003457	-0.102269
0.003460	-0.102317
0.003462	-0.102542
0.003465	-0.102526
0.003467	-0.102381
0.003470	-0.102381
0.003472	-0.102349
0.003475	-0.102381
0.003477	-0.102269
0.003480	-0.102365
0.003482	-0.102462
0.003485	-0.102574
0.003487	-0.102317
0.003490	-0.102301
0.003492	-0.102623
0.003495	-0.102333
0.003497	-0.102462
0.003500	-0.102381
0.003502	-0.102413
0.003505	-0.102381
0.003507	-0.102317
0.003510	-0.102269
0.003512	-0.102413
0.003515	-0.102558
0.003517	-0.102285
0.003520	-0.102317
0.003522	-0.102574
0.003525	-0.102446
0.003527	-0.102462
0.003530	-0.102333
0.003532	-0.102430
0.003535	-0.102333
0.003537	-0.102269
0.003540	-0.102269
0.003542	-0.102478
0.003545	-0.102574
0.003547	-0.102220
0.003550	-0.102446
0.003552	-0.102478
0.003555	-0.102607
0.003557	-0.102430
0.003560	-0.102269
0.003562	-0.102333
0.003565	-0.102349
0.003567	-0.102381
0.003570	-0.102236
0.003572	-0.102526
0.003575	-0.102494
0.003577	-0.102333
0.003580	-0.102462
0.003582	-0.102478
0.003585	-0.102478
0.003587	-0.102446
0.003590	-0.102365
0.003592	-0.102349
0.003595	-0.102301
0.003597	-0.102349
0.003600	-0.102172
0.003602	-0.102349
0.003605	-0.102462
0.003607	-0.102301
0.003610	-0.102333
0.003612	-0.102317
0.003615	-0.102285
0.003617	-0.102558
0.003620	-0.102349
0.003622	-0.102462
0.003625	-0.102446
0.003627	-0.102285
0.003630	-0.102220
0.003632	-0.102462
0.003635	-0.102510
0.003637	-0.102365
0.003640	-0.102269
0.003642	-0.102413
0.003645	-0.102430
0.003647	-0.102494
0.003650	-0.102397
0.003652	-0.102333
0.003655	-0.102413
0.003657	-0.102333
0.003660	-0.102204
0.003662	-0.102494
0.003665	-0.102446
0.003667	-0.102317
0.003670	-0.102349
0.003672	-0.102413
0.003675	-0.102413
0.003677	-0.102397
0.003680	-0.102365
0.003682	-0.102333
0.003685	-0.102333
0.003687	-0.102349
0.003690	-0.102204
0.003692	-0.102478
0.003695	-0.102301
0.003697	-0.102365
0.003700	-0.102172
0.003702	-0.102317
0.003705	-0.102446
0.003707	-0.102494
0.003710	-0.102365
0.003712	-0.102269
0.003715	-0.102381
0.003717	-0.102333
0.003720	-0.102269
0.003722	-0.102413
0.003725	-0.102349
0.003727	-0.102301
0.003730	-0.102252
0.003732	-0.102236
0.003735	-0.102430
0.003737	-0.102591
0.003740	-0.102397
0.003742	-0.102301
0.003745	-0.102413
0.003747	-0.102317
0.003750	-0.102333
0.003752	-0.102413
0.003755	-0.102317
0.003757	-0.102301
0.003760	-0.102285
0.003762	-0.102317
0.003765	-0.102446
0.003767	-0.102542
0.003770	-0.102349
0.003772	-0.102269
0.003775	-0.102413
0.003777	-0.102413
0.003780	-0.102349
0.003782	-0.102446
0.003785	-0.102285
0.003787	-0.102317
0.003790	-0.102269
0.003792	-0.102365
0.003795	-0.102510
0.003797	-0.102462
0.003800	-0.102317
0.003802	-0.102381
0.003805	-0.102510
0.003807	-0.102687
0.003810	-0.102349
0.003812	-0.102446
0.003815	-0.102236
0.003817	-0.058122
0.003820	-0.014411
0.003822	0.017016
0.003825	0.039781
0.003827	0.056461
0.003830	0.069212
0.003832	0.078389
0.003835	0.084104
0.003837	0.088773
0.003840	0.092283
0.003842	0.094972
0.003845	0.096920
0.003847	0.098208
0.003850	0.099190
0.003852	0.099963
0.003855	0.100172
0.003857	0.100398
0.003860	0.101267
0.003862	0.101460
0.003865	0.101122
0.003867	0.101251
0.003870	0.101364
0.003872	0.101927
0.003875	0.102008
0.003877	0.101943
0.003880	0.101927
0.003882	0.101992
0.003885	0.101637
0.003887	0.101557
0.003890	0.102120
0.003892	0.102201
0.003895	0.101670
0.003897	0.101702
0.003900	0.101798
0.003902	0.102024
0.003905	0.102153
0.003907	0.102008
0.003910	0.102088
0.003912	0.102185
0.003915	0.101814
0.003917	0.101670
0.003920	0.102378
0.003922	0.102314
0.003925	0.101718
0.003927	0.101750
0.003930	0.101911
0.003932	0.102153
0.003935	0.102249
0.003937	0.101992
0.003940	0.102201
0.003942	0.102297
0.003945	0.101879
0.003947	0.101702
0.003950	0.102314
0.003952	0.102217
0.003955	0.101879
0.003957	0.101766
0.003960	0.101943
0.003962	0.102136
0.003965	0.102185
0.003967	0.102265
0.003970	0.102249
0.003972	0.102394
0.003975	0.101863
0.003977	0.101702
0.003980	0.102169
0.003982	0.102346
0.003985	0.102153
0.003987	0.101831
0.003990	0.101959
0.003992	0.102201
0.003995	0.102297
0.003997	0.102153
0.004000	0.102217
0.004002	0.102442
0.004005	0.102024
0.004007	0.101927
0.004010	0.102265
0.004012	0.102281
0.004015	0.102072
0.004017	0.101879
0.004020	0.101831
0.004022	0.102265
0.004025	0.102442
0.004027	0.102136
0.004030	0.102265
0.004032	0.102378
0.004035	0.101943
0.004037	0.102056
0.004040	0.102362
0.004042	0.102475
0.004045	0.102233
0.004047	0.101943
0.004050	0.101927
0.004052	0.102281
0.004055	0.102571
0.004057	0.101895
0.004060	0.102104
0.004062	0.102394
0.004065	0.102281
0.004067	0.102088
0.004070	0.102475
0.004072	0.102297
0.004075	0.102217
0.004077	0.102297
0.004080	0.101798
0.004082	0.102330
0.004085	0.102442
0.004087	0.102265
0.004090	0.102314
0.004092	0.102314
0.004095	0.102072
0.004097	0.102120
0.004100	0.102346
0.004102	0.102523
0.004105	0.102297
0.004107	0.101943
0.004110	0.101798
0.004112	0.102314
0.004115	0.102523
0.004117	0.102153
0.004120	0.102153
0.004122	0.102297
0.004125	0.102008
0.004127	0.102120
0.004130	0.102426
0.004132	0.102458
0.004135	0.102217
0.004137	0.101863
0.004140	0.101879
0.004142	0.102571
0.004145	0.102587
0.004147	0.102169
0.004150	0.102153
0.004152	0.102265
0.004155	0.102330
0.004157	0.102426
0.004160	0.102362
0.004162	0.102394
0.004165	0.102330
0.004167	0.101959
0.004170	0.101750
0.004172	0.102394
0.004175	0.102539
0.004177	0.102120
0.004180	0.102104
0.004182	0.102201
0.004185	0.102330
0.004187	0.102458
0.004190	0.102410
0.004192	0.102410
0.004195	0.102410
0.004197	0.102072
0.004200	0.101911
0.004202	0.102523
0.004205	0.102716
0.004207	0.101975
0.004210	0.102104
0.004212	0.102233
0.004215	0.102442
0.004217	0.102507
0.004220	0.102394
0.004222	0.102458
0.004225	0.102442
0.004227	0.102120
0.004230	0.101959
0.004232	0.102475
0.004235	0.102458
0.004237	0.102185
0.004240	0.101992
0.004242	0.102265
0.004245	0.102378
0.004247	0.102491
0.004250	0.102233
0.004252	0.102378
0.004255	0.102555
0.004257	0.102120
0.004260	0.102040
0.004262	0.102571
0.004265	0.102571
0.004267	0.102072
0.004270	0.102040
0.004272	0.102201
0.004275	0.102442
0.004277	0.102507
0.004280	0.102458
0.004282	0.102442
0.004285	0.102732
0.004287	0.102217
0.004290	0.102088
0.004292	0.102507
0.004295	0.102555
0.004297	0.102265
0.004300	0.102120
0.004302	0.102185
0.004305	0.102426
0.004307	0.102539
0.004310	0.102120
0.004312	0.102297
0.004315	0.102748
0.004317	0.102362
0.004320	0.102330
0.004322	0.102571
0.004325	0.102619
0.004327	0.102217
0.004330	0.101992
0.004332	0.102008
0.004335	0.102539
0.004337	0.102635
0.004340	0.102458
0.004342	0.102378
0.004345	0.102684
0.004347	0.102330
0.004350	0.102410
0.004352	0.102410
0.004355	0.102684
0.004357	0.102378
0.004360	0.102249
0.004362	0.102088
0.004365	0.102475
0.004367	0.102619
0.004370	0.102314
0.004372	0.102394
0.004375	0.102619
0.004377	0.102378
0.004380	0.102314
0.004382	0.102458
0.004385	0.102684
0.004387	0.102426
0.004390	0.102330
0.004392	0.102008
0.004395	0.102603
0.004397	0.102652
0.004400	0.102362
0.004402	0.102523
0.004405	0.102700
0.004407	0.102378
0.004410	0.102426
0.004412	0.102668
0.004415	0.102619
0.004417	0.102491
0.004420	0.102217
0.004422	0.102008
0.004425	0.102619
0.004427	0.102700
0.004430	0.102410
0.004432	0.102458
0.004435	0.102668
0.004437	0.102442
0.004440	0.102475
0.004442	0.102603
0.004445	0.102700
0.004447	0.102539
0.004450	0.102249
0.004452	0.102040
0.004455	0.102587
0.004457	0.102813
0.004460	0.102346
0.004462	0.102362
0.004465	0.102507
0.004467	0.102475
0.004470	0.102619
0.004472	0.102700
0.004475	0.102652
0.004477	0.102555
0.004480	0.102330
0.004482	0.101975
0.004485	0.102668
0.004487	0.102909
0.004490	0.102603
0.004492	0.102281
0.004495	0.102507
0.004497	0.102458
0.004500	0.102571
0.004502	0.102539
0.004505	0.102652
0.004507	0.102571
0.004510	0.102201
0.004512	0.102088
0.004515	0.102764
0.004517	0.102764
0.004520	0.102314
0.004522	0.102201
0.004525	0.102539
0.004527	0.102491
0.004530	0.102716
0.004532	0.102555
0.004535	0.102587
0.004537	0.102587
0.004540	0.102217
0.004542	0.102120
0.004545	0.102716
0.004547	0.102780
0.004550	0.102265
0.004552	0.102265
0.004555	0.102394
0.004557	0.102555
0.004560	0.102668
0.004562	0.102249
0.004565	0.102426
0.004567	0.102716
0.004570	0.102410
0.004572	0.102346
0.004575	0.102571
0.004577	0.102635
0.004580	0.102201
0.004582	0.102265
0.004585	0.102346
0.004587	0.102571
0.004590	0.102780
0.004592	0.102475
0.004595	0.102555
0.004597	0.102700
0.004600	0.102475
0.004602	0.102314
0.004605	0.102716
0.004607	0.102700
0.004610	0.102314
0.004612	0.102265
0.004615	0.102362
0.004617	0.102635
0.004620	0.102700
0.004622	0.102571
0.004625	0.102619
0.004627	0.102780
0.004630	0.102458
0.004632	0.102314
0.004635	0.102796
0.004637	0.102700
0.004640	0.102475
0.004642	0.102297
0.004645	0.102410
0.004647	0.102603
0.004650	0.102555
0.004652	0.102523
0.004655	0.102555
0.004657	0.102909
0.004660	0.102378
0.004662	0.102394
0.004665	0.102764
0.004667	0.102845
0.004670	0.102426
0.004672	0.102442
0.004675	0.102442
0.004677	0.102716
0.004680	0.102748
0.004682	0.102491
0.004685	0.102635
0.004687	0.102845
0.004690	0.102475
0.004692	0.102442
0.004695	0.102716
0.004697	0.102796
0.004700	0.102571
0.004702	0.102410
0.004705	0.102394
0.004707	0.102700
0.004710	0.102764
0.004712	0.102587
0.004715	0.102652
0.004717	0.102829
0.004720	0.102603
0.004722	0.102426
0.004725	0.102764
0.004727	0.102764
0.004730	0.102539
0.004732	0.102426
0.004735	0.102297
0.004737	0.102619
0.004740	0.102877
0.004742	0.102716
0.004745	0.102684
0.004747	0.102845
0.004750	0.102458
0.004752	0.102475
0.004755	0.102764
0.004757	0.102732
0.004760	0.102619
0.004762	0.102410
0.004765	0.102314
0.004767	0.102700
0.004770	0.102716
0.004772	0.102603
0.004775	0.102668
0.004777	0.102845
0.004780	0.102571
0.004782	0.102539
0.004785	0.102813
0.004787	0.102845
0.004790	0.102603
0.004792	0.102410
0.004795	0.102281
0.004797	0.102748
0.004800	0.102861
0.004802	0.102571
0.004805	0.102668
0.004807	0.102780
0.004810	0.102603
0.004812	0.102909
0.004815	0.102974
0.004817	0.057878
0.004820	0.014343
0.004822	-0.017261
0.004825	-0.040380
0.004827	-0.056883
0.004830	-0.069135
0.004832	-0.077990
0.004835	-0.084510
0.004837	-0.089195
0.004840	-0.092641
0.004842	-0.095104
0.004845	-0.096923
0.004847	-0.098227
0.004850	-0.099322
0.004852	-0.100079
0.004855	-0.100691
0.004857	-0.100820
0.004860	-0.101029
0.004862	-0.101480
0.004865	-0.101544
0.004867	-0.101641
0.004870	-0.101705
0.004872	-0.101737
0.004875	-0.101769
0.004877	-0.101786
0.004880	-0.101882
0.004882	-0.102043
0.004885	-0.102108
0.004887	-0.101818
0.004890	-0.101769
0.004892	-0.102043
0.004895	-0.102059
0.004897	-0.102027
0.004900	-0.102091
0.004902	-0.101979
0.004905	-0.101947
0.004907	-0.101914
0.004910	-0.102043
0.004912	-0.102091
0.004915	-0.102075
0.004917	-0.101995
0.004920	-0.101947
0.004922	-0.102188
0.004925	-0.102091
0.004927	-0.102043
0.004930	-0.101995
0.004932	-0.101947
0.004935	-0.102011
0.004937	-0.101963
0.004940	-0.102043
0.004942	-0.102140
0.004945	-0.102172
0.004947	-0.101930
0.004950	-0.102043
0.004952	-0.102156
0.004955	-0.102140
0.004957	-0.102091
0.004960	-0.101963
0.004962	-0.102011
0.004965	-0.102011
0.004967	-0.102091
0.004970	-0.101898
0.004972	-0.102188
0.004975	-0.102188
0.004977	-0.102043
0.004980	-0.101963
0.004982	-0.102252
0.004985	-0.102156
0.004987	-0.102140
0.004990	-0.102011
0.004992	-0.102108
0.004995	-0.102236
0.004997	-0.101995
0.005000	-0.102027
0.005002	-0.102091
0.005005	-0.102269
0.005007	-0.102027
0.005010	-0.102043
0.005012	-0.102333
0.005015	-0.102285
0.005017	-0.102172
0.005020	-0.102108
0.005022	-0.102059
0.005025	-0.102124
0.005027	-0.101979
0.005030	-0.101947
0.005032	-0.102204
0.005035	-0.102220
0.005037	-0.102043
0.005040	-0.102075
0.005042	-0.102172
0.005045	-0.102220
0.005047	-0.102172
0.005050	-0.102124
0.005052	-0.102124
0.005055	-0.102027
0.005057	-0.102075
0.005060	-0.101963
0.005062	-0.102140
0.005065	-0.102091
0.005067	-0.101930
0.005070	-0.102156
0.005072	-0.102075
0.005075	-0.102252
0.005077	-0.102236
0.005080	-0.102091
0.005082	-0.102091
0.005085	-0.102108
0.005087	-0.102108
0.005090	-0.101930
0.005092	-0.102220
0.005095	-0.102236
0.005097	-0.102059
0.005100	-0.102124
0.005102	-0.102124
0.005105	-0.102269
0.005107	-0.102269
0.005110	-0.102059
0.005112	-0.102108
0.005115	-0.102156
0.005117	-0.102059
0.005120	-0.101979
0.005122	-0.102156
0.005125	-0.102252
0.005127	-0.102075
0.005130	-0.102091
0.005132	-0.102204
0.005135	-0.102252
0.005137	-0.102236
0.005140	-0.102236
0.005142	-0.102075
0.005145	-0.102156
0.005147	-0.102140
0.005150	-0.101963
0.005152	-0.102301
0.005155	-0.102317
0.005157	-0.102204
0.005160	-0.102059
0.005162	-0.102108
0.005165	-0.102220
0.005167	-0.102333
0.005170	-0.102124
0.005172	-0.102140
0.005175	-0.102124
0.005177	-0.102091
0.005180	-0.102091
0.005182	-0.102204
0.005185	-0.102156
0.005187	-0.102140
0.005190	-0.102059
0.005192	-0.102156
0.005195	-0.102220
0.005197	-0.102317
0.005200	-0.102188
0.005202	-0.102059
0.005205	-0.102220
0.005207	-0.102188
0.005210	-0.102059
0.005212	-0.102220
0.005215	-0.102140
0.005217	-0.102220
0.005220	-0.101995
0.005222	-0.102317
0.005225	-0.102317
0.005227	-0.102317
0.005230	-0.102075
0.005232	-0.102124
0.005235	-0.102301
0.005237	-0.102236
0.005240	-0.102059
0.005242	-0.102140
0.005245	-0.102043
0.005247	-0.102252
0.005250	-0.102075
0.005252	-0.102252
0.005255	-0.102317
0.005257	-0.102413
0.005260	-0.102108
0.005262	-0.102172
0.005265	-0.102301
0.005267	-0.102285
0.005270	-0.102108
0.005272	-0.102188
0.005275	-0.102091
0.005277	-0.102140
0.005280	-0.102156
0.005282	-0.102108
0.005285	-0.102285
0.005287	-0.102446
0.005290	-0.102172
0.005292	-0.102108
0.005295	-0.102381
0.005297	-0.102317
0.005300	-0.102172
0.005302	-0.102172
0.005305	-0.102188
0.005307	-0.102236
0.005310	-0.102043
0.005312	-0.102140
0.005315	-0.102236
0.005317	-0.102285
0.005320	-0.101818
0.005322	-0.102236
0.005325	-0.102365
0.005327	-0.102285
0.005330	-0.102204
0.005332	-0.102204
0.005335	-0.102140
0.005337	-0.102188
0.005340	-0.102172
0.005342	-0.102091
0.005345	-0.102204
0.005347	-0.102333
0.005350	-0.102075
0.005352	-0.102172
0.005355	-0.102349
0.005357	-0.102317
0.005360	-0.102204
0.005362	-0.102140
0.005365	-0.102188
0.005367	-0.102172
0.005370	-0.102236
0.005372	-0.102124
0.005375	-0.102220
0.005377	-0.102349
0.005380	-0.102124
0.005382	-0.102204
0.005385	-0.102397
0.005387	-0.102333
0.005390	-0.102236
0.005392	-0.101947
0.005395	-0.102220
0.005397	-0.102140
0.005400	-0.102204
0.005402	-0.102188
0.005405	-0.102317
0.005407	-0.102220
0.005410	-0.102108
0.005412	-0.102156
0.005415	-0.102269
0.005417	-0.102285
0.005420	-0.102301
0.005422	-0.102140
0.005425	-0.102220
0.005427	-0.102236
0.005430	-0.102156
0.005432	-0.102043
0.005435	-0.102236
0.005437	-0.102333
0.005440	-0.102140
0.005442	-0.102124
0.005445	-0.102349
0.005447	-0.102317
0.005450	-0.102301
0.005452	-0.102188
0.005455	-0.102269
0.005457	-0.102156
0.005460	-0.102285
0.005462	-0.102027
0.005465	-0.102301
0.005467	-0.102333
0.005470	-0.102220
0.005472	-0.102252
0.005475	-0.102349
0.005477	-0.102285
0.005480	-0.102365
0.005482	-0.102236
0.005485	-0.102140
0.005487	-0.102285
0.005490	-0.102140
0.005492	-0.102027
0.005495	-0.102252
0.005497	-0.102269
0.005500	-0.102301
0.005502	-0.102252
0.005505	-0.102317
0.005507	-0.102236
0.005510	-0.102317
0.005512	-0.102220
0.005515	-0.102252
0.005517	-0.102317
0.005520	-0.102172
0.005522	-0.102043
0.005525	-0.102220
0.005527	-0.102236
0.005530	-0.102140
0.005532	-0.102156
0.005535	-0.102156
0.005537	-0.102269
0.005540	-0.102365
0.005542	-0.102220
0.005545	-0.102156
0.005547	-0.102220
0.005550	-0.102172
0.005552	-0.102108
0.005555	-0.102252
0.005557	-0.102172
0.005560	-0.102333
0.005562	-0.102236
0.005565	-0.102301
0.005567	-0.102462
0.005570	-0.102478
0.005572	-0.102108
0.005575	-0.102172
0.005577	-0.102285
0.005580	-0.102236
0.005582	-0.102059
0.005585	-0.102285
0.005587	-0.102204
0.005590	-0.102188
0.005592	-0.102156
0.005595	-0.102236
0.005597	-0.102333
0.005600	-0.102462
0.005602	-0.102204
0.005605	-0.102220
0.005607	-0.102349
0.005610	-0.102285
0.005612	-0.102108
0.005615	-0.102301
0.005617	-0.102188
0.005620	-0.102252
0.005622	-0.102140
0.005625	-0.102220
0.005627	-0.102365
0.005630	-0.102381
0.005632	-0.102252
0.005635	-0.102156
0.005637	-0.102397
0.005640	-0.102236
0.005642	-0.102269
0.005645	-0.102285
0.005647	-0.102140
0.005650	-0.102156
0.005652	-0.102252
0.005655	-0.102317
0.005657	-0.102349
0.005660	-0.102526
0.005662	-0.102236
0.005665	-0.102156
0.005667	-0.102430
0.005670	-0.102333
0.005672	-0.102285
0.005675	-0.102333
0.005677	-0.102269
0.005680	-0.102301
0.005682	-0.102188
0.005685	-0.102188
0.005687	-0.102317
0.005690	-0.102526
0.005692	-0.102252
0.005695	-0.102220
0.005697	-0.102349
0.005700	-0.102333
0.005702	-0.102317
0.005705	-0.102285
0.005707	-0.102285
0.005710	-0.102285
0.005712	-0.102220
0.005715	-0.102188
0.005717	-0.102252
0.005720	-0.102381
0.005722	-0.102285
0.005725	-0.102301
0.005727	-0.102381
0.005730	-0.102381
0.005732	-0.102365
0.005735	-0.102269
0.005737	-0.102236
0.005740	-0.102349
0.005742	-0.102204
0.005745	-0.102220
0.005747	-0.102333
0.005750	-0.102397
0.005752	-0.102349
0.005755	-0.102252
0.005757	-0.102510
0.005760	-0.102397
0.005762	-0.102285
0.005765	-0.102252
0.005767	-0.102220
0.005770	-0.102269
0.005772	-0.102269
0.005775	-0.102108
0.005777	-0.102317
0.005780	-0.102301
0.005782	-0.102236
0.005785	-0.102252
0.005787	-0.102413
0.005790	-0.102365
0.005792	-0.102397
0.005795	-0.102220
0.005797	-0.102236
0.005800	-0.102301
0.005802	-0.102252
0.005805	-0.102124
0.005807	-0.102301
0.005810	-0.102204
0.005812	-0.102204
0.005815	-0.102027
0.005817	-0.057688
0.005820	-0.014492
0.005822	0.017064
0.005825	0.040119
0.005827	0.057250
0.005830	0.069164
0.005832	0.077906
0.005835	0.084555
0.005837	0.089192
0.005840	0.092525
0.005842	0.095278
0.005845	0.097049
0.005847	0.098256
0.005850	0.099045
0.005852	0.099673
0.005855	0.100494
0.005857	0.101090
0.005860	0.101074
0.005862	0.101428
0.005865	0.101605
0.005867	0.101589
0.005870	0.101766
0.005872	0.101879
0.005875	0.101959
0.005877	0.101879
0.005880	0.101798
0.005882	0.101718
0.005885	0.102136
0.005887	0.102185
0.005890	0.101863
0.005892	0.101975
0.005895	0.102201
0.005897	0.102233
0.005900	0.101943
0.005902	0.102120
0.005905	0.102153
0.005907	0.102346
0.005910	0.101879
0.005912	0.101814
0.005915	0.102185
0.005917	0.102281
0.005920	0.102008
0.005922	0.102072
0.005925	0.102169
0.005927	0.102185
0.005930	0.102153
0.005932	0.102185
0.005935	0.102330
0.005937	0.102088
0.005940	0.102040
0.005942	0.101943
0.005945	0.102233
0.005947	0.102394
0.005950	0.102024
0.005952	0.102120
0.005955	0.102185
0.005957	0.102169
0.005960	0.102233
0.005962	0.102233
0.005965	0.102314
0.005967	0.102169
0.005970	0.101959
0.005972	0.101782
0.005975	0.102378
0.005977	0.102475
0.005980	0.102120
0.005982	0.102217
0.005985	0.102249
0.005987	0.102217
0.005990	0.102330
0.005992	0.102136
0.005995	0.102362
0.005997	0.102153
0.006000	0.102120
0.006002	0.101847
0.006005	0.102233
0.006007	0.102362
0.006010	0.102136
0.006012	0.102153
0.006015	0.102314
0.006017	0.102281
0.006020	0.102330
0.006022	0.102314
0.006025	0.102394
0.006027	0.102330
0.006030	0.102120
0.006032	0.101895
0.006035	0.102314
0.006037	0.102442
0.006040	0.102169
0.006042	0.102120
0.006045	0.102297
0.006047	0.102201
0.006050	0.102362
0.006052	0.102346
0.006055	0.102297
0.006057	0.102635
0.006060	0.102201
0.006062	0.102088
0.006065	0.102475
0.006067	0.102587
0.006070	0.102169
0.006072	0.102072
0.006075	0.102265
0.006077	0.102120
0.006080	0.102442
0.006082	0.102346
0.006085	0.102458
0.006087	0.102442
0.006090	0.102169
0.006092	0.102008
0.006095	0.102394
0.006097	0.102442
0.006100	0.102104
0.006102	0.102040
0.006105	0.102185
0.006107	0.102314
0.006110	0.102475
0.006112	0.102362
0.006115	0.102346
0.006117	0.102475
0.006120	0.102136
0.006122	0.102072
0.006125	0.102507
0.006127	0.102491
0.006130	0.102072
0.006132	0.102169
0.006135	0.102217
0.006137	0.102378
0.006140	0.102442
0.006142	0.102314
0.006145	0.102281
0.006147	0.102539
0.006150	0.102330
0.006152	0.102056
0.006155	0.102491
0.006157	0.102507
0.006160	0.102088
0.006162	0.102040
0.006165	0.102088
0.006167	0.102442
0.006170	0.102426
0.006172	0.102330
0.006175	0.102378
0.006177	0.102571
0.006180	0.102330
0.006182	0.102169
0.006185	0.102491
0.006187	0.102523
0.006190	0.102185
0.006192	0.102217
0.006195	0.102394
0.006197	0.102491
0.006200	0.102410
0.006202	0.102362
0.006205	0.102346
0.006207	0.102539
0.006210	0.102330
0.006212	0.102185
0.006215	0.102555
0.006217	0.102571
0.006220	0.102265
0.006222	0.102265
0.006225	0.102571
0.006227	0.102458
0.006230	0.102603
0.006232	0.102330
0.006235	0.102410
0.006237	0.102668
0.006240	0.102410
0.006242	0.102249
0.006245	0.102507
0.006247	0.102587
0.006250	0.102314
0.006252	0.102249
0.006255	0.102233
0.006257	0.102635
0.006260	0.102571
0.006262	0.102362
0.006265	0.102458
0.006267	0.102668
0.006270	0.102410
0.006272	0.102281
0.006275	0.102507
0.006277	0.102587
0.006280	0.102426
0.006282	0.102249
0.006285	0.102217
0.006287	0.102587
0.006290	0.102603
0.006292	0.102394
0.006295	0.102410
0.006297	0.102668
0.006300	0.102378
0.006302	0.102394
0.006305	0.102314
0.006307	0.102475
0.006310	0.102523
0.006312	0.102281
0.006315	0.102153
0.006317	0.102507
0.006320	0.102684
0.006322	0.102442
0.006325	0.102475
0.006327	0.102635
0.006330	0.102555
0.006332	0.102362
0.006335	0.102603
0.006337	0.102603
0.006340	0.102523
0.006342	0.102281
0.006345	0.102249
0.006347	0.102507
0.006350	0.102619
0.006352	0.102475
0.006355	0.102523
0.006357	0.102635
0.006360	0.102507
0.006362	0.102426
0.006365	0.102571
0.006367	0.102475
0.006370	0.102458
0.006372	0.102265
0.006375	0.102169
0.006377	0.102603
0.006380	0.102635
0.006382	0.102442
0.006385	0.102491
0.006387	0.102603
0.006390	0.102442
0.006392	0.102507
0.006395	0.102603
0.006397	0.102684
0.006400	0.102458
0.006402	0.102314
0.006405	0.102104
0.006407	0.102587
0.006410	0.102716
0.006412	0.102362
0.006415	0.102507
0.006417	0.102491
0.006420	0.102539
0.006422	0.102410
0.006425	0.102748
0.006427	0.102764
0.006430	0.102523
0.006432	0.102297
0.006435	0.102217
0.006437	0.102732
0.006440	0.102732
0.006442	0.102410
0.006445	0.102410
0.006447	0.102523
0.006450	0.102475
0.006452	0.102732
0.006455	0.102635
0.006457	0.102603
0.006460	0.102539
0.006462	0.102297
0.006465	0.102169
0.006467	0.102587
0.006470	0.102716
0.006472	0.102378
0.006475	0.102378
0.006477	0.102523
0.006480	0.102314
0.006482	0.102619
0.006485	0.102587
0.006487	0.102635
0.006490	0.102571
0.006492	0.102265
0.006495	0.102233
0.006497	0.102571
0.006500	0.102748
0.006502	0.102394
0.006505	0.102410
0.006507	0.102587
0.006510	0.102619
0.006512	0.102764
0.006515	0.102603
0.006517	0.102780
0.006520	0.102539
0.006522	0.102330
0.006525	0.102265
0.006527	0.102684
0.006530	0.102780
0.006532	0.102346
0.006535	0.102362
0.006537	0.102587
0.006540	0.102619
0.006542	0.102619
0.006545	0.102700
0.006547	0.102668
0.006550	0.102507
0.006552	0.102539
0.006555	0.102410
0.006557	0.102748
0.006560	0.102909
0.006562	0.102297
0.006565	0.102378
0.006567	0.102571
0.006570	0.102732
0.006572	0.102652
0.006575	0.102668
0.006577	0.102700
0.006580	0.102587
0.006582	0.102346
0.006585	0.102201
0.006587	0.102748
0.006590	0.102796
0.006592	0.102539
0.006595	0.102394
0.006597	0.102619
0.006600	0.102555
0.006602	0.102700
0.006605	0.102652
0.006607	0.102748
0.006610	0.102716
0.006612	0.102346
0.006615	0.102233
0.006617	0.102732
0.006620	0.102829
0.006622	0.102362
0.006625	0.102362
0.006627	0.102555
0.006630	0.102571
0.006632	0.102635
0.006635	0.102684
0.006637	0.102748
0.006640	0.102796
0.006642	0.102507
0.006645	0.102136
0.006647	0.102813
0.006650	0.102845
0.006652	0.102314
0.006655	0.102410
0.006657	0.102539
0.006660	0.102635
0.006662	0.102716
0.006665	0.102652
0.006667	0.102764
0.006670	0.102861
0.006672	0.102297
0.006675	0.101879
0.006677	0.102925
0.006680	0.102941
0.006682	0.102587
0.006685	0.102378
0.006687	0.102507
0.006690	0.102571
0.006692	0.102748
0.006695	0.102619
0.006697	0.102941
0.006700	0.102780
0.006702	0.102539
0.006705	0.102040
0.006707	0.103038
0.006710	0.102893
0.006712	0.102442
0.006715	0.102265
0.006717	0.102426
0.006720	0.102748
0.006722	0.102780
0.006725	0.102732
0.006727	0.102796
0.006730	0.102845
0.006732	0.102314
0.006735	0.102378
0.006737	0.103086
0.006740	0.102941
0.006742	0.102378
0.006745	0.102249
0.006747	0.102346
0.006750	0.102652
0.006752	0.102845
0.006755	0.102732
0.006757	0.102780
0.006760	0.102893
0.006762	0.102281
0.006765	0.102281
0.006767	0.102941
0.006770	0.103022
0.006772	0.102458
0.006775	0.102314
0.006777	0.102410
0.006780	0.102716
0.006782	0.102845
0.006785	0.102684
0.006787	0.102845
0.006790	0.102861
0.006792	0.102442
0.006795	0.102249
0.006797	0.102845
0.006800	0.102990
0.006802	0.102475
0.006805	0.102217
0.006807	0.102346
0.006810	0.102732
0.006812	0.102925
0.006815	0.102668
0.006817	0.058828
0.006820	0.015277
0.006822	-0.016826
0.006825	-0.039930
0.006827	-0.056512
0.006830	-0.068797
0.006832	-0.078006
0.006835	-0.084623
0.006837	-0.089195
0.006840	-0.092609
0.006842	-0.095088
0.006845	-0.096939
0.006847	-0.098163
0.006850	-0.099129
0.006852	-0.100063
0.006855	-0.100626
0.006857	-0.100723
0.006860	-0.101045
0.006862	-0.101415
0.006865	-0.101625
0.006867	-0.101673
0.006870	-0.101705
0.006872	-0.101737
0.006875	-0.101786
0.006877	-0.101721
0.006880	-0.101705
0.006882	-0.102027
0.006885	-0.102124
0.006887	-0.101753
0.006890	-0.101769
0.006892	-0.102043
0.006895	-0.102124
0.006897	-0.102059
0.006900	-0.101963
0.006902	-0.102043
0.006905	-0.101995
0.006907	-0.101834
0.006910	-0.101850
0.006912	-0.102172
0.006915	-0.102220
0.006917	-0.101850
0.006920	-0.101930
0.006922	-0.102059
0.006925	-0.102172
0.006927	-0.102140
0.006930	-0.101979
0.006932	-0.102043
0.006935	-0.102172
0.006937	-0.101930
0.006940	-0.101866
0.006942	-0.102285
0.006945	-0.102236
0.006947	-0.101963
0.006950	-0.101947
0.006952	-0.102220
0.006955	-0.102140
0.006957	-0.102075
0.006960	-0.102091
0.006962	-0.101914
0.006965	-0.102124
0.006967	-0.102027
0.006970	-0.101995
0.006972	-0.102236
0.006975	-0.102397
0.006977	-0.101930
0.006980	-0.101898
0.006982	-0.102236
0.006985	-0.102124
0.006987	-0.102059
0.006990	-0.102027
0.006992	-0.102027
0.006995	-0.102188
0.006997	-0.102108
0.007000	-0.101963
0.007002	-0.102252
0.007005	-0.102333
0.007007	-0.102027
0.007010	-0.101947
0.007012	-0.102269
0.007015	-0.102140
0.007017	-0.102059
0.007020	-0.102156
0.007022	-0.102011
0.007025	-0.101963
0.007027	-0.102059
0.007030	-0.102075
0.007032	-0.102204
0.007035	-0.102333
0.007037	-0.102140
0.007040	-0.101914
0.007042	-0.102140
0.007045	-0.101947
0.007047	-0.101914
0.007050	-0.102108
0.007052	-0.102156
0.007055	-0.102140
0.007057	-0.102043
0.007060	-0.102108
0.007062	-0.102156
0.007065	-0.102140
0.007067	-0.102124
0.007070	-0.102027
0.007072	-0.102172
0.007075	-0.102043
0.007077	-0.101963
0.007080	-0.102236
0.007082	-0.102252
0.007085	-0.102011
0.007087	-0.102027
0.007090	-0.102172
0.007092	-0.102301
0.007095	-0.102172
0.007097	-0.102091
0.007100	-0.102075
0.007102	-0.102140
0.007105	-0.101979
0.007107	-0.102011
0.007110	-0.102269
0.007112	-0.102381
0.007115	-0.102027
0.007117	-0.101979
0.007120	-0.102140
0.007122	-0.102301
0.007125	-0.102140
0.007127	-0.102108
0.007130	-0.102188
0.007132	-0.102156
0.007135	-0.101963
0.007137	-0.101979
0.007140	-0.102349
0.007142	-0.102365
0.007145	-0.101979
0.007147	-0.101930
0.007150	-0.102188
0.007152	-0.102333
0.007155	-0.102285
0.007157	-0.102027
0.007160	-0.102269
0.007162	-0.102108
0.007165	-0.102059
0.007167	-0.102011
0.007170	-0.102349
0.007172	-0.102430
0.007175	-0.101979
0.007177	-0.101963
0.007180	-0.102285
0.007182	-0.102349
0.007185	-0.102220
0.007187	-0.102204
0.007190	-0.101995
0.007192	-0.102204
0.007195	-0.101930
0.007197	-0.102075
0.007200	-0.102397
0.007202	-0.102494
0.007205	-0.102059
0.007207	-0.102027
0.007210	-0.102365
0.007212	-0.102333
0.007215	-0.102172
0.007217	-0.102124
0.007220	-0.102075
0.007222	-0.102124
0.007225	-0.102172
0.007227	-0.102204
0.007230	-0.102285
0.007232	-0.102478
0.007235	-0.102156
0.007237	-0.101995
0.007240	-0.102285
0.007242	-0.102204
0.007245	-0.102188
0.007247	-0.102204
0.007250	-0.102172
0.007252	-0.102124
0.007255	-0.102091
0.007257	-0.102220
0.007260	-0.102317
0.007262	-0.102365
0.007265	-0.102220
0.007267	-0.102108
0.007270	-0.102252
0.007272	-0.102156
0.007275	-0.102108
0.007277	-0.102236
0.007280	-0.102397
0.007282	-0.102091
0.007285	-0.102091
0.007287	-0.102124
0.007290	-0.102317
0.007292	-0.102043
0.007295	-0.102140
0.007297	-0.102220
0.007300	-0.102188
0.007302	-0.102091
0.007305	-0.102043
0.007307	-0.102413
0.007310	-0.102494
0.007312	-0.102043
0.007315	-0.102156
0.007317	-0.102333
0.007320	-0.102381
0.007322	-0.102220
0.007325	-0.102236
0.007327	-0.102188
0.007330	-0.102188
0.007332	-0.102124
0.007335	-0.102156
0.007337	-0.102397
0.007340	-0.102623
0.007342	-0.102091
0.007345	-0.102043
0.007347	-0.102365
0.007350	-0.102317
0.007352	-0.102236
0.007355	-0.102236
0.007357	-0.102220
0.007360	-0.102172
0.007362	-0.102188
0.007365	-0.102156
0.007367	-0.102349
0.007370	-0.102478
0.007372	-0.102220
0.007375	-0.102091
0.007377	-0.102236
0.007380	-0.102381
0.007382	-0.102236
0.007385	-0.102397
0.007387	-0.102333
0.007390	-0.102124
0.007392	-0.102091
0.007395	-0.102220
0.007397	-0.102413
0.007400	-0.102301
0.007402	-0.102252
0.007405	-0.102204
0.007407	-0.102188
0.007410	-0.102108
0.007412	-0.102140
0.007415	-0.102397
0.007417	-0.102526
0.007420	-0.102108
0.007422	-0.102156
0.007425	-0.102285
0.007427	-0.102574
0.007430	-0.102269
0.007432	-0.102269
0.007435	-0.102285
0.007437	-0.102188
0.007440	-0.102252
0.007442	-0.102236
0.007445	-0.102413
0.007447	-0.102687
0.007450	-0.102156
0.007452	-0.102075
0.007455	-0.102381
0.007457	-0.102349
0.007460	-0.102220
0.007462	-0.102252
0.007465	-0.102220
0.007467	-0.102236
0.007470	-0.102236
0.007472	-0.102301
0.007475	-0.102349
0.007477	-0.102430
0.007480	-0.102285
0.007482	-0.102204
0.007485	-0.102349
0.007487	-0.102156
0.007490	-0.102204
0.007492	-0.102413
0.007495	-0.102510
0.007497	-0.102204
0.007500	-0.102124
0.007502	-0.102204
0.007505	-0.102430
0.007507	-0.102252
0.007510	-0.102301
0.007512	-0.102333
0.007515	-0.102269
0.007517	-0.102124
0.007520	-0.102156
0.007522	-0.102462
0.007525	-0.102542
0.007527	-0.102140
0.007530	-0.102091
0.007532	-0.102494
0.007535	-0.102333
0.007537	-0.102365
0.007540	-0.102220
0.007542	-0.102269
0.007545	-0.102188
0.007547	-0.102236
0.007550	-0.102269
0.007552	-0.102430
0.007555	-0.102591
0.007557	-0.102333
0.007560	-0.102220
0.007562	-0.102301
0.007565	-0.102301
0.007567	-0.102172
0.007570	-0.102381
0.007572	-0.102462
0.007575	-0.102236
0.007577	-0.102220
0.007580	-0.102397
0.007582	-0.102446
0.007585	-0.102301
0.007587	-0.102301
0.007590	-0.102301
0.007592	-0.102188
0.007595	-0.102156
0.007597	-0.102188
0.007600	-0.102526
0.007602	-0.102607
0.007605	-0.102075
0.007607	-0.102075
0.007610	-0.102510
0.007612	-0.102478
0.007615	-0.102349
0.007617	-0.102220
0.007620	-0.102204
0.007622	-0.102220
0.007625	-0.102285
0.007627	-0.102349
0.007630	-0.102494
0.007632	-0.102526
0.007635	-0.102236
0.007637	-0.102220
0.007640	-0.102478
0.007642	-0.102301
0.007645	-0.102236
0.007647	-0.102301
0.007650	-0.102494
0.007652	-0.102252
0.007655	-0.102172
0.007657	-0.102462
0.007660	-0.102558
0.007662	-0.102236
0.007665	-0.102220
0.007667	-0.102365
0.007670	-0.102285
0.007672	-0.102236
0.007675	-0.102172
0.007677	-0.102462
0.007680	-0.102655
0.007682	-0.102156
0.007685	-0.102236
0.007687	-0.102381
0.007690	-0.102285
0.007692	-0.102220
0.007695	-0.102349
0.007697	-0.102574
0.007700	-0.102204
0.007702	-0.102188
0.007705	-0.102204
0.007707	-0.102478
0.007710	-0.102510
0.007712	-0.102285
0.007715	-0.102220
0.007717	-0.102317
0.007720	-0.102236
0.007722	-0.102317
0.007725	-0.102478
0.007727	-0.102607
0.007730	-0.102204
0.007732	-0.102140
0.007735	-0.102526
0.007737	-0.102446
0.007740	-0.102397
0.007742	-0.102365
0.007745	-0.102381
0.007747	-0.102236
0.007750	-0.102156
0.007752	-0.102301
0.007755	-0.102526
0.007757	-0.102752
0.007760	-0.102381
0.007762	-0.102140
0.007765	-0.102430
0.007767	-0.102381
0.007770	-0.102252
0.007772	-0.102446
0.007775	-0.102478
0.007777	-0.102204
0.007780	-0.102220
0.007782	-0.102381
0.007785	-0.102510
0.007787	-0.102430
0.007790	-0.102252
0.007792	-0.102220
0.007795	-0.102301
0.007797	-0.102269
0.007800	-0.102204
0.007802	-0.102478
0.007805	-0.102542
0.007807	-0.102091
0.007810	-0.102124
0.007812	-0.102381
0.007815	-0.102446
0.007817	-0.057833
0.007820	-0.014395
0.007822	0.017161
0.007825	0.040409
0.007827	0.057040
0.007830	0.068890
0.007832	0.077310
0.007835	0.083766
0.007837	0.089208
0.007840	0.092976
0.007842	0.094843
0.007845	0.096743
0.007847	0.098111
0.007850	0.098900
0.007852	0.099464
0.007855	0.100720
0.007857	0.101235
0.007860	0.100736
0.007862	0.100832
0.007865	0.101251
0.007867	0.101718
0.007870	0.101798
0.007872	0.101863
0.007875	0.101975
0.007877	0.101573
0.007880	0.101380
0.007882	0.101170
0.007885	0.102217
0.007887	0.102458
0.007890	0.101605
0.007892	0.101686
0.007895	0.101895
0.007897	0.101879
0.007900	0.101686
0.007902	0.102281
0.007905	0.102410
0.007907	0.101814
0.007910	0.101573
0.007912	0.101573
0.007915	0.102314
0.007917	0.102410
0.007920	0.102056
0.007922	0.102072
0.007925	0.102136
0.007927	0.101686
0.007930	0.101460
0.007932	0.102458
0.007935	0.102603
0.007937	0.101718
0.007940	0.101589
0.007942	0.102056
0.007945	0.102056
0.007947	0.102153
0.007950	0.102297
0.007952	0.102104
0.007955	0.101911
0.007957	0.101573
0.007960	0.101509
0.007962	0.102346
0.007965	0.102571
0.007967	0.101975
0.007970	0.101959
0.007972	0.102072
0.007975	0.101863
0.007977	0.101734
0.007980	0.102394
0.007982	0.102571
0.007985	0.101718
0.007987	0.101589
0.007990	0.101992
0.007992	0.102330
0.007995	0.102346
0.007997	0.102314
0.008000	0.102314
0.008002	0.102169
0.008005	0.101637
0.008007	0.101541
0.008010	0.102442
0.008012	0.102716
0.008015	0.101863
0.008017	0.101911
0.008020	0.102201
0.008022	0.101992
0.008025	0.101943
0.008027	0.102475
0.008030	0.102635
0.008032	0.101927
0.008035	0.101637
0.008037	0.101798
0.008040	0.102249
0.008042	0.102491
0.008045	0.102265
0.008047	0.102281
0.008050	0.102153
0.008052	0.101798
0.008055	0.101702
0.008057	0.102732
0.008060	0.102861
0.008062	0.101702
0.008065	0.101798
0.008067	0.102072
0.008070	0.102169
0.008072	0.102136
0.008075	0.102475
0.008077	0.102491
0.008080	0.102104
0.008082	0.101605
0.008085	0.101686
0.008087	0.102378
0.008090	0.102668
0.008092	0.102217
0.008095	0.102153
0.008097	0.102153
0.008100	0.101927
0.008102	0.101782
0.008105	0.102603
0.008107	0.102748
0.008110	0.101798
0.008112	0.101750
0.008115	0.102072
0.008117	0.102378
0.008120	0.102378
0.008122	0.102539
0.008125	0.102491
0.008127	0.102104
0.008130	0.101766
0.008132	0.101637
0.008135	0.102555
0.008137	0.102813
0.008140	0.102072
0.008142	0.102040
0.008145	0.102249
0.008147	0.102056
0.008150	0.101911
0.008152	0.102635
0.008155	0.102716
0.008157	0.101927
0.008160	0.101734
0.008162	0.102104
0.008165	0.102442
0.008167	0.102635
0.008170	0.102458
0.008172	0.102458
0.008175	0.102265
0.008177	0.101831
0.008180	0.101686
0.008182	0.102668
0.008185	0.102716
0.008187	0.102008
0.008190	0.102056
0.008192	0.102233
0.008195	0.102136
0.008197	0.101975
0.008200	0.102716
0.008202	0.102684
0.008205	0.101863
0.008207	0.101959
0.008210	0.102008
0.008212	0.102378
0.008215	0.102539
0.008217	0.102394
0.008220	0.102442
0.008222	0.102378
0.008225	0.101879
0.008227	0.101653
0.008230	0.102635
0.008232	0.102845
0.008235	0.101927
0.008237	0.101959
0.008240	0.102297
0.008242	0.102153
0.008245	0.102072
0.008247	0.102571
0.008250	0.102684
0.008252	0.102040
0.008255	0.101702
0.008257	0.101943
0.008260	0.102410
0.008262	0.102635
0.008265	0.102410
0.008267	0.102362
0.008270	0.102297
0.008272	0.101959
0.008275	0.101831
0.008277	0.102635
0.008280	0.102893
0.008282	0.101975
0.008285	0.102040
0.008287	0.102233
0.008290	0.102314
0.008292	0.102217
0.008295	0.102603
0.008297	0.102652
0.008300	0.102008
0.008302	0.101831
0.008305	0.101814
0.008307	0.102587
0.008310	0.102684
0.008312	0.102281
0.008315	0.102265
0.008317	0.102378
0.008320	0.101847
0.008322	0.101750
0.008325	0.102748
0.008327	0.102845
0.008330	0.101975
0.008332	0.101879
0.008335	0.102185
0.008337	0.102378
0.008340	0.102362
0.008342	0.102587
0.008345	0.102635
0.008347	0.102281
0.008350	0.101702
0.008352	0.101766
0.008355	0.102539
0.008357	0.102861
0.008360	0.102201
0.008362	0.102265
0.008365	0.102281
0.008367	0.102136
0.008370	0.101911
0.008372	0.102716
0.008375	0.102861
0.008377	0.101927
0.008380	0.101879
0.008382	0.102056
0.008385	0.102426
0.008387	0.102475
0.008390	0.102668
0.008392	0.102603
0.008395	0.102297
0.008397	0.101927
0.008400	0.101734
0.008402	0.102732
0.008405	0.102829
0.008407	0.102056
0.008410	0.102169
0.008412	0.102394
0.008415	0.102217
0.008417	0.102169
0.008420	0.102796
0.008422	0.102796
0.008425	0.102217
0.008427	0.101879
0.008430	0.102169
0.008432	0.102523
0.008435	0.102619
0.008437	0.102491
0.008440	0.102475
0.008442	0.102362
0.008445	0.101959
0.008447	0.101734
0.008450	0.102668
0.008452	0.102990
0.008455	0.102040
0.008457	0.102088
0.008460	0.102925
0.008462	0.102314
0.008465	0.102104
0.008467	0.102523
0.008470	0.102684
0.008472	0.102169
0.008475	0.101847
0.008477	0.101975
0.008480	0.102523
0.008482	0.102796
0.008485	0.102458
0.008487	0.102507
0.008490	0.102442
0.008492	0.101943
0.008495	0.101734
0.008497	0.102732
0.008500	0.102957
0.008502	0.102040
0.008505	0.102056
0.008507	0.102297
0.008510	0.102346
0.008512	0.102362
0.008515	0.102716
0.008517	0.102652
0.008520	0.102072
0.008522	0.101798
0.008525	0.101911
0.008527	0.102571
0.008530	0.102764
0.008532	0.102265
0.008535	0.102619
0.008537	0.102523
0.008540	0.102136
0.008542	0.101766
0.008545	0.102845
0.008547	0.102861
0.008550	0.102072
0.008552	0.101927
0.008555	0.102233
0.008557	0.102523
0.008560	0.102491
0.008562	0.102684
0.008565	0.102635
0.008567	0.102346
0.008570	0.102008
0.008572	0.101927
0.008575	0.102684
0.008577	0.102861
0.008580	0.102410
0.008582	0.102410
0.008585	0.102458
0.008587	0.102056
0.008590	0.101959
0.008592	0.102780
0.008595	0.102909
0.008597	0.102185
0.008600	0.101879
0.008602	0.102249
0.008605	0.102523
0.008607	0.102603
0.008610	0.102603
0.008612	0.102507
0.008615	0.102442
0.008617	0.101975
0.008620	0.101863
0.008622	0.102684
0.008625	0.102974
0.008627	0.102314
0.008630	0.102249
0.008632	0.102362
0.008635	0.102169
0.008637	0.102120
0.008640	0.102796
0.008642	0.102861
0.008645	0.102217
0.008647	0.101911
0.008650	0.102153
0.008652	0.102652
0.008655	0.102764
0.008657	0.102555
0.008660	0.102587
0.008662	0.102442
0.008665	0.101943
0.008667	0.101927
0.008670	0.102748
0.008672	0.102990
0.008675	0.102185
0.008677	0.102040
0.008680	0.102281
0.008682	0.102507
0.008685	0.102539
0.008687	0.102748
0.008690	0.102716
0.008692	0.102346
0.008695	0.102024
0.008697	0.102040
0.008700	0.102652
0.008702	0.103054
0.008705	0.102169
0.008707	0.102378
0.008710	0.102233
0.008712	0.102265
0.008715	0.101975
0.008717	0.102941
0.008720	0.102877
0.008722	0.102201
0.008725	0.101927
0.008727	0.102249
0.008730	0.102539
0.008732	0.102603
0.008735	0.102539
0.008737	0.102571
0.008740	0.102555
0.008742	0.101959
0.008745	0.101831
0.008747	0.102796
0.008750	0.102974
0.008752	0.102185
0.008755	0.102281
0.008757	0.102394
0.008760	0.102362
0.008762	0.102281
0.008765	0.102732
0.008767	0.102716
0.008770	0.102458
0.008772	0.101959
0.008775	0.102104
0.008777	0.102619
0.008780	0.102780
0.008782	0.102426
0.008785	0.102571
0.008787	0.102571
0.008790	0.102217
0.008792	0.102024
0.008795	0.102796
0.008797	0.103006
0.008800	0.102185
0.008802	0.102104
0.008805	0.102217
0.008807	0.102619
0.008810	0.102571
0.008812	0.102603
0.008815	0.102635
0.008817	0.057749
0.008820	0.014134
0.008822	-0.017679
0.008825	-0.040252
0.008827	-0.056899
0.008830	-0.069409
0.008832	-0.078264
0.008835	-0.084575
0.008837	-0.089566
0.008840	-0.092882
0.008842	-0.095281
0.008845	-0.097036
0.008847	-0.098517
0.008850	-0.099612
0.008852	-0.100304
0.008855	-0.100626
0.008857	-0.101093
0.008860	-0.101351
0.008862	-0.101431
0.008865	-0.101608
0.008867	-0.101947
0.008870	-0.102188
0.008872	-0.101786
0.008875	-0.101882
0.008877	-0.102220
0.008880	-0.102285
0.008882	-0.102140
0.008885	-0.102059
0.008887	-0.101995
0.008890	-0.102124
0.008892	-0.102124
0.008895	-0.102108
0.008897	-0.102349
0.008900	-0.102446
0.008902	-0.102156
0.008905	-0.102075
0.008907	-0.102333
0.008910	-0.102301
0.008912	-0.102172
0.008915	-0.102236
0.008917	-0.102317
0.008920	-0.102204
0.008922	-0.102108
0.008925	-0.102269
0.008927	-0.102413
0.008930	-0.102252
0.008932	-0.102140
0.008935	-0.102204
0.008937	-0.102285
0.008940	-0.102204
0.008942	-0.102156
0.008945	-0.102349
0.008947	-0.102397
0.008950	-0.102091
0.008952	-0.102011
0.008955	-0.102430
0.008957	-0.102381
0.008960	-0.102413
0.008962	-0.102220
0.008965	-0.102349
0.008967	-0.102091
0.008970	-0.102252
0.008972	-0.102075
0.008975	-0.102430
0.008977	-0.102591
0.008980	-0.102220
0.008982	-0.102108
0.008985	-0.102462
0.008987	-0.102413
0.008990	-0.102317
0.008992	-0.102317
0.008995	-0.102301
0.008997	-0.102236
0.009000	-0.102285
0.009002	-0.102285
0.009005	-0.102397
0.009007	-0.102542
0.009010	-0.102269
0.009012	-0.102204
0.009015	-0.102478
0.009017	-0.102269
0.009020	-0.102285
0.009022	-0.102397
0.009025	-0.102381
0.009027	-0.102220
0.009030	-0.102124
0.009032	-0.102365
0.009035	-0.102462
0.009037	-0.102317
0.009040	-0.102349
0.009042	-0.102269
0.009045	-0.102349
0.009047	-0.102220
0.009050	-0.102252
0.009052	-0.102574
0.009055	-0.102446
0.009057	-0.102220
0.009060	-0.102252
0.009062	-0.102494
0.009065	-0.102574
0.009067	-0.102494
0.009070	-0.102301
0.009072	-0.102365
0.009075	-0.102285
0.009077	-0.102285
0.009080	-0.102204
0.009082	-0.102574
0.009085	-0.102558
0.009087	-0.102204
0.009090	-0.102285
0.009092	-0.102639
0.009095	-0.102446
0.009097	-0.102430
0.009100	-0.102349
0.009102	-0.102381
0.009105	-0.102285
0.009107	-0.102349
0.009110	-0.102301
0.009112	-0.102494
0.009115	-0.102639
0.009117	-0.102301
0.009120	-0.102236
0.009122	-0.102510
0.009125	-0.102462
0.009127	-0.102285
0.009130	-0.102446
0.009132	-0.102413
0.009135	-0.102413
0.009137	-0.102220
0.009140	-0.102430
0.009142	-0.102478
0.009145	-0.102542
0.009147	-0.102413
0.009150	-0.102430
0.009152	-0.102494
0.009155	-0.102381
0.009157	-0.102252
0.009160	-0.102462
0.009162	-0.102526
0.009165	-0.102381
0.009167	-0.102269
0.009170	-0.102397
0.009172	-0.102542
0.009175	-0.102478
0.009177	-0.102397
0.009180	-0.102413
0.009182	-0.102510
0.009185	-0.102333
0.009187	-0.102252
0.009190	-0.102558
0.009192	-0.102558
0.009195	-0.102397
0.009197	-0.102317
0.009200	-0.102301
0.009202	-0.102478
0.009205	-0.102558
0.009207	-0.102413
0.009210	-0.102574
0.009212	-0.102349
0.009215	-0.102494
0.009217	-0.102188
0.009220	-0.102655
0.009222	-0.102623
0.009225	-0.102381
0.009227	-0.102317
0.009230	-0.102526
0.009232	-0.102655
0.009235	-0.102542
0.009237	-0.102446
0.009240	-0.102478
0.009242	-0.102446
0.009245	-0.102349
0.009247	-0.102381
0.009250	-0.102623
0.009252	-0.102639
0.009255	-0.102365
0.009257	-0.102397
0.009260	-0.102623
0.009262	-0.102591
0.009265	-0.102591
0.009267	-0.102462
0.009270	-0.102333
0.009272	-0.102478
0.009275	-0.102462
0.009277	-0.102349
0.009280	-0.102687
0.009282	-0.102671
0.009285	-0.102446
0.009287	-0.102430
0.009290	-0.102719
0.009292	-0.102639
0.009295	-0.102655
0.009297	-0.102526
0.009300	-0.102397
0.009302	-0.102526
0.009305	-0.102478
0.009307	-0.102397
0.009310	-0.102591
0.009312	-0.102639
0.009315	-0.102381
0.009317	-0.102430
0.009320	-0.102768
0.009322	-0.102591
0.009325	-0.102510
0.009327	-0.102446
0.009330	-0.102494
0.009332	-0.102494
0.009335	-0.102510
0.009337	-0.102526
0.009340	-0.102623
0.009342	-0.102703
0.009345	-0.102413
0.009347	-0.102542
0.009350	-0.102687
0.009352	-0.102655
0.009355	-0.102446
0.009357	-0.102574
0.009360	-0.102446
0.009362	-0.102542
0.009365	-0.102526
0.009367	-0.102510
0.009370	-0.102413
0.009372	-0.102623
0.009375	-0.102639
0.009377	-0.102542
0.009380	-0.102671
0.009382	-0.102607
0.009385	-0.102478
0.009387	-0.102478
0.009390	-0.102510
0.009392	-0.102542
0.009395	-0.102478
0.009397	-0.102591
0.009400	-0.102639
0.009402	-0.102623
0.009405	-0.102510
0.009407	-0.102478
0.009410	-0.102671
0.009412	-0.102526
0.009415	-0.102526
0.009417	-0.102607
0.009420	-0.102542
0.009422	-0.102607
0.009425	-0.102526
0.009427	-0.102510
0.009430	-0.102542
0.009432	-0.102639
0.009435	-0.102655
0.009437	-0.102623
0.009440	-0.102591
0.009442	-0.102542
0.009445	-0.102462
0.009447	-0.102607
0.009450	-0.102655
0.009452	-0.102671
0.009455	-0.102478
0.009457	-0.102526
0.009460	-0.102542
0.009462	-0.102752
0.009465	-0.102526
0.009467	-0.102623
0.009470	-0.102558
0.009472	-0.102655
0.009475	-0.102542
0.009477	-0.102639
0.009480	-0.102510
0.009482	-0.102639
0.009485	-0.102510
0.009487	-0.102542
0.009490	-0.102671
0.009492	-0.102687
0.009495	-0.102526
0.009497	-0.102542
0.009500	-0.102623
0.009502	-0.102591
0.009505	-0.102607
0.009507	-0.102607
0.009510	-0.102607
0.009512	-0.102542
0.009515	-0.102478
0.009517	-0.102607
0.009520	-0.102752
0.009522	-0.102655
0.009525	-0.102607
0.009527	-0.102607
0.009530	-0.102639
0.009532	-0.102558
0.009535	-0.102494
0.009537	-0.102623
0.009540	-0.102574
0.009542	-0.102671
0.009545	-0.102542
0.009547	-0.102639
0.009550	-0.102574
0.009552	-0.102639
0.009555	-0.102574
0.009557	-0.102639
0.009560	-0.102687
0.009562	-0.102639
0.009565	-0.102623
0.009567	-0.102591
0.009570	-0.102558
0.009572	-0.102639
0.009575	-0.102591
0.009577	-0.102591
0.009580	-0.102655
0.009582	-0.102671
0.009585	-0.102558
0.009587	-0.102591
0.009590	-0.102623
0.009592	-0.102591
0.009595	-0.102719
0.009597	-0.102607
0.009600	-0.102574
0.009602	-0.102623
0.009605	-0.102655
0.009607	-0.102623
0.009610	-0.102671
0.009612	-0.102735
0.009615	-0.102591
0.009617	-0.102623
0.009620	-0.102639
0.009622	-0.102510
0.009625	-0.102542
0.009627	-0.102623
0.009630	-0.102671
0.009632	-0.102623
0.009635	-0.102558
0.009637	-0.102607
0.009640	-0.102574
0.009642	-0.102526
0.009645	-0.102671
0.009647	-0.102607
0.009650	-0.102671
0.009652	-0.102687
0.009655	-0.102623
0.009657	-0.102671
0.009660	-0.102639
0.009662	-0.102607
0.009665	-0.102655
0.009667	-0.102639
0.009670	-0.102703
0.009672	-0.102687
0.009675	-0.102639
0.009677	-0.102671
0.009680	-0.102671
0.009682	-0.102655
0.009685	-0.102623
0.009687	-0.102735
0.009690	-0.102623
0.009692	-0.102655
0.009695	-0.102655
0.009697	-0.102365
0.009700	-0.102655
0.009702	-0.102639
0.009705	-0.102591
0.009707	-0.102639
0.009710	-0.102639
0.009712	-0.102703
0.009715	-0.102655
0.009717	-0.102655
0.009720	-0.102655
0.009722	-0.102591
0.009725	-0.102671
0.009727	-0.102671
0.009730	-0.102735
0.009732	-0.102639
0.009735	-0.102671
0.009737	-0.102639
0.009740	-0.102671
0.009742	-0.102639
0.009745	-0.102623
0.009747	-0.102639
0.009750	-0.102639
0.009752	-0.102655
0.009755	-0.102671
0.009757	-0.102655
0.009760	-0.102719
0.009762	-0.102719
0.009765	-0.102655
0.009767	-0.102671
0.009770	-0.102542
0.009772	-0.102671
0.009775	-0.102623
0.009777	-0.102623
0.009780	-0.102687
0.009782	-0.102526
0.009785	-0.102639
0.009787	-0.102719
0.009790	-0.102752
0.009792	-0.102687
0.009795	-0.102671
0.009797	-0.102703
0.009800	-0.102687
0.009802	-0.102671
0.009805	-0.102671
0.009807	-0.102719
0.009810	-0.102735
0.009812	-0.102655
0.009815	-0.102671
0.009817	-0.058219
0.009820	-0.014862
0.009822	0.016662
0.009825	0.039749
0.009827	0.056541
0.009830	0.068665
0.009832	0.077423
0.009835	0.084121
0.009837	0.088757
0.009840	0.092332
0.009842	0.094618
0.009845	0.096501
0.009847	0.097806
0.009850	0.098739
0.009852	0.099480
0.009855	0.100124
0.009857	0.100510
0.009860	0.100720
0.009862	0.100913
0.009865	0.101058
0.009867	0.101267
0.009870	0.101396
0.009872	0.101428
0.009875	0.101509
0.009877	0.101702
0.009880	0.101573
0.009882	0.101444
0.009885	0.101621
0.009887	0.101637
0.009890	0.101621
0.009892	0.101525
0.009895	0.101492
0.009897	0.101557
0.009900	0.101734
0.009902	0.101589
0.009905	0.101637
0.009907	0.101605
0.009910	0.101670
0.009912	0.101653
0.009915	0.101670
0.009917	0.101702
0.009920	0.101637
0.009922	0.101637
0.009925	0.101637
0.009927	0.101750
0.009930	0.101766
0.009932	0.101670
0.009935	0.101718
0.009937	0.101718
0.009940	0.101718
0.009942	0.101766
0.009945	0.101750
0.009947	0.101766
0.009950	0.101911
0.009952	0.101734
0.009955	0.101895
0.009957	0.101766
0.009960	0.101750
0.009962	0.101734
0.009965	0.101766
0.009967	0.101734
0.009970	0.101814
0.009972	0.101847
0.009975	0.101895
0.009977	0.101814
0.009980	0.101750
0.009982	0.101766
0.009985	0.101734
0.009987	0.101798
0.009990	0.101847
0.009992	0.101766
0.009995	0.101798
0.009997	0.101847

